%YAML 1.1
%TAG !u! tag:unity3d.com,2011:
--- !u!221 &22100000
AnimatorOverrideController:
  m_ObjectHideFlags: 0
  m_CorrespondingSourceObject: {fileID: 0}
  m_PrefabInstance: {fileID: 0}
  m_PrefabAsset: {fileID: 0}
  m_Name: ManAnimator
  m_Controller: {fileID: 9100000, guid: 8536e20e9234f6148889bb9f6e2a361d, type: 2}
  m_Clips:
  - m_OriginalClip: {fileID: 7400000, guid: 322071b81278d8840b36cbe1375f9c0d, type: 2}
    m_OverrideClip: {fileID: -203655887218126122, guid: 2c702e4508498f04bb1177e6f70321cc,
      type: 3}
  - m_OriginalClip: {fileID: 7400000, guid: 2cef5827b38709a4b96b0e0a06f9e3bf, type: 2}
    m_OverrideClip: {fileID: -203655887218126122, guid: 789afe737afff774c9e70eb6b358f32a,
      type: 3}
  - m_OriginalClip: {fileID: 7400000, guid: 6b60f4341d3366949859d50c22c70a6f, type: 2}
    m_OverrideClip: {fileID: 7400000, guid: 570c0fbc4a00a2742aa48c0e09a952ac, type: 2}
  - m_OriginalClip: {fileID: 7400000, guid: 22fb2e067a231254587167926933ac53, type: 2}
    m_OverrideClip: {fileID: -203655887218126122, guid: 2c37ca3fb1feb194cb0d8638e2bd6f82,
      type: 3}
  - m_OriginalClip: {fileID: 7400000, guid: 088420a884121124db6ce3bef23d8077, type: 2}
    m_OverrideClip: {fileID: 7400000, guid: 2cef5827b38709a4b96b0e0a06f9e3bf, type: 2}
