%YAML 1.1
%TAG !u! tag:unity3d.com,2011:
--- !u!1 &8278877004261067048
GameObject:
  m_ObjectHideFlags: 0
  m_CorrespondingSourceObject: {fileID: 0}
  m_PrefabInstance: {fileID: 0}
  m_PrefabAsset: {fileID: 0}
  serializedVersion: 6
  m_Component:
  - component: {fileID: 8278877004261067055}
  m_Layer: 0
  m_Name: Cybercar
  m_TagString: Untagged
  m_Icon: {fileID: 0}
  m_NavMeshLayer: 0
  m_StaticEditorFlags: 0
  m_IsActive: 1
--- !u!4 &8278877004261067055
Transform:
  m_ObjectHideFlags: 0
  m_CorrespondingSourceObject: {fileID: 0}
  m_PrefabInstance: {fileID: 0}
  m_PrefabAsset: {fileID: 0}
  m_GameObject: {fileID: 8278877004261067048}
  m_LocalRotation: {x: 0, y: 0, z: 0, w: 1}
  m_LocalPosition: {x: 0, y: 0, z: 0}
  m_LocalScale: {x: 1.2, y: 1.2, z: 1.2}
  m_ConstrainProportionsScale: 0
  m_Children:
  - {fileID: 8461915948381236888}
  m_Father: {fileID: 0}
  m_RootOrder: 0
  m_LocalEulerAnglesHint: {x: 0, y: 0, z: 0}
--- !u!1001 &8278877004506630515
PrefabInstance:
  m_ObjectHideFlags: 0
  serializedVersion: 2
  m_Modification:
    m_TransformParent: {fileID: 8278877004261067055}
    m_Modifications:
    - target: {fileID: -8679921383154817045, guid: b3cebcac48c61b34ba8aa0ba61598581,
        type: 3}
      propertyPath: m_RootOrder
      value: 0
      objectReference: {fileID: 0}
    - target: {fileID: -8679921383154817045, guid: b3cebcac48c61b34ba8aa0ba61598581,
        type: 3}
      propertyPath: m_LocalPosition.x
      value: 0
      objectReference: {fileID: 0}
    - target: {fileID: -8679921383154817045, guid: b3cebcac48c61b34ba8aa0ba61598581,
        type: 3}
      propertyPath: m_LocalPosition.y
      value: 0.78
      objectReference: {fileID: 0}
    - target: {fileID: -8679921383154817045, guid: b3cebcac48c61b34ba8aa0ba61598581,
        type: 3}
      propertyPath: m_LocalPosition.z
      value: 0
      objectReference: {fileID: 0}
    - target: {fileID: -8679921383154817045, guid: b3cebcac48c61b34ba8aa0ba61598581,
        type: 3}
      propertyPath: m_LocalRotation.w
      value: 0.7071068
      objectReference: {fileID: 0}
    - target: {fileID: -8679921383154817045, guid: b3cebcac48c61b34ba8aa0ba61598581,
        type: 3}
      propertyPath: m_LocalRotation.x
      value: -0.7071068
      objectReference: {fileID: 0}
    - target: {fileID: -8679921383154817045, guid: b3cebcac48c61b34ba8aa0ba61598581,
        type: 3}
      propertyPath: m_LocalRotation.y
      value: 0
      objectReference: {fileID: 0}
    - target: {fileID: -8679921383154817045, guid: b3cebcac48c61b34ba8aa0ba61598581,
        type: 3}
      propertyPath: m_LocalRotation.z
      value: 0
      objectReference: {fileID: 0}
    - target: {fileID: -8679921383154817045, guid: b3cebcac48c61b34ba8aa0ba61598581,
        type: 3}
      propertyPath: m_LocalEulerAnglesHint.x
      value: -90
      objectReference: {fileID: 0}
    - target: {fileID: -8679921383154817045, guid: b3cebcac48c61b34ba8aa0ba61598581,
        type: 3}
      propertyPath: m_LocalEulerAnglesHint.y
      value: 0
      objectReference: {fileID: 0}
    - target: {fileID: -8679921383154817045, guid: b3cebcac48c61b34ba8aa0ba61598581,
        type: 3}
      propertyPath: m_LocalEulerAnglesHint.z
      value: 0
      objectReference: {fileID: 0}
    - target: {fileID: 919132149155446097, guid: b3cebcac48c61b34ba8aa0ba61598581,
        type: 3}
      propertyPath: m_Name
      value: uploads_files_2921819_CyberCar
      objectReference: {fileID: 0}
    m_RemovedComponents: []
  m_SourcePrefab: {fileID: 100100000, guid: b3cebcac48c61b34ba8aa0ba61598581, type: 3}
--- !u!4 &8461915948381236888 stripped
Transform:
  m_CorrespondingSourceObject: {fileID: -8679921383154817045, guid: b3cebcac48c61b34ba8aa0ba61598581,
    type: 3}
  m_PrefabInstance: {fileID: 8278877004506630515}
  m_PrefabAsset: {fileID: 0}
--- !u!1 &9089692400959992866 stripped
GameObject:
  m_CorrespondingSourceObject: {fileID: 919132149155446097, guid: b3cebcac48c61b34ba8aa0ba61598581,
    type: 3}
  m_PrefabInstance: {fileID: 8278877004506630515}
  m_PrefabAsset: {fileID: 0}
--- !u!64 &8278877005414125865
MeshCollider:
  m_ObjectHideFlags: 0
  m_CorrespondingSourceObject: {fileID: 0}
  m_PrefabInstance: {fileID: 0}
  m_PrefabAsset: {fileID: 0}
  m_GameObject: {fileID: 9089692400959992866}
  m_Material: {fileID: 0}
  m_IsTrigger: 0
  m_Enabled: 1
  serializedVersion: 4
  m_Convex: 1
  m_CookingOptions: 30
  m_Mesh: {fileID: -3461389313516287805, guid: b3cebcac48c61b34ba8aa0ba61598581, type: 3}
