%YAML 1.1
%TAG !u! tag:unity3d.com,2011:
--- !u!1001 &3350608134833941984
PrefabInstance:
  m_ObjectHideFlags: 0
  serializedVersion: 2
  m_Modification:
    m_TransformParent: {fileID: 0}
    m_Modifications:
    - target: {fileID: 623150813728196135, guid: 57a7fcc8445f63542ad17c6297f481b9,
        type: 3}
      propertyPath: m_RootOrder
      value: 3
      objectReference: {fileID: 0}
    - target: {fileID: 623150814112471399, guid: 57a7fcc8445f63542ad17c6297f481b9,
        type: 3}
      propertyPath: m_RootOrder
      value: 6
      objectReference: {fileID: 0}
    - target: {fileID: 623150814890543157, guid: 57a7fcc8445f63542ad17c6297f481b9,
        type: 3}
      propertyPath: m_RootOrder
      value: 2
      objectReference: {fileID: 0}
    - target: {fileID: 623150814890543157, guid: 57a7fcc8445f63542ad17c6297f481b9,
        type: 3}
      propertyPath: m_LocalPosition.z
      value: 0.77
      objectReference: {fileID: 0}
    - target: {fileID: 623150815092121124, guid: 57a7fcc8445f63542ad17c6297f481b9,
        type: 3}
      propertyPath: m_RootOrder
      value: 0
      objectReference: {fileID: 0}
    - target: {fileID: 3868326098092834985, guid: 57a7fcc8445f63542ad17c6297f481b9,
        type: 3}
      propertyPath: m_Avatar
      value: 
      objectReference: {fileID: 9000000, guid: 1b220f585f8f7014aa6a428079f9f315, type: 3}
    - target: {fileID: 3868326098092834985, guid: 57a7fcc8445f63542ad17c6297f481b9,
        type: 3}
      propertyPath: m_Controller
      value: 
      objectReference: {fileID: 22100000, guid: c45f9c19269ec494583fd7cea81c8d7a,
        type: 2}
    - target: {fileID: 4059717616814757512, guid: 57a7fcc8445f63542ad17c6297f481b9,
        type: 3}
      propertyPath: m_RootOrder
      value: 0
      objectReference: {fileID: 0}
    - target: {fileID: 4059717616814757512, guid: 57a7fcc8445f63542ad17c6297f481b9,
        type: 3}
      propertyPath: m_LocalPosition.x
      value: -7.027542
      objectReference: {fileID: 0}
    - target: {fileID: 4059717616814757512, guid: 57a7fcc8445f63542ad17c6297f481b9,
        type: 3}
      propertyPath: m_LocalPosition.y
      value: 0
      objectReference: {fileID: 0}
    - target: {fileID: 4059717616814757512, guid: 57a7fcc8445f63542ad17c6297f481b9,
        type: 3}
      propertyPath: m_LocalPosition.z
      value: -15.286964
      objectReference: {fileID: 0}
    - target: {fileID: 4059717616814757512, guid: 57a7fcc8445f63542ad17c6297f481b9,
        type: 3}
      propertyPath: m_LocalRotation.w
      value: 0
      objectReference: {fileID: 0}
    - target: {fileID: 4059717616814757512, guid: 57a7fcc8445f63542ad17c6297f481b9,
        type: 3}
      propertyPath: m_LocalRotation.x
      value: -0
      objectReference: {fileID: 0}
    - target: {fileID: 4059717616814757512, guid: 57a7fcc8445f63542ad17c6297f481b9,
        type: 3}
      propertyPath: m_LocalRotation.y
      value: 1
      objectReference: {fileID: 0}
    - target: {fileID: 4059717616814757512, guid: 57a7fcc8445f63542ad17c6297f481b9,
        type: 3}
      propertyPath: m_LocalRotation.z
      value: -0
      objectReference: {fileID: 0}
    - target: {fileID: 4059717616814757512, guid: 57a7fcc8445f63542ad17c6297f481b9,
        type: 3}
      propertyPath: m_LocalEulerAnglesHint.x
      value: 0
      objectReference: {fileID: 0}
    - target: {fileID: 4059717616814757512, guid: 57a7fcc8445f63542ad17c6297f481b9,
        type: 3}
      propertyPath: m_LocalEulerAnglesHint.y
      value: 180
      objectReference: {fileID: 0}
    - target: {fileID: 4059717616814757512, guid: 57a7fcc8445f63542ad17c6297f481b9,
        type: 3}
      propertyPath: m_LocalEulerAnglesHint.z
      value: 0
      objectReference: {fileID: 0}
    - target: {fileID: 4059717616814757516, guid: 57a7fcc8445f63542ad17c6297f481b9,
        type: 3}
      propertyPath: m_Name
      value: DialogueNPC_Man Variant
      objectReference: {fileID: 0}
    - target: {fileID: 4059717616814757516, guid: 57a7fcc8445f63542ad17c6297f481b9,
        type: 3}
      propertyPath: m_IsActive
      value: 1
      objectReference: {fileID: 0}
    - target: {fileID: 4789261475536079237, guid: 57a7fcc8445f63542ad17c6297f481b9,
        type: 3}
      propertyPath: m_RootOrder
      value: 4
      objectReference: {fileID: 0}
    - target: {fileID: 6989288902420054789, guid: 57a7fcc8445f63542ad17c6297f481b9,
        type: 3}
      propertyPath: m_IsActive
      value: 0
      objectReference: {fileID: 0}
    - target: {fileID: 7212403791484602596, guid: 57a7fcc8445f63542ad17c6297f481b9,
        type: 3}
      propertyPath: m_RootOrder
      value: 1
      objectReference: {fileID: 0}
    - target: {fileID: 8973914364925663965, guid: 57a7fcc8445f63542ad17c6297f481b9,
        type: 3}
      propertyPath: actorName
      value: "\u0422\u043E\u0440\u0433\u043E\u0432\u0435\u0446"
      objectReference: {fileID: 0}
    - target: {fileID: 8973914364925663965, guid: 57a7fcc8445f63542ad17c6297f481b9,
        type: 3}
      propertyPath: dialogueFileName
      value: Salesman
      objectReference: {fileID: 0}
    m_RemovedComponents: []
  m_SourcePrefab: {fileID: 100100000, guid: 57a7fcc8445f63542ad17c6297f481b9, type: 3}
--- !u!4 &1596741509584796520 stripped
Transform:
  m_CorrespondingSourceObject: {fileID: 4059717616814757512, guid: 57a7fcc8445f63542ad17c6297f481b9,
    type: 3}
  m_PrefabInstance: {fileID: 3350608134833941984}
  m_PrefabAsset: {fileID: 0}
--- !u!1001 &3350608135604042244
PrefabInstance:
  m_ObjectHideFlags: 0
  serializedVersion: 2
  m_Modification:
    m_TransformParent: {fileID: 1596741509584796520}
    m_Modifications:
    - target: {fileID: -9222169582298758307, guid: 1b220f585f8f7014aa6a428079f9f315,
        type: 3}
      propertyPath: m_LocalPosition.x
      value: -0.00000020465788
      objectReference: {fileID: 0}
    - target: {fileID: -9222169582298758307, guid: 1b220f585f8f7014aa6a428079f9f315,
        type: 3}
      propertyPath: m_LocalPosition.y
      value: 0.027030004
      objectReference: {fileID: 0}
    - target: {fileID: -9222169582298758307, guid: 1b220f585f8f7014aa6a428079f9f315,
        type: 3}
      propertyPath: m_LocalPosition.z
      value: -0.000000020164384
      objectReference: {fileID: 0}
    - target: {fileID: -9222169582298758307, guid: 1b220f585f8f7014aa6a428079f9f315,
        type: 3}
      propertyPath: m_LocalRotation.w
      value: -0.99147564
      objectReference: {fileID: 0}
    - target: {fileID: -9222169582298758307, guid: 1b220f585f8f7014aa6a428079f9f315,
        type: 3}
      propertyPath: m_LocalRotation.x
      value: 0.0018188279
      objectReference: {fileID: 0}
    - target: {fileID: -9222169582298758307, guid: 1b220f585f8f7014aa6a428079f9f315,
        type: 3}
      propertyPath: m_LocalRotation.y
      value: 0.010444037
      objectReference: {fileID: 0}
    - target: {fileID: -9222169582298758307, guid: 1b220f585f8f7014aa6a428079f9f315,
        type: 3}
      propertyPath: m_LocalRotation.z
      value: 0.12986012
      objectReference: {fileID: 0}
    - target: {fileID: -8679921383154817045, guid: 1b220f585f8f7014aa6a428079f9f315,
        type: 3}
      propertyPath: m_RootOrder
      value: 5
      objectReference: {fileID: 0}
    - target: {fileID: -8679921383154817045, guid: 1b220f585f8f7014aa6a428079f9f315,
        type: 3}
      propertyPath: m_LocalScale.x
      value: 1
      objectReference: {fileID: 0}
    - target: {fileID: -8679921383154817045, guid: 1b220f585f8f7014aa6a428079f9f315,
        type: 3}
      propertyPath: m_LocalScale.y
      value: 1
      objectReference: {fileID: 0}
    - target: {fileID: -8679921383154817045, guid: 1b220f585f8f7014aa6a428079f9f315,
        type: 3}
      propertyPath: m_LocalScale.z
      value: 1
      objectReference: {fileID: 0}
    - target: {fileID: -8679921383154817045, guid: 1b220f585f8f7014aa6a428079f9f315,
        type: 3}
      propertyPath: m_LocalPosition.x
      value: 0
      objectReference: {fileID: 0}
    - target: {fileID: -8679921383154817045, guid: 1b220f585f8f7014aa6a428079f9f315,
        type: 3}
      propertyPath: m_LocalPosition.y
      value: 0
      objectReference: {fileID: 0}
    - target: {fileID: -8679921383154817045, guid: 1b220f585f8f7014aa6a428079f9f315,
        type: 3}
      propertyPath: m_LocalPosition.z
      value: 0
      objectReference: {fileID: 0}
    - target: {fileID: -8679921383154817045, guid: 1b220f585f8f7014aa6a428079f9f315,
        type: 3}
      propertyPath: m_LocalRotation.w
      value: 1
      objectReference: {fileID: 0}
    - target: {fileID: -8679921383154817045, guid: 1b220f585f8f7014aa6a428079f9f315,
        type: 3}
      propertyPath: m_LocalRotation.x
      value: 0
      objectReference: {fileID: 0}
    - target: {fileID: -8679921383154817045, guid: 1b220f585f8f7014aa6a428079f9f315,
        type: 3}
      propertyPath: m_LocalRotation.y
      value: 0
      objectReference: {fileID: 0}
    - target: {fileID: -8679921383154817045, guid: 1b220f585f8f7014aa6a428079f9f315,
        type: 3}
      propertyPath: m_LocalRotation.z
      value: 0
      objectReference: {fileID: 0}
    - target: {fileID: -8679921383154817045, guid: 1b220f585f8f7014aa6a428079f9f315,
        type: 3}
      propertyPath: m_LocalEulerAnglesHint.x
      value: 0
      objectReference: {fileID: 0}
    - target: {fileID: -8679921383154817045, guid: 1b220f585f8f7014aa6a428079f9f315,
        type: 3}
      propertyPath: m_LocalEulerAnglesHint.y
      value: 0
      objectReference: {fileID: 0}
    - target: {fileID: -8679921383154817045, guid: 1b220f585f8f7014aa6a428079f9f315,
        type: 3}
      propertyPath: m_LocalEulerAnglesHint.z
      value: 0
      objectReference: {fileID: 0}
    - target: {fileID: -8365295519350668791, guid: 1b220f585f8f7014aa6a428079f9f315,
        type: 3}
      propertyPath: m_LocalPosition.x
      value: -0.000019761725
      objectReference: {fileID: 0}
    - target: {fileID: -8365295519350668791, guid: 1b220f585f8f7014aa6a428079f9f315,
        type: 3}
      propertyPath: m_LocalPosition.y
      value: 0.26898354
      objectReference: {fileID: 0}
    - target: {fileID: -8365295519350668791, guid: 1b220f585f8f7014aa6a428079f9f315,
        type: 3}
      propertyPath: m_LocalPosition.z
      value: -0.000044674125
      objectReference: {fileID: 0}
    - target: {fileID: -8365295519350668791, guid: 1b220f585f8f7014aa6a428079f9f315,
        type: 3}
      propertyPath: m_LocalRotation.w
      value: 0.9981955
      objectReference: {fileID: 0}
    - target: {fileID: -8365295519350668791, guid: 1b220f585f8f7014aa6a428079f9f315,
        type: 3}
      propertyPath: m_LocalRotation.x
      value: 0.056264278
      objectReference: {fileID: 0}
    - target: {fileID: -8365295519350668791, guid: 1b220f585f8f7014aa6a428079f9f315,
        type: 3}
      propertyPath: m_LocalRotation.y
      value: -0.018873494
      objectReference: {fileID: 0}
    - target: {fileID: -8365295519350668791, guid: 1b220f585f8f7014aa6a428079f9f315,
        type: 3}
      propertyPath: m_LocalRotation.z
      value: -0.009162978
      objectReference: {fileID: 0}
    - target: {fileID: -7932839439519182709, guid: 1b220f585f8f7014aa6a428079f9f315,
        type: 3}
      propertyPath: m_IsActive
      value: 1
      objectReference: {fileID: 0}
    - target: {fileID: -7886340013906823831, guid: 1b220f585f8f7014aa6a428079f9f315,
        type: 3}
      propertyPath: m_LocalPosition.x
      value: 2.1304627e-14
      objectReference: {fileID: 0}
    - target: {fileID: -7886340013906823831, guid: 1b220f585f8f7014aa6a428079f9f315,
        type: 3}
      propertyPath: m_LocalPosition.y
      value: 0.0000003576345
      objectReference: {fileID: 0}
    - target: {fileID: -7886340013906823831, guid: 1b220f585f8f7014aa6a428079f9f315,
        type: 3}
      propertyPath: m_LocalPosition.z
      value: -0.000000022240279
      objectReference: {fileID: 0}
    - target: {fileID: -7886340013906823831, guid: 1b220f585f8f7014aa6a428079f9f315,
        type: 3}
      propertyPath: m_LocalRotation.x
      value: 0.50000006
      objectReference: {fileID: 0}
    - target: {fileID: -7514865423162298744, guid: 1b220f585f8f7014aa6a428079f9f315,
        type: 3}
      propertyPath: m_LocalPosition.x
      value: -0.077866144
      objectReference: {fileID: 0}
    - target: {fileID: -7514865423162298744, guid: 1b220f585f8f7014aa6a428079f9f315,
        type: 3}
      propertyPath: m_LocalPosition.y
      value: 0.07878351
      objectReference: {fileID: 0}
    - target: {fileID: -7514865423162298744, guid: 1b220f585f8f7014aa6a428079f9f315,
        type: 3}
      propertyPath: m_LocalPosition.z
      value: 0.033243034
      objectReference: {fileID: 0}
    - target: {fileID: -7514865423162298744, guid: 1b220f585f8f7014aa6a428079f9f315,
        type: 3}
      propertyPath: m_LocalRotation.w
      value: -0.0000010728834
      objectReference: {fileID: 0}
    - target: {fileID: -7514865423162298744, guid: 1b220f585f8f7014aa6a428079f9f315,
        type: 3}
      propertyPath: m_LocalRotation.x
      value: 0.70710677
      objectReference: {fileID: 0}
    - target: {fileID: -7514865423162298744, guid: 1b220f585f8f7014aa6a428079f9f315,
        type: 3}
      propertyPath: m_LocalRotation.y
      value: -0.0000011622903
      objectReference: {fileID: 0}
    - target: {fileID: -7501645255488844597, guid: 1b220f585f8f7014aa6a428079f9f315,
        type: 3}
      propertyPath: m_LocalPosition.x
      value: -0.0000000012235936
      objectReference: {fileID: 0}
    - target: {fileID: -7501645255488844597, guid: 1b220f585f8f7014aa6a428079f9f315,
        type: 3}
      propertyPath: m_LocalPosition.y
      value: 0.28720537
      objectReference: {fileID: 0}
    - target: {fileID: -7501645255488844597, guid: 1b220f585f8f7014aa6a428079f9f315,
        type: 3}
      propertyPath: m_LocalPosition.z
      value: -0.00000050663937
      objectReference: {fileID: 0}
    - target: {fileID: -7501645255488844597, guid: 1b220f585f8f7014aa6a428079f9f315,
        type: 3}
      propertyPath: m_LocalRotation.w
      value: 0.9419196
      objectReference: {fileID: 0}
    - target: {fileID: -7501645255488844597, guid: 1b220f585f8f7014aa6a428079f9f315,
        type: 3}
      propertyPath: m_LocalRotation.x
      value: 0.33577418
      objectReference: {fileID: 0}
    - target: {fileID: -7501645255488844597, guid: 1b220f585f8f7014aa6a428079f9f315,
        type: 3}
      propertyPath: m_LocalRotation.y
      value: 0.0043046763
      objectReference: {fileID: 0}
    - target: {fileID: -7501645255488844597, guid: 1b220f585f8f7014aa6a428079f9f315,
        type: 3}
      propertyPath: m_LocalRotation.z
      value: -0.0049757054
      objectReference: {fileID: 0}
    - target: {fileID: -6894262208702286923, guid: 1b220f585f8f7014aa6a428079f9f315,
        type: 3}
      propertyPath: m_LocalPosition.x
      value: -9.340413e-13
      objectReference: {fileID: 0}
    - target: {fileID: -6894262208702286923, guid: 1b220f585f8f7014aa6a428079f9f315,
        type: 3}
      propertyPath: m_LocalPosition.y
      value: 0.044444144
      objectReference: {fileID: 0}
    - target: {fileID: -6894262208702286923, guid: 1b220f585f8f7014aa6a428079f9f315,
        type: 3}
      propertyPath: m_LocalPosition.z
      value: -0.000000008381904
      objectReference: {fileID: 0}
    - target: {fileID: -6894262208702286923, guid: 1b220f585f8f7014aa6a428079f9f315,
        type: 3}
      propertyPath: m_LocalRotation.x
      value: -0.17880954
      objectReference: {fileID: 0}
    - target: {fileID: -6894262208702286923, guid: 1b220f585f8f7014aa6a428079f9f315,
        type: 3}
      propertyPath: m_LocalRotation.y
      value: -0.00000020861621
      objectReference: {fileID: 0}
    - target: {fileID: -6894262208702286923, guid: 1b220f585f8f7014aa6a428079f9f315,
        type: 3}
      propertyPath: m_LocalRotation.z
      value: 0.000000059604634
      objectReference: {fileID: 0}
    - target: {fileID: -6722524163153381419, guid: 1b220f585f8f7014aa6a428079f9f315,
        type: 3}
      propertyPath: m_LocalPosition.x
      value: 0.0000001730248
      objectReference: {fileID: 0}
    - target: {fileID: -6722524163153381419, guid: 1b220f585f8f7014aa6a428079f9f315,
        type: 3}
      propertyPath: m_LocalPosition.y
      value: 0.017647132
      objectReference: {fileID: 0}
    - target: {fileID: -6722524163153381419, guid: 1b220f585f8f7014aa6a428079f9f315,
        type: 3}
      propertyPath: m_LocalPosition.z
      value: -0.000000022566809
      objectReference: {fileID: 0}
    - target: {fileID: -6722524163153381419, guid: 1b220f585f8f7014aa6a428079f9f315,
        type: 3}
      propertyPath: m_LocalRotation.w
      value: 0.9691319
      objectReference: {fileID: 0}
    - target: {fileID: -6722524163153381419, guid: 1b220f585f8f7014aa6a428079f9f315,
        type: 3}
      propertyPath: m_LocalRotation.x
      value: 0.0022929597
      objectReference: {fileID: 0}
    - target: {fileID: -6722524163153381419, guid: 1b220f585f8f7014aa6a428079f9f315,
        type: 3}
      propertyPath: m_LocalRotation.y
      value: 0.014076793
      objectReference: {fileID: 0}
    - target: {fileID: -6722524163153381419, guid: 1b220f585f8f7014aa6a428079f9f315,
        type: 3}
      propertyPath: m_LocalRotation.z
      value: 0.24612992
      objectReference: {fileID: 0}
    - target: {fileID: -6581728766227896094, guid: 1b220f585f8f7014aa6a428079f9f315,
        type: 3}
      propertyPath: m_LocalPosition.x
      value: -0.005803384
      objectReference: {fileID: 0}
    - target: {fileID: -6581728766227896094, guid: 1b220f585f8f7014aa6a428079f9f315,
        type: 3}
      propertyPath: m_LocalPosition.y
      value: 0.08989184
      objectReference: {fileID: 0}
    - target: {fileID: -6581728766227896094, guid: 1b220f585f8f7014aa6a428079f9f315,
        type: 3}
      propertyPath: m_LocalPosition.z
      value: 0.018401831
      objectReference: {fileID: 0}
    - target: {fileID: -6581728766227896094, guid: 1b220f585f8f7014aa6a428079f9f315,
        type: 3}
      propertyPath: m_LocalRotation.w
      value: -0.99102116
      objectReference: {fileID: 0}
    - target: {fileID: -6581728766227896094, guid: 1b220f585f8f7014aa6a428079f9f315,
        type: 3}
      propertyPath: m_LocalRotation.x
      value: -0.004545345
      objectReference: {fileID: 0}
    - target: {fileID: -6581728766227896094, guid: 1b220f585f8f7014aa6a428079f9f315,
        type: 3}
      propertyPath: m_LocalRotation.y
      value: 0.00041582427
      objectReference: {fileID: 0}
    - target: {fileID: -6581728766227896094, guid: 1b220f585f8f7014aa6a428079f9f315,
        type: 3}
      propertyPath: m_LocalRotation.z
      value: 0.13362752
      objectReference: {fileID: 0}
    - target: {fileID: -6272570643230823172, guid: 1b220f585f8f7014aa6a428079f9f315,
        type: 3}
      propertyPath: m_LocalPosition.x
      value: -0.032450877
      objectReference: {fileID: 0}
    - target: {fileID: -6272570643230823172, guid: 1b220f585f8f7014aa6a428079f9f315,
        type: 3}
      propertyPath: m_LocalPosition.y
      value: 0.0652554
      objectReference: {fileID: 0}
    - target: {fileID: -6272570643230823172, guid: 1b220f585f8f7014aa6a428079f9f315,
        type: 3}
      propertyPath: m_LocalPosition.z
      value: 0.00045835512
      objectReference: {fileID: 0}
    - target: {fileID: -6242498294990373702, guid: 1b220f585f8f7014aa6a428079f9f315,
        type: 3}
      propertyPath: m_LocalPosition.x
      value: 0.00000022095603
      objectReference: {fileID: 0}
    - target: {fileID: -6242498294990373702, guid: 1b220f585f8f7014aa6a428079f9f315,
        type: 3}
      propertyPath: m_LocalPosition.y
      value: 0.030815244
      objectReference: {fileID: 0}
    - target: {fileID: -6242498294990373702, guid: 1b220f585f8f7014aa6a428079f9f315,
        type: 3}
      propertyPath: m_LocalPosition.z
      value: 0.00000025699558
      objectReference: {fileID: 0}
    - target: {fileID: -6242498294990373702, guid: 1b220f585f8f7014aa6a428079f9f315,
        type: 3}
      propertyPath: m_LocalRotation.w
      value: 0.99081624
      objectReference: {fileID: 0}
    - target: {fileID: -6242498294990373702, guid: 1b220f585f8f7014aa6a428079f9f315,
        type: 3}
      propertyPath: m_LocalRotation.x
      value: 0.009782525
      objectReference: {fileID: 0}
    - target: {fileID: -6242498294990373702, guid: 1b220f585f8f7014aa6a428079f9f315,
        type: 3}
      propertyPath: m_LocalRotation.y
      value: 0.019216968
      objectReference: {fileID: 0}
    - target: {fileID: -6242498294990373702, guid: 1b220f585f8f7014aa6a428079f9f315,
        type: 3}
      propertyPath: m_LocalRotation.z
      value: 0.13348463
      objectReference: {fileID: 0}
    - target: {fileID: -5517862950789686357, guid: 1b220f585f8f7014aa6a428079f9f315,
        type: 3}
      propertyPath: m_LocalPosition.y
      value: 0.23050271
      objectReference: {fileID: 0}
    - target: {fileID: -5517862950789686357, guid: 1b220f585f8f7014aa6a428079f9f315,
        type: 3}
      propertyPath: m_LocalPosition.z
      value: 0.000789631
      objectReference: {fileID: 0}
    - target: {fileID: -5517862950789686357, guid: 1b220f585f8f7014aa6a428079f9f315,
        type: 3}
      propertyPath: m_LocalRotation.w
      value: 0.6328534
      objectReference: {fileID: 0}
    - target: {fileID: -5517862950789686357, guid: 1b220f585f8f7014aa6a428079f9f315,
        type: 3}
      propertyPath: m_LocalRotation.x
      value: 0.13814057
      objectReference: {fileID: 0}
    - target: {fileID: -5517862950789686357, guid: 1b220f585f8f7014aa6a428079f9f315,
        type: 3}
      propertyPath: m_LocalRotation.y
      value: -0.012184259
      objectReference: {fileID: 0}
    - target: {fileID: -5517862950789686357, guid: 1b220f585f8f7014aa6a428079f9f315,
        type: 3}
      propertyPath: m_LocalRotation.z
      value: -0.7617516
      objectReference: {fileID: 0}
    - target: {fileID: -5308195120824798400, guid: 1b220f585f8f7014aa6a428079f9f315,
        type: 3}
      propertyPath: m_LocalPosition.x
      value: 0.005803735
      objectReference: {fileID: 0}
    - target: {fileID: -5308195120824798400, guid: 1b220f585f8f7014aa6a428079f9f315,
        type: 3}
      propertyPath: m_LocalPosition.y
      value: 0.08989198
      objectReference: {fileID: 0}
    - target: {fileID: -5308195120824798400, guid: 1b220f585f8f7014aa6a428079f9f315,
        type: 3}
      propertyPath: m_LocalPosition.z
      value: 0.01840185
      objectReference: {fileID: 0}
    - target: {fileID: -5308195120824798400, guid: 1b220f585f8f7014aa6a428079f9f315,
        type: 3}
      propertyPath: m_LocalRotation.w
      value: 0.9902022
      objectReference: {fileID: 0}
    - target: {fileID: -5308195120824798400, guid: 1b220f585f8f7014aa6a428079f9f315,
        type: 3}
      propertyPath: m_LocalRotation.x
      value: 0.00078198465
      objectReference: {fileID: 0}
    - target: {fileID: -5308195120824798400, guid: 1b220f585f8f7014aa6a428079f9f315,
        type: 3}
      propertyPath: m_LocalRotation.y
      value: -0.00110398
      objectReference: {fileID: 0}
    - target: {fileID: -5308195120824798400, guid: 1b220f585f8f7014aa6a428079f9f315,
        type: 3}
      propertyPath: m_LocalRotation.z
      value: 0.1396349
      objectReference: {fileID: 0}
    - target: {fileID: -5135591164116488696, guid: 1b220f585f8f7014aa6a428079f9f315,
        type: 3}
      propertyPath: m_LocalPosition.x
      value: -0.00000010104835
      objectReference: {fileID: 0}
    - target: {fileID: -5135591164116488696, guid: 1b220f585f8f7014aa6a428079f9f315,
        type: 3}
      propertyPath: m_LocalPosition.y
      value: 0.030306442
      objectReference: {fileID: 0}
    - target: {fileID: -5135591164116488696, guid: 1b220f585f8f7014aa6a428079f9f315,
        type: 3}
      propertyPath: m_LocalPosition.z
      value: -0.00000008754422
      objectReference: {fileID: 0}
    - target: {fileID: -5135591164116488696, guid: 1b220f585f8f7014aa6a428079f9f315,
        type: 3}
      propertyPath: m_LocalRotation.w
      value: -0.9977209
      objectReference: {fileID: 0}
    - target: {fileID: -5135591164116488696, guid: 1b220f585f8f7014aa6a428079f9f315,
        type: 3}
      propertyPath: m_LocalRotation.x
      value: 0.04982099
      objectReference: {fileID: 0}
    - target: {fileID: -5135591164116488696, guid: 1b220f585f8f7014aa6a428079f9f315,
        type: 3}
      propertyPath: m_LocalRotation.y
      value: -0.0033914584
      objectReference: {fileID: 0}
    - target: {fileID: -5135591164116488696, guid: 1b220f585f8f7014aa6a428079f9f315,
        type: 3}
      propertyPath: m_LocalRotation.z
      value: -0.045382116
      objectReference: {fileID: 0}
    - target: {fileID: -5123752139374668448, guid: 1b220f585f8f7014aa6a428079f9f315,
        type: 3}
      propertyPath: m_LocalPosition.x
      value: -0.0000005336475
      objectReference: {fileID: 0}
    - target: {fileID: -5123752139374668448, guid: 1b220f585f8f7014aa6a428079f9f315,
        type: 3}
      propertyPath: m_LocalPosition.y
      value: 0.25686985
      objectReference: {fileID: 0}
    - target: {fileID: -5123752139374668448, guid: 1b220f585f8f7014aa6a428079f9f315,
        type: 3}
      propertyPath: m_LocalPosition.z
      value: 0.0000011523525
      objectReference: {fileID: 0}
    - target: {fileID: -5123752139374668448, guid: 1b220f585f8f7014aa6a428079f9f315,
        type: 3}
      propertyPath: m_LocalRotation.w
      value: 0.9656546
      objectReference: {fileID: 0}
    - target: {fileID: -5123752139374668448, guid: 1b220f585f8f7014aa6a428079f9f315,
        type: 3}
      propertyPath: m_LocalRotation.x
      value: -0.005780415
      objectReference: {fileID: 0}
    - target: {fileID: -5123752139374668448, guid: 1b220f585f8f7014aa6a428079f9f315,
        type: 3}
      propertyPath: m_LocalRotation.y
      value: 0.25405288
      objectReference: {fileID: 0}
    - target: {fileID: -5123752139374668448, guid: 1b220f585f8f7014aa6a428079f9f315,
        type: 3}
      propertyPath: m_LocalRotation.z
      value: 0.054174885
      objectReference: {fileID: 0}
    - target: {fileID: -4709192803230772745, guid: 1b220f585f8f7014aa6a428079f9f315,
        type: 3}
      propertyPath: m_LocalPosition.x
      value: 0.00000038323898
      objectReference: {fileID: 0}
    - target: {fileID: -4709192803230772745, guid: 1b220f585f8f7014aa6a428079f9f315,
        type: 3}
      propertyPath: m_LocalPosition.y
      value: 0.2568698
      objectReference: {fileID: 0}
    - target: {fileID: -4709192803230772745, guid: 1b220f585f8f7014aa6a428079f9f315,
        type: 3}
      propertyPath: m_LocalPosition.z
      value: 0.0000012298761
      objectReference: {fileID: 0}
    - target: {fileID: -4709192803230772745, guid: 1b220f585f8f7014aa6a428079f9f315,
        type: 3}
      propertyPath: m_LocalRotation.w
      value: 0.9880558
      objectReference: {fileID: 0}
    - target: {fileID: -4709192803230772745, guid: 1b220f585f8f7014aa6a428079f9f315,
        type: 3}
      propertyPath: m_LocalRotation.x
      value: -0.015641272
      objectReference: {fileID: 0}
    - target: {fileID: -4709192803230772745, guid: 1b220f585f8f7014aa6a428079f9f315,
        type: 3}
      propertyPath: m_LocalRotation.y
      value: -0.14022551
      objectReference: {fileID: 0}
    - target: {fileID: -4709192803230772745, guid: 1b220f585f8f7014aa6a428079f9f315,
        type: 3}
      propertyPath: m_LocalRotation.z
      value: -0.061949886
      objectReference: {fileID: 0}
    - target: {fileID: -4139779248237130796, guid: 1b220f585f8f7014aa6a428079f9f315,
        type: 3}
      propertyPath: m_LocalPosition.x
      value: -0.00000015227113
      objectReference: {fileID: 0}
    - target: {fileID: -4139779248237130796, guid: 1b220f585f8f7014aa6a428079f9f315,
        type: 3}
      propertyPath: m_LocalPosition.y
      value: 0.030306498
      objectReference: {fileID: 0}
    - target: {fileID: -4139779248237130796, guid: 1b220f585f8f7014aa6a428079f9f315,
        type: 3}
      propertyPath: m_LocalPosition.z
      value: -0.00000003306191
      objectReference: {fileID: 0}
    - target: {fileID: -4139779248237130796, guid: 1b220f585f8f7014aa6a428079f9f315,
        type: 3}
      propertyPath: m_LocalRotation.w
      value: 0.9994973
      objectReference: {fileID: 0}
    - target: {fileID: -4139779248237130796, guid: 1b220f585f8f7014aa6a428079f9f315,
        type: 3}
      propertyPath: m_LocalRotation.x
      value: 0.00068317336
      objectReference: {fileID: 0}
    - target: {fileID: -4139779248237130796, guid: 1b220f585f8f7014aa6a428079f9f315,
        type: 3}
      propertyPath: m_LocalRotation.y
      value: -0.0017827445
      objectReference: {fileID: 0}
    - target: {fileID: -4139779248237130796, guid: 1b220f585f8f7014aa6a428079f9f315,
        type: 3}
      propertyPath: m_LocalRotation.z
      value: -0.03164651
      objectReference: {fileID: 0}
    - target: {fileID: -3949828037150060628, guid: 1b220f585f8f7014aa6a428079f9f315,
        type: 3}
      propertyPath: m_LocalPosition.x
      value: -2.2461663e-11
      objectReference: {fileID: 0}
    - target: {fileID: -3949828037150060628, guid: 1b220f585f8f7014aa6a428079f9f315,
        type: 3}
      propertyPath: m_LocalPosition.y
      value: 0.14598244
      objectReference: {fileID: 0}
    - target: {fileID: -3949828037150060628, guid: 1b220f585f8f7014aa6a428079f9f315,
        type: 3}
      propertyPath: m_LocalPosition.z
      value: 0.000000027939677
      objectReference: {fileID: 0}
    - target: {fileID: -3949828037150060628, guid: 1b220f585f8f7014aa6a428079f9f315,
        type: 3}
      propertyPath: m_LocalRotation.x
      value: -0.03531983
      objectReference: {fileID: 0}
    - target: {fileID: -3949828037150060628, guid: 1b220f585f8f7014aa6a428079f9f315,
        type: 3}
      propertyPath: m_LocalRotation.y
      value: -0
      objectReference: {fileID: 0}
    - target: {fileID: -2202881156203342829, guid: 1b220f585f8f7014aa6a428079f9f315,
        type: 3}
      propertyPath: m_LocalPosition.x
      value: -0.078191884
      objectReference: {fileID: 0}
    - target: {fileID: -2202881156203342829, guid: 1b220f585f8f7014aa6a428079f9f315,
        type: 3}
      propertyPath: m_LocalPosition.y
      value: 0.07881472
      objectReference: {fileID: 0}
    - target: {fileID: -2202881156203342829, guid: 1b220f585f8f7014aa6a428079f9f315,
        type: 3}
      propertyPath: m_LocalPosition.z
      value: -0.032315206
      objectReference: {fileID: 0}
    - target: {fileID: -2202881156203342829, guid: 1b220f585f8f7014aa6a428079f9f315,
        type: 3}
      propertyPath: m_LocalRotation.w
      value: -0.0000010728834
      objectReference: {fileID: 0}
    - target: {fileID: -2202881156203342829, guid: 1b220f585f8f7014aa6a428079f9f315,
        type: 3}
      propertyPath: m_LocalRotation.x
      value: 0.70710677
      objectReference: {fileID: 0}
    - target: {fileID: -2202881156203342829, guid: 1b220f585f8f7014aa6a428079f9f315,
        type: 3}
      propertyPath: m_LocalRotation.y
      value: -0.0000011622903
      objectReference: {fileID: 0}
    - target: {fileID: -2092290188326144038, guid: 1b220f585f8f7014aa6a428079f9f315,
        type: 3}
      propertyPath: m_LocalPosition.y
      value: -0.01979057
      objectReference: {fileID: 0}
    - target: {fileID: -2092290188326144038, guid: 1b220f585f8f7014aa6a428079f9f315,
        type: 3}
      propertyPath: m_LocalPosition.z
      value: 0.00076767174
      objectReference: {fileID: 0}
    - target: {fileID: -2092290188326144038, guid: 1b220f585f8f7014aa6a428079f9f315,
        type: 3}
      propertyPath: m_LocalRotation.w
      value: 0.007953097
      objectReference: {fileID: 0}
    - target: {fileID: -2092290188326144038, guid: 1b220f585f8f7014aa6a428079f9f315,
        type: 3}
      propertyPath: m_LocalRotation.x
      value: 0.10099385
      objectReference: {fileID: 0}
    - target: {fileID: -2092290188326144038, guid: 1b220f585f8f7014aa6a428079f9f315,
        type: 3}
      propertyPath: m_LocalRotation.y
      value: 0.094827406
      objectReference: {fileID: 0}
    - target: {fileID: -2092290188326144038, guid: 1b220f585f8f7014aa6a428079f9f315,
        type: 3}
      propertyPath: m_LocalRotation.z
      value: 0.9903256
      objectReference: {fileID: 0}
    - target: {fileID: -1992850136007203255, guid: 1b220f585f8f7014aa6a428079f9f315,
        type: 3}
      propertyPath: m_IsActive
      value: 0
      objectReference: {fileID: 0}
    - target: {fileID: -1598937284071533234, guid: 1b220f585f8f7014aa6a428079f9f315,
        type: 3}
      propertyPath: m_LocalPosition.x
      value: -0.00006707012
      objectReference: {fileID: 0}
    - target: {fileID: -1598937284071533234, guid: 1b220f585f8f7014aa6a428079f9f315,
        type: 3}
      propertyPath: m_LocalPosition.y
      value: 0.45315596
      objectReference: {fileID: 0}
    - target: {fileID: -1598937284071533234, guid: 1b220f585f8f7014aa6a428079f9f315,
        type: 3}
      propertyPath: m_LocalPosition.z
      value: -0.0000024083126
      objectReference: {fileID: 0}
    - target: {fileID: -1598937284071533234, guid: 1b220f585f8f7014aa6a428079f9f315,
        type: 3}
      propertyPath: m_LocalRotation.w
      value: 0.99703324
      objectReference: {fileID: 0}
    - target: {fileID: -1598937284071533234, guid: 1b220f585f8f7014aa6a428079f9f315,
        type: 3}
      propertyPath: m_LocalRotation.x
      value: 0.0029756185
      objectReference: {fileID: 0}
    - target: {fileID: -1598937284071533234, guid: 1b220f585f8f7014aa6a428079f9f315,
        type: 3}
      propertyPath: m_LocalRotation.y
      value: 0.07648999
      objectReference: {fileID: 0}
    - target: {fileID: -1598937284071533234, guid: 1b220f585f8f7014aa6a428079f9f315,
        type: 3}
      propertyPath: m_LocalRotation.z
      value: -0.008074767
      objectReference: {fileID: 0}
    - target: {fileID: -1045910867227358703, guid: 1b220f585f8f7014aa6a428079f9f315,
        type: 3}
      propertyPath: m_LocalPosition.x
      value: -0.004358162
      objectReference: {fileID: 0}
    - target: {fileID: -1045910867227358703, guid: 1b220f585f8f7014aa6a428079f9f315,
        type: 3}
      propertyPath: m_LocalPosition.y
      value: 0.016053358
      objectReference: {fileID: 0}
    - target: {fileID: -1045910867227358703, guid: 1b220f585f8f7014aa6a428079f9f315,
        type: 3}
      propertyPath: m_LocalPosition.z
      value: 0.027017482
      objectReference: {fileID: 0}
    - target: {fileID: -1045910867227358703, guid: 1b220f585f8f7014aa6a428079f9f315,
        type: 3}
      propertyPath: m_LocalRotation.w
      value: 0.9443261
      objectReference: {fileID: 0}
    - target: {fileID: -1045910867227358703, guid: 1b220f585f8f7014aa6a428079f9f315,
        type: 3}
      propertyPath: m_LocalRotation.x
      value: 0.26324657
      objectReference: {fileID: 0}
    - target: {fileID: -1045910867227358703, guid: 1b220f585f8f7014aa6a428079f9f315,
        type: 3}
      propertyPath: m_LocalRotation.y
      value: 0.11214685
      objectReference: {fileID: 0}
    - target: {fileID: -1045910867227358703, guid: 1b220f585f8f7014aa6a428079f9f315,
        type: 3}
      propertyPath: m_LocalRotation.z
      value: 0.16239652
      objectReference: {fileID: 0}
    - target: {fileID: -864280571129317837, guid: 1b220f585f8f7014aa6a428079f9f315,
        type: 3}
      propertyPath: m_LocalPosition.x
      value: -0.000006597488
      objectReference: {fileID: 0}
    - target: {fileID: -864280571129317837, guid: 1b220f585f8f7014aa6a428079f9f315,
        type: 3}
      propertyPath: m_LocalPosition.y
      value: 0.15373404
      objectReference: {fileID: 0}
    - target: {fileID: -864280571129317837, guid: 1b220f585f8f7014aa6a428079f9f315,
        type: 3}
      propertyPath: m_LocalPosition.z
      value: 0.0000012218951
      objectReference: {fileID: 0}
    - target: {fileID: -864280571129317837, guid: 1b220f585f8f7014aa6a428079f9f315,
        type: 3}
      propertyPath: m_LocalRotation.x
      value: 0.13207453
      objectReference: {fileID: 0}
    - target: {fileID: -864280571129317837, guid: 1b220f585f8f7014aa6a428079f9f315,
        type: 3}
      propertyPath: m_LocalRotation.y
      value: 0.02450296
      objectReference: {fileID: 0}
    - target: {fileID: -864280571129317837, guid: 1b220f585f8f7014aa6a428079f9f315,
        type: 3}
      propertyPath: m_LocalRotation.z
      value: -0.01321244
      objectReference: {fileID: 0}
    - target: {fileID: -775974544561569086, guid: 1b220f585f8f7014aa6a428079f9f315,
        type: 3}
      propertyPath: m_LocalPosition.x
      value: 0.00000033341325
      objectReference: {fileID: 0}
    - target: {fileID: -775974544561569086, guid: 1b220f585f8f7014aa6a428079f9f315,
        type: 3}
      propertyPath: m_LocalPosition.y
      value: 0.089232735
      objectReference: {fileID: 0}
    - target: {fileID: -775974544561569086, guid: 1b220f585f8f7014aa6a428079f9f315,
        type: 3}
      propertyPath: m_LocalPosition.z
      value: 0.00000064644644
      objectReference: {fileID: 0}
    - target: {fileID: -775974544561569086, guid: 1b220f585f8f7014aa6a428079f9f315,
        type: 3}
      propertyPath: m_LocalRotation.w
      value: 0.9844511
      objectReference: {fileID: 0}
    - target: {fileID: -775974544561569086, guid: 1b220f585f8f7014aa6a428079f9f315,
        type: 3}
      propertyPath: m_LocalRotation.x
      value: -0.011953024
      objectReference: {fileID: 0}
    - target: {fileID: -775974544561569086, guid: 1b220f585f8f7014aa6a428079f9f315,
        type: 3}
      propertyPath: m_LocalRotation.y
      value: 0.004999427
      objectReference: {fileID: 0}
    - target: {fileID: -775974544561569086, guid: 1b220f585f8f7014aa6a428079f9f315,
        type: 3}
      propertyPath: m_LocalRotation.z
      value: 0.17518069
      objectReference: {fileID: 0}
    - target: {fileID: -326023631590400765, guid: 1b220f585f8f7014aa6a428079f9f315,
        type: 3}
      propertyPath: m_LocalPosition.x
      value: -0.00000006734619
      objectReference: {fileID: 0}
    - target: {fileID: -326023631590400765, guid: 1b220f585f8f7014aa6a428079f9f315,
        type: 3}
      propertyPath: m_LocalPosition.y
      value: 0.046484604
      objectReference: {fileID: 0}
    - target: {fileID: -326023631590400765, guid: 1b220f585f8f7014aa6a428079f9f315,
        type: 3}
      propertyPath: m_LocalPosition.z
      value: 0.0000000105992415
      objectReference: {fileID: 0}
    - target: {fileID: -326023631590400765, guid: 1b220f585f8f7014aa6a428079f9f315,
        type: 3}
      propertyPath: m_LocalRotation.w
      value: -0.9833004
      objectReference: {fileID: 0}
    - target: {fileID: -326023631590400765, guid: 1b220f585f8f7014aa6a428079f9f315,
        type: 3}
      propertyPath: m_LocalRotation.x
      value: 0.00442789
      objectReference: {fileID: 0}
    - target: {fileID: -326023631590400765, guid: 1b220f585f8f7014aa6a428079f9f315,
        type: 3}
      propertyPath: m_LocalRotation.y
      value: 0.012420144
      objectReference: {fileID: 0}
    - target: {fileID: -326023631590400765, guid: 1b220f585f8f7014aa6a428079f9f315,
        type: 3}
      propertyPath: m_LocalRotation.z
      value: 0.18151173
      objectReference: {fileID: 0}
    - target: {fileID: 227344644034214701, guid: 1b220f585f8f7014aa6a428079f9f315,
        type: 3}
      propertyPath: m_LocalPosition.x
      value: -0.00000009546049
      objectReference: {fileID: 0}
    - target: {fileID: 227344644034214701, guid: 1b220f585f8f7014aa6a428079f9f315,
        type: 3}
      propertyPath: m_LocalPosition.y
      value: 0.04253112
      objectReference: {fileID: 0}
    - target: {fileID: 227344644034214701, guid: 1b220f585f8f7014aa6a428079f9f315,
        type: 3}
      propertyPath: m_LocalPosition.z
      value: -0.0000000996114
      objectReference: {fileID: 0}
    - target: {fileID: 227344644034214701, guid: 1b220f585f8f7014aa6a428079f9f315,
        type: 3}
      propertyPath: m_LocalRotation.w
      value: 0.9848739
      objectReference: {fileID: 0}
    - target: {fileID: 227344644034214701, guid: 1b220f585f8f7014aa6a428079f9f315,
        type: 3}
      propertyPath: m_LocalRotation.x
      value: 0.005512152
      objectReference: {fileID: 0}
    - target: {fileID: 227344644034214701, guid: 1b220f585f8f7014aa6a428079f9f315,
        type: 3}
      propertyPath: m_LocalRotation.y
      value: 0.015616126
      objectReference: {fileID: 0}
    - target: {fileID: 227344644034214701, guid: 1b220f585f8f7014aa6a428079f9f315,
        type: 3}
      propertyPath: m_LocalRotation.z
      value: 0.17247927
      objectReference: {fileID: 0}
    - target: {fileID: 248074432326912181, guid: 1b220f585f8f7014aa6a428079f9f315,
        type: 3}
      propertyPath: m_LocalPosition.x
      value: -8.705463e-10
      objectReference: {fileID: 0}
    - target: {fileID: 248074432326912181, guid: 1b220f585f8f7014aa6a428079f9f315,
        type: 3}
      propertyPath: m_LocalPosition.y
      value: 0.036486663
      objectReference: {fileID: 0}
    - target: {fileID: 248074432326912181, guid: 1b220f585f8f7014aa6a428079f9f315,
        type: 3}
      propertyPath: m_LocalPosition.z
      value: -0.000000013038509
      objectReference: {fileID: 0}
    - target: {fileID: 248074432326912181, guid: 1b220f585f8f7014aa6a428079f9f315,
        type: 3}
      propertyPath: m_LocalRotation.x
      value: -0.056154527
      objectReference: {fileID: 0}
    - target: {fileID: 248074432326912181, guid: 1b220f585f8f7014aa6a428079f9f315,
        type: 3}
      propertyPath: m_LocalRotation.y
      value: 2.1316277e-14
      objectReference: {fileID: 0}
    - target: {fileID: 248074432326912181, guid: 1b220f585f8f7014aa6a428079f9f315,
        type: 3}
      propertyPath: m_LocalRotation.z
      value: 0.00000011358641
      objectReference: {fileID: 0}
    - target: {fileID: 882335638797273989, guid: 1b220f585f8f7014aa6a428079f9f315,
        type: 3}
      propertyPath: m_LocalPosition.x
      value: -0.01586732
      objectReference: {fileID: 0}
    - target: {fileID: 882335638797273989, guid: 1b220f585f8f7014aa6a428079f9f315,
        type: 3}
      propertyPath: m_LocalPosition.y
      value: 0.022635616
      objectReference: {fileID: 0}
    - target: {fileID: 882335638797273989, guid: 1b220f585f8f7014aa6a428079f9f315,
        type: 3}
      propertyPath: m_LocalPosition.z
      value: 0.00034810914
      objectReference: {fileID: 0}
    - target: {fileID: 895485179724615323, guid: 1b220f585f8f7014aa6a428079f9f315,
        type: 3}
      propertyPath: m_LocalPosition.x
      value: 0.00006707107
      objectReference: {fileID: 0}
    - target: {fileID: 895485179724615323, guid: 1b220f585f8f7014aa6a428079f9f315,
        type: 3}
      propertyPath: m_LocalPosition.y
      value: 0.4531558
      objectReference: {fileID: 0}
    - target: {fileID: 895485179724615323, guid: 1b220f585f8f7014aa6a428079f9f315,
        type: 3}
      propertyPath: m_LocalPosition.z
      value: -0.0000023336033
      objectReference: {fileID: 0}
    - target: {fileID: 895485179724615323, guid: 1b220f585f8f7014aa6a428079f9f315,
        type: 3}
      propertyPath: m_LocalRotation.w
      value: 0.997407
      objectReference: {fileID: 0}
    - target: {fileID: 895485179724615323, guid: 1b220f585f8f7014aa6a428079f9f315,
        type: 3}
      propertyPath: m_LocalRotation.x
      value: -0.003688198
      objectReference: {fileID: 0}
    - target: {fileID: 895485179724615323, guid: 1b220f585f8f7014aa6a428079f9f315,
        type: 3}
      propertyPath: m_LocalRotation.y
      value: -0.07133198
      objectReference: {fileID: 0}
    - target: {fileID: 895485179724615323, guid: 1b220f585f8f7014aa6a428079f9f315,
        type: 3}
      propertyPath: m_LocalRotation.z
      value: 0.008799436
      objectReference: {fileID: 0}
    - target: {fileID: 919132149155446097, guid: 1b220f585f8f7014aa6a428079f9f315,
        type: 3}
      propertyPath: m_Name
      value: HS003
      objectReference: {fileID: 0}
    - target: {fileID: 919132149155446097, guid: 1b220f585f8f7014aa6a428079f9f315,
        type: 3}
      propertyPath: m_IsActive
      value: 1
      objectReference: {fileID: 0}
    - target: {fileID: 1135287226742058225, guid: 1b220f585f8f7014aa6a428079f9f315,
        type: 3}
      propertyPath: m_LocalPosition.x
      value: -0.00000026174413
      objectReference: {fileID: 0}
    - target: {fileID: 1135287226742058225, guid: 1b220f585f8f7014aa6a428079f9f315,
        type: 3}
      propertyPath: m_LocalPosition.y
      value: 0.03345352
      objectReference: {fileID: 0}
    - target: {fileID: 1135287226742058225, guid: 1b220f585f8f7014aa6a428079f9f315,
        type: 3}
      propertyPath: m_LocalPosition.z
      value: -0.000000041008732
      objectReference: {fileID: 0}
    - target: {fileID: 1135287226742058225, guid: 1b220f585f8f7014aa6a428079f9f315,
        type: 3}
      propertyPath: m_LocalRotation.w
      value: -0.98832023
      objectReference: {fileID: 0}
    - target: {fileID: 1135287226742058225, guid: 1b220f585f8f7014aa6a428079f9f315,
        type: 3}
      propertyPath: m_LocalRotation.x
      value: -0.0016745754
      objectReference: {fileID: 0}
    - target: {fileID: 1135287226742058225, guid: 1b220f585f8f7014aa6a428079f9f315,
        type: 3}
      propertyPath: m_LocalRotation.y
      value: 0.018577868
      objectReference: {fileID: 0}
    - target: {fileID: 1135287226742058225, guid: 1b220f585f8f7014aa6a428079f9f315,
        type: 3}
      propertyPath: m_LocalRotation.z
      value: 0.15124527
      objectReference: {fileID: 0}
    - target: {fileID: 1215332200949101259, guid: 1b220f585f8f7014aa6a428079f9f315,
        type: 3}
      propertyPath: m_LocalPosition.x
      value: -0.0000004484313
      objectReference: {fileID: 0}
    - target: {fileID: 1215332200949101259, guid: 1b220f585f8f7014aa6a428079f9f315,
        type: 3}
      propertyPath: m_LocalPosition.y
      value: 0.058860753
      objectReference: {fileID: 0}
    - target: {fileID: 1215332200949101259, guid: 1b220f585f8f7014aa6a428079f9f315,
        type: 3}
      propertyPath: m_LocalPosition.z
      value: -0.0000001927836
      objectReference: {fileID: 0}
    - target: {fileID: 1215332200949101259, guid: 1b220f585f8f7014aa6a428079f9f315,
        type: 3}
      propertyPath: m_LocalRotation.w
      value: -0.94293064
      objectReference: {fileID: 0}
    - target: {fileID: 1215332200949101259, guid: 1b220f585f8f7014aa6a428079f9f315,
        type: 3}
      propertyPath: m_LocalRotation.x
      value: 0.32203117
      objectReference: {fileID: 0}
    - target: {fileID: 1215332200949101259, guid: 1b220f585f8f7014aa6a428079f9f315,
        type: 3}
      propertyPath: m_LocalRotation.y
      value: 0.012021644
      objectReference: {fileID: 0}
    - target: {fileID: 1215332200949101259, guid: 1b220f585f8f7014aa6a428079f9f315,
        type: 3}
      propertyPath: m_LocalRotation.z
      value: -0.08386476
      objectReference: {fileID: 0}
    - target: {fileID: 1658734276137770392, guid: 1b220f585f8f7014aa6a428079f9f315,
        type: 3}
      propertyPath: m_LocalPosition.x
      value: -0.0000002654267
      objectReference: {fileID: 0}
    - target: {fileID: 1658734276137770392, guid: 1b220f585f8f7014aa6a428079f9f315,
        type: 3}
      propertyPath: m_LocalPosition.y
      value: 0.089232564
      objectReference: {fileID: 0}
    - target: {fileID: 1658734276137770392, guid: 1b220f585f8f7014aa6a428079f9f315,
        type: 3}
      propertyPath: m_LocalPosition.z
      value: 0.00000064869107
      objectReference: {fileID: 0}
    - target: {fileID: 1658734276137770392, guid: 1b220f585f8f7014aa6a428079f9f315,
        type: 3}
      propertyPath: m_LocalRotation.w
      value: -0.98550475
      objectReference: {fileID: 0}
    - target: {fileID: 1658734276137770392, guid: 1b220f585f8f7014aa6a428079f9f315,
        type: 3}
      propertyPath: m_LocalRotation.x
      value: 0.0072042583
      objectReference: {fileID: 0}
    - target: {fileID: 1658734276137770392, guid: 1b220f585f8f7014aa6a428079f9f315,
        type: 3}
      propertyPath: m_LocalRotation.y
      value: 0.006260574
      objectReference: {fileID: 0}
    - target: {fileID: 1658734276137770392, guid: 1b220f585f8f7014aa6a428079f9f315,
        type: 3}
      propertyPath: m_LocalRotation.z
      value: 0.16937932
      objectReference: {fileID: 0}
    - target: {fileID: 2177278930625153185, guid: 1b220f585f8f7014aa6a428079f9f315,
        type: 3}
      propertyPath: m_LocalPosition.y
      value: 0.23050271
      objectReference: {fileID: 0}
    - target: {fileID: 2177278930625153185, guid: 1b220f585f8f7014aa6a428079f9f315,
        type: 3}
      propertyPath: m_LocalPosition.z
      value: 0.000789631
      objectReference: {fileID: 0}
    - target: {fileID: 2177278930625153185, guid: 1b220f585f8f7014aa6a428079f9f315,
        type: 3}
      propertyPath: m_LocalRotation.w
      value: 0.5946501
      objectReference: {fileID: 0}
    - target: {fileID: 2177278930625153185, guid: 1b220f585f8f7014aa6a428079f9f315,
        type: 3}
      propertyPath: m_LocalRotation.x
      value: 0.15930538
      objectReference: {fileID: 0}
    - target: {fileID: 2177278930625153185, guid: 1b220f585f8f7014aa6a428079f9f315,
        type: 3}
      propertyPath: m_LocalRotation.y
      value: 0.041042153
      objectReference: {fileID: 0}
    - target: {fileID: 2177278930625153185, guid: 1b220f585f8f7014aa6a428079f9f315,
        type: 3}
      propertyPath: m_LocalRotation.z
      value: 0.7869744
      objectReference: {fileID: 0}
    - target: {fileID: 2190637818475708215, guid: 1b220f585f8f7014aa6a428079f9f315,
        type: 3}
      propertyPath: m_LocalPosition.x
      value: -1.22781785e-11
      objectReference: {fileID: 0}
    - target: {fileID: 2190637818475708215, guid: 1b220f585f8f7014aa6a428079f9f315,
        type: 3}
      propertyPath: m_LocalPosition.y
      value: 0.08058166
      objectReference: {fileID: 0}
    - target: {fileID: 2190637818475708215, guid: 1b220f585f8f7014aa6a428079f9f315,
        type: 3}
      propertyPath: m_LocalPosition.z
      value: 0.015327051
      objectReference: {fileID: 0}
    - target: {fileID: 2190637818475708215, guid: 1b220f585f8f7014aa6a428079f9f315,
        type: 3}
      propertyPath: m_LocalRotation.w
      value: 0.99308515
      objectReference: {fileID: 0}
    - target: {fileID: 2190637818475708215, guid: 1b220f585f8f7014aa6a428079f9f315,
        type: 3}
      propertyPath: m_LocalRotation.x
      value: 0.11739682
      objectReference: {fileID: 0}
    - target: {fileID: 2190637818475708215, guid: 1b220f585f8f7014aa6a428079f9f315,
        type: 3}
      propertyPath: m_LocalRotation.y
      value: 0.0000020563602
      objectReference: {fileID: 0}
    - target: {fileID: 2190637818475708215, guid: 1b220f585f8f7014aa6a428079f9f315,
        type: 3}
      propertyPath: m_LocalRotation.z
      value: 0.000017896295
      objectReference: {fileID: 0}
    - target: {fileID: 2372222850989302138, guid: 1b220f585f8f7014aa6a428079f9f315,
        type: 3}
      propertyPath: m_LocalPosition.x
      value: -0.00000001140869
      objectReference: {fileID: 0}
    - target: {fileID: 2372222850989302138, guid: 1b220f585f8f7014aa6a428079f9f315,
        type: 3}
      propertyPath: m_LocalPosition.y
      value: 0.028680049
      objectReference: {fileID: 0}
    - target: {fileID: 2372222850989302138, guid: 1b220f585f8f7014aa6a428079f9f315,
        type: 3}
      propertyPath: m_LocalPosition.z
      value: -0.000000057141662
      objectReference: {fileID: 0}
    - target: {fileID: 2372222850989302138, guid: 1b220f585f8f7014aa6a428079f9f315,
        type: 3}
      propertyPath: m_LocalRotation.w
      value: 0.99911577
      objectReference: {fileID: 0}
    - target: {fileID: 2372222850989302138, guid: 1b220f585f8f7014aa6a428079f9f315,
        type: 3}
      propertyPath: m_LocalRotation.x
      value: 0.0036403465
      objectReference: {fileID: 0}
    - target: {fileID: 2372222850989302138, guid: 1b220f585f8f7014aa6a428079f9f315,
        type: 3}
      propertyPath: m_LocalRotation.y
      value: 0.021790432
      objectReference: {fileID: 0}
    - target: {fileID: 2372222850989302138, guid: 1b220f585f8f7014aa6a428079f9f315,
        type: 3}
      propertyPath: m_LocalRotation.z
      value: 0.035773147
      objectReference: {fileID: 0}
    - target: {fileID: 2796509709849255233, guid: 1b220f585f8f7014aa6a428079f9f315,
        type: 3}
      propertyPath: m_LocalPosition.x
      value: -0.005322423
      objectReference: {fileID: 0}
    - target: {fileID: 2796509709849255233, guid: 1b220f585f8f7014aa6a428079f9f315,
        type: 3}
      propertyPath: m_LocalPosition.y
      value: 0.08709307
      objectReference: {fileID: 0}
    - target: {fileID: 2796509709849255233, guid: 1b220f585f8f7014aa6a428079f9f315,
        type: 3}
      propertyPath: m_LocalRotation.w
      value: -0.997178
      objectReference: {fileID: 0}
    - target: {fileID: 2796509709849255233, guid: 1b220f585f8f7014aa6a428079f9f315,
        type: 3}
      propertyPath: m_LocalRotation.x
      value: -0.034720924
      objectReference: {fileID: 0}
    - target: {fileID: 2796509709849255233, guid: 1b220f585f8f7014aa6a428079f9f315,
        type: 3}
      propertyPath: m_LocalRotation.y
      value: 0.010957261
      objectReference: {fileID: 0}
    - target: {fileID: 2796509709849255233, guid: 1b220f585f8f7014aa6a428079f9f315,
        type: 3}
      propertyPath: m_LocalRotation.z
      value: 0.06565431
      objectReference: {fileID: 0}
    - target: {fileID: 2917969726461794602, guid: 1b220f585f8f7014aa6a428079f9f315,
        type: 3}
      propertyPath: m_LocalPosition.x
      value: 0.00000023632289
      objectReference: {fileID: 0}
    - target: {fileID: 2917969726461794602, guid: 1b220f585f8f7014aa6a428079f9f315,
        type: 3}
      propertyPath: m_LocalPosition.y
      value: 0.027030207
      objectReference: {fileID: 0}
    - target: {fileID: 2917969726461794602, guid: 1b220f585f8f7014aa6a428079f9f315,
        type: 3}
      propertyPath: m_LocalPosition.z
      value: 0.000000009000348
      objectReference: {fileID: 0}
    - target: {fileID: 2917969726461794602, guid: 1b220f585f8f7014aa6a428079f9f315,
        type: 3}
      propertyPath: m_LocalRotation.w
      value: 0.9930846
      objectReference: {fileID: 0}
    - target: {fileID: 2917969726461794602, guid: 1b220f585f8f7014aa6a428079f9f315,
        type: 3}
      propertyPath: m_LocalRotation.x
      value: -0.0019034584
      objectReference: {fileID: 0}
    - target: {fileID: 2917969726461794602, guid: 1b220f585f8f7014aa6a428079f9f315,
        type: 3}
      propertyPath: m_LocalRotation.y
      value: 0.0103937965
      objectReference: {fileID: 0}
    - target: {fileID: 2917969726461794602, guid: 1b220f585f8f7014aa6a428079f9f315,
        type: 3}
      propertyPath: m_LocalRotation.z
      value: 0.1169251
      objectReference: {fileID: 0}
    - target: {fileID: 3230203076670083041, guid: 1b220f585f8f7014aa6a428079f9f315,
        type: 3}
      propertyPath: m_LocalPosition.x
      value: 0.0000000010604708
      objectReference: {fileID: 0}
    - target: {fileID: 3230203076670083041, guid: 1b220f585f8f7014aa6a428079f9f315,
        type: 3}
      propertyPath: m_LocalPosition.y
      value: 0.044746146
      objectReference: {fileID: 0}
    - target: {fileID: 3230203076670083041, guid: 1b220f585f8f7014aa6a428079f9f315,
        type: 3}
      propertyPath: m_LocalPosition.z
      value: -0.00000019092099
      objectReference: {fileID: 0}
    - target: {fileID: 3230203076670083041, guid: 1b220f585f8f7014aa6a428079f9f315,
        type: 3}
      propertyPath: m_LocalRotation.w
      value: 0.9750794
      objectReference: {fileID: 0}
    - target: {fileID: 3230203076670083041, guid: 1b220f585f8f7014aa6a428079f9f315,
        type: 3}
      propertyPath: m_LocalRotation.x
      value: -0.2201926
      objectReference: {fileID: 0}
    - target: {fileID: 3230203076670083041, guid: 1b220f585f8f7014aa6a428079f9f315,
        type: 3}
      propertyPath: m_LocalRotation.y
      value: -0.02691688
      objectReference: {fileID: 0}
    - target: {fileID: 3230203076670083041, guid: 1b220f585f8f7014aa6a428079f9f315,
        type: 3}
      propertyPath: m_LocalRotation.z
      value: 0.0032921718
      objectReference: {fileID: 0}
    - target: {fileID: 3379986952809048207, guid: 1b220f585f8f7014aa6a428079f9f315,
        type: 3}
      propertyPath: m_LocalPosition.x
      value: -0.00000011338841
      objectReference: {fileID: 0}
    - target: {fileID: 3379986952809048207, guid: 1b220f585f8f7014aa6a428079f9f315,
        type: 3}
      propertyPath: m_LocalPosition.y
      value: 0.04253115
      objectReference: {fileID: 0}
    - target: {fileID: 3379986952809048207, guid: 1b220f585f8f7014aa6a428079f9f315,
        type: 3}
      propertyPath: m_LocalPosition.z
      value: -0.00000010625072
      objectReference: {fileID: 0}
    - target: {fileID: 3379986952809048207, guid: 1b220f585f8f7014aa6a428079f9f315,
        type: 3}
      propertyPath: m_LocalRotation.w
      value: -0.9858638
      objectReference: {fileID: 0}
    - target: {fileID: 3379986952809048207, guid: 1b220f585f8f7014aa6a428079f9f315,
        type: 3}
      propertyPath: m_LocalRotation.x
      value: -0.005429937
      objectReference: {fileID: 0}
    - target: {fileID: 3379986952809048207, guid: 1b220f585f8f7014aa6a428079f9f315,
        type: 3}
      propertyPath: m_LocalRotation.y
      value: 0.015650196
      objectReference: {fileID: 0}
    - target: {fileID: 3379986952809048207, guid: 1b220f585f8f7014aa6a428079f9f315,
        type: 3}
      propertyPath: m_LocalRotation.z
      value: 0.16672799
      objectReference: {fileID: 0}
    - target: {fileID: 3396096705427101552, guid: 1b220f585f8f7014aa6a428079f9f315,
        type: 3}
      propertyPath: m_LocalPosition.x
      value: 0.0053227367
      objectReference: {fileID: 0}
    - target: {fileID: 3396096705427101552, guid: 1b220f585f8f7014aa6a428079f9f315,
        type: 3}
      propertyPath: m_LocalPosition.y
      value: 0.087093174
      objectReference: {fileID: 0}
    - target: {fileID: 3396096705427101552, guid: 1b220f585f8f7014aa6a428079f9f315,
        type: 3}
      propertyPath: m_LocalRotation.w
      value: 0.9968158
      objectReference: {fileID: 0}
    - target: {fileID: 3396096705427101552, guid: 1b220f585f8f7014aa6a428079f9f315,
        type: 3}
      propertyPath: m_LocalRotation.x
      value: 0.032334145
      objectReference: {fileID: 0}
    - target: {fileID: 3396096705427101552, guid: 1b220f585f8f7014aa6a428079f9f315,
        type: 3}
      propertyPath: m_LocalRotation.y
      value: 0.009536121
      objectReference: {fileID: 0}
    - target: {fileID: 3396096705427101552, guid: 1b220f585f8f7014aa6a428079f9f315,
        type: 3}
      propertyPath: m_LocalRotation.z
      value: 0.07226213
      objectReference: {fileID: 0}
    - target: {fileID: 3545828814115655334, guid: 1b220f585f8f7014aa6a428079f9f315,
        type: 3}
      propertyPath: m_LocalPosition.x
      value: -0.00000009965144
      objectReference: {fileID: 0}
    - target: {fileID: 3545828814115655334, guid: 1b220f585f8f7014aa6a428079f9f315,
        type: 3}
      propertyPath: m_LocalPosition.y
      value: 0.058860693
      objectReference: {fileID: 0}
    - target: {fileID: 3545828814115655334, guid: 1b220f585f8f7014aa6a428079f9f315,
        type: 3}
      propertyPath: m_LocalPosition.z
      value: -0.00000032968782
      objectReference: {fileID: 0}
    - target: {fileID: 3545828814115655334, guid: 1b220f585f8f7014aa6a428079f9f315,
        type: 3}
      propertyPath: m_LocalRotation.w
      value: 0.9546862
      objectReference: {fileID: 0}
    - target: {fileID: 3545828814115655334, guid: 1b220f585f8f7014aa6a428079f9f315,
        type: 3}
      propertyPath: m_LocalRotation.x
      value: -0.287771
      objectReference: {fileID: 0}
    - target: {fileID: 3545828814115655334, guid: 1b220f585f8f7014aa6a428079f9f315,
        type: 3}
      propertyPath: m_LocalRotation.y
      value: 0.012182143
      objectReference: {fileID: 0}
    - target: {fileID: 3545828814115655334, guid: 1b220f585f8f7014aa6a428079f9f315,
        type: 3}
      propertyPath: m_LocalRotation.z
      value: -0.07492419
      objectReference: {fileID: 0}
    - target: {fileID: 4102736948640468551, guid: 1b220f585f8f7014aa6a428079f9f315,
        type: 3}
      propertyPath: m_LocalPosition.x
      value: -0.00000012040252
      objectReference: {fileID: 0}
    - target: {fileID: 4102736948640468551, guid: 1b220f585f8f7014aa6a428079f9f315,
        type: 3}
      propertyPath: m_LocalPosition.y
      value: 0.12977399
      objectReference: {fileID: 0}
    - target: {fileID: 4102736948640468551, guid: 1b220f585f8f7014aa6a428079f9f315,
        type: 3}
      propertyPath: m_LocalPosition.z
      value: -0.00000017881388
      objectReference: {fileID: 0}
    - target: {fileID: 4102736948640468551, guid: 1b220f585f8f7014aa6a428079f9f315,
        type: 3}
      propertyPath: m_LocalRotation.w
      value: 0.81952107
      objectReference: {fileID: 0}
    - target: {fileID: 4102736948640468551, guid: 1b220f585f8f7014aa6a428079f9f315,
        type: 3}
      propertyPath: m_LocalRotation.x
      value: 0.17666367
      objectReference: {fileID: 0}
    - target: {fileID: 4102736948640468551, guid: 1b220f585f8f7014aa6a428079f9f315,
        type: 3}
      propertyPath: m_LocalRotation.y
      value: 0.26991442
      objectReference: {fileID: 0}
    - target: {fileID: 4102736948640468551, guid: 1b220f585f8f7014aa6a428079f9f315,
        type: 3}
      propertyPath: m_LocalRotation.z
      value: -0.4736258
      objectReference: {fileID: 0}
    - target: {fileID: 4173834552254585023, guid: 1b220f585f8f7014aa6a428079f9f315,
        type: 3}
      propertyPath: m_LocalPosition.x
      value: 0.00846882
      objectReference: {fileID: 0}
    - target: {fileID: 4173834552254585023, guid: 1b220f585f8f7014aa6a428079f9f315,
        type: 3}
      propertyPath: m_LocalPosition.y
      value: -0.008609188
      objectReference: {fileID: 0}
    - target: {fileID: 4173834552254585023, guid: 1b220f585f8f7014aa6a428079f9f315,
        type: 3}
      propertyPath: m_LocalPosition.z
      value: 0.00046682073
      objectReference: {fileID: 0}
    - target: {fileID: 4653230183945875201, guid: 1b220f585f8f7014aa6a428079f9f315,
        type: 3}
      propertyPath: m_LocalPosition.x
      value: -0.00000013096714
      objectReference: {fileID: 0}
    - target: {fileID: 4653230183945875201, guid: 1b220f585f8f7014aa6a428079f9f315,
        type: 3}
      propertyPath: m_LocalPosition.y
      value: 0.046484374
      objectReference: {fileID: 0}
    - target: {fileID: 4653230183945875201, guid: 1b220f585f8f7014aa6a428079f9f315,
        type: 3}
      propertyPath: m_LocalPosition.z
      value: -0.0000000066020154
      objectReference: {fileID: 0}
    - target: {fileID: 4653230183945875201, guid: 1b220f585f8f7014aa6a428079f9f315,
        type: 3}
      propertyPath: m_LocalRotation.w
      value: 0.9801789
      objectReference: {fileID: 0}
    - target: {fileID: 4653230183945875201, guid: 1b220f585f8f7014aa6a428079f9f315,
        type: 3}
      propertyPath: m_LocalRotation.x
      value: -0.004342437
      objectReference: {fileID: 0}
    - target: {fileID: 4653230183945875201, guid: 1b220f585f8f7014aa6a428079f9f315,
        type: 3}
      propertyPath: m_LocalRotation.y
      value: 0.012468805
      objectReference: {fileID: 0}
    - target: {fileID: 4653230183945875201, guid: 1b220f585f8f7014aa6a428079f9f315,
        type: 3}
      propertyPath: m_LocalRotation.z
      value: 0.19767402
      objectReference: {fileID: 0}
    - target: {fileID: 5322906624401428936, guid: 1b220f585f8f7014aa6a428079f9f315,
        type: 3}
      propertyPath: m_LocalPosition.x
      value: 0.00000022843588
      objectReference: {fileID: 0}
    - target: {fileID: 5322906624401428936, guid: 1b220f585f8f7014aa6a428079f9f315,
        type: 3}
      propertyPath: m_LocalPosition.y
      value: 0.12977399
      objectReference: {fileID: 0}
    - target: {fileID: 5322906624401428936, guid: 1b220f585f8f7014aa6a428079f9f315,
        type: 3}
      propertyPath: m_LocalPosition.z
      value: -0.00000015285326
      objectReference: {fileID: 0}
    - target: {fileID: 5322906624401428936, guid: 1b220f585f8f7014aa6a428079f9f315,
        type: 3}
      propertyPath: m_LocalRotation.w
      value: 0.79835105
      objectReference: {fileID: 0}
    - target: {fileID: 5322906624401428936, guid: 1b220f585f8f7014aa6a428079f9f315,
        type: 3}
      propertyPath: m_LocalRotation.x
      value: 0.15466882
      objectReference: {fileID: 0}
    - target: {fileID: 5322906624401428936, guid: 1b220f585f8f7014aa6a428079f9f315,
        type: 3}
      propertyPath: m_LocalRotation.y
      value: -0.26339334
      objectReference: {fileID: 0}
    - target: {fileID: 5322906624401428936, guid: 1b220f585f8f7014aa6a428079f9f315,
        type: 3}
      propertyPath: m_LocalRotation.z
      value: 0.5189769
      objectReference: {fileID: 0}
    - target: {fileID: 5707310972314812765, guid: 1b220f585f8f7014aa6a428079f9f315,
        type: 3}
      propertyPath: m_LocalPosition.x
      value: -0.0000013839453
      objectReference: {fileID: 0}
    - target: {fileID: 5707310972314812765, guid: 1b220f585f8f7014aa6a428079f9f315,
        type: 3}
      propertyPath: m_LocalPosition.y
      value: 0.46941498
      objectReference: {fileID: 0}
    - target: {fileID: 5707310972314812765, guid: 1b220f585f8f7014aa6a428079f9f315,
        type: 3}
      propertyPath: m_LocalPosition.z
      value: 0.000054632772
      objectReference: {fileID: 0}
    - target: {fileID: 5707310972314812765, guid: 1b220f585f8f7014aa6a428079f9f315,
        type: 3}
      propertyPath: m_LocalRotation.w
      value: 0.776209
      objectReference: {fileID: 0}
    - target: {fileID: 5707310972314812765, guid: 1b220f585f8f7014aa6a428079f9f315,
        type: 3}
      propertyPath: m_LocalRotation.x
      value: 0.61927146
      objectReference: {fileID: 0}
    - target: {fileID: 5707310972314812765, guid: 1b220f585f8f7014aa6a428079f9f315,
        type: 3}
      propertyPath: m_LocalRotation.y
      value: -0.10569595
      objectReference: {fileID: 0}
    - target: {fileID: 5707310972314812765, guid: 1b220f585f8f7014aa6a428079f9f315,
        type: 3}
      propertyPath: m_LocalRotation.z
      value: 0.053206075
      objectReference: {fileID: 0}
    - target: {fileID: 5866666021909216657, guid: 1b220f585f8f7014aa6a428079f9f315,
        type: 3}
      propertyPath: m_Enabled
      value: 0
      objectReference: {fileID: 0}
    - target: {fileID: 5866666021909216657, guid: 1b220f585f8f7014aa6a428079f9f315,
        type: 3}
      propertyPath: m_Controller
      value: 
      objectReference: {fileID: 22100000, guid: c45f9c19269ec494583fd7cea81c8d7a,
        type: 2}
    - target: {fileID: 6108738629974626671, guid: 1b220f585f8f7014aa6a428079f9f315,
        type: 3}
      propertyPath: m_IsActive
      value: 1
      objectReference: {fileID: 0}
    - target: {fileID: 6230383071652420419, guid: 1b220f585f8f7014aa6a428079f9f315,
        type: 3}
      propertyPath: m_LocalPosition.x
      value: 0.005866951
      objectReference: {fileID: 0}
    - target: {fileID: 6230383071652420419, guid: 1b220f585f8f7014aa6a428079f9f315,
        type: 3}
      propertyPath: m_LocalPosition.y
      value: 0.09141063
      objectReference: {fileID: 0}
    - target: {fileID: 6230383071652420419, guid: 1b220f585f8f7014aa6a428079f9f315,
        type: 3}
      propertyPath: m_LocalPosition.z
      value: -0.017724523
      objectReference: {fileID: 0}
    - target: {fileID: 6230383071652420419, guid: 1b220f585f8f7014aa6a428079f9f315,
        type: 3}
      propertyPath: m_LocalRotation.w
      value: -0.9767053
      objectReference: {fileID: 0}
    - target: {fileID: 6230383071652420419, guid: 1b220f585f8f7014aa6a428079f9f315,
        type: 3}
      propertyPath: m_LocalRotation.x
      value: 0.024833068
      objectReference: {fileID: 0}
    - target: {fileID: 6230383071652420419, guid: 1b220f585f8f7014aa6a428079f9f315,
        type: 3}
      propertyPath: m_LocalRotation.y
      value: 0.012109844
      objectReference: {fileID: 0}
    - target: {fileID: 6230383071652420419, guid: 1b220f585f8f7014aa6a428079f9f315,
        type: 3}
      propertyPath: m_LocalRotation.z
      value: 0.21279933
      objectReference: {fileID: 0}
    - target: {fileID: 6289357394827259414, guid: 1b220f585f8f7014aa6a428079f9f315,
        type: 3}
      propertyPath: m_LocalPosition.x
      value: -0.00000018972399
      objectReference: {fileID: 0}
    - target: {fileID: 6289357394827259414, guid: 1b220f585f8f7014aa6a428079f9f315,
        type: 3}
      propertyPath: m_LocalPosition.y
      value: 0.017646957
      objectReference: {fileID: 0}
    - target: {fileID: 6289357394827259414, guid: 1b220f585f8f7014aa6a428079f9f315,
        type: 3}
      propertyPath: m_LocalPosition.z
      value: -0.000000027002754
      objectReference: {fileID: 0}
    - target: {fileID: 6289357394827259414, guid: 1b220f585f8f7014aa6a428079f9f315,
        type: 3}
      propertyPath: m_LocalRotation.w
      value: -0.9691318
      objectReference: {fileID: 0}
    - target: {fileID: 6289357394827259414, guid: 1b220f585f8f7014aa6a428079f9f315,
        type: 3}
      propertyPath: m_LocalRotation.x
      value: -0.0022944903
      objectReference: {fileID: 0}
    - target: {fileID: 6289357394827259414, guid: 1b220f585f8f7014aa6a428079f9f315,
        type: 3}
      propertyPath: m_LocalRotation.y
      value: 0.014078273
      objectReference: {fileID: 0}
    - target: {fileID: 6289357394827259414, guid: 1b220f585f8f7014aa6a428079f9f315,
        type: 3}
      propertyPath: m_LocalRotation.z
      value: 0.24613006
      objectReference: {fileID: 0}
    - target: {fileID: 6454317480724915589, guid: 1b220f585f8f7014aa6a428079f9f315,
        type: 3}
      propertyPath: m_LocalPosition.x
      value: -0.00000013045963
      objectReference: {fileID: 0}
    - target: {fileID: 6454317480724915589, guid: 1b220f585f8f7014aa6a428079f9f315,
        type: 3}
      propertyPath: m_LocalPosition.y
      value: 0.03345316
      objectReference: {fileID: 0}
    - target: {fileID: 6454317480724915589, guid: 1b220f585f8f7014aa6a428079f9f315,
        type: 3}
      propertyPath: m_LocalPosition.z
      value: -0.000000020373797
      objectReference: {fileID: 0}
    - target: {fileID: 6454317480724915589, guid: 1b220f585f8f7014aa6a428079f9f315,
        type: 3}
      propertyPath: m_LocalRotation.w
      value: 0.99089617
      objectReference: {fileID: 0}
    - target: {fileID: 6454317480724915589, guid: 1b220f585f8f7014aa6a428079f9f315,
        type: 3}
      propertyPath: m_LocalRotation.x
      value: 0.0016250254
      objectReference: {fileID: 0}
    - target: {fileID: 6454317480724915589, guid: 1b220f585f8f7014aa6a428079f9f315,
        type: 3}
      propertyPath: m_LocalRotation.y
      value: 0.018647715
      objectReference: {fileID: 0}
    - target: {fileID: 6454317480724915589, guid: 1b220f585f8f7014aa6a428079f9f315,
        type: 3}
      propertyPath: m_LocalRotation.z
      value: 0.13332066
      objectReference: {fileID: 0}
    - target: {fileID: 6605444653091925467, guid: 1b220f585f8f7014aa6a428079f9f315,
        type: 3}
      propertyPath: m_LocalPosition.x
      value: 0.0000009213101
      objectReference: {fileID: 0}
    - target: {fileID: 6605444653091925467, guid: 1b220f585f8f7014aa6a428079f9f315,
        type: 3}
      propertyPath: m_LocalPosition.y
      value: 0.048639458
      objectReference: {fileID: 0}
    - target: {fileID: 6605444653091925467, guid: 1b220f585f8f7014aa6a428079f9f315,
        type: 3}
      propertyPath: m_LocalPosition.z
      value: -0.000002539077
      objectReference: {fileID: 0}
    - target: {fileID: 6605444653091925467, guid: 1b220f585f8f7014aa6a428079f9f315,
        type: 3}
      propertyPath: m_LocalRotation.w
      value: 0.9869017
      objectReference: {fileID: 0}
    - target: {fileID: 6605444653091925467, guid: 1b220f585f8f7014aa6a428079f9f315,
        type: 3}
      propertyPath: m_LocalRotation.x
      value: -0.00024058945
      objectReference: {fileID: 0}
    - target: {fileID: 6605444653091925467, guid: 1b220f585f8f7014aa6a428079f9f315,
        type: 3}
      propertyPath: m_LocalRotation.y
      value: 0.013948728
      objectReference: {fileID: 0}
    - target: {fileID: 6605444653091925467, guid: 1b220f585f8f7014aa6a428079f9f315,
        type: 3}
      propertyPath: m_LocalRotation.z
      value: 0.16071893
      objectReference: {fileID: 0}
    - target: {fileID: 7405358396602550252, guid: 1b220f585f8f7014aa6a428079f9f315,
        type: 3}
      propertyPath: m_LocalPosition.x
      value: 0.00000030361113
      objectReference: {fileID: 0}
    - target: {fileID: 7405358396602550252, guid: 1b220f585f8f7014aa6a428079f9f315,
        type: 3}
      propertyPath: m_LocalPosition.y
      value: 0.46941486
      objectReference: {fileID: 0}
    - target: {fileID: 7405358396602550252, guid: 1b220f585f8f7014aa6a428079f9f315,
        type: 3}
      propertyPath: m_LocalPosition.z
      value: 0.000056362005
      objectReference: {fileID: 0}
    - target: {fileID: 7405358396602550252, guid: 1b220f585f8f7014aa6a428079f9f315,
        type: 3}
      propertyPath: m_LocalRotation.w
      value: 0.7726143
      objectReference: {fileID: 0}
    - target: {fileID: 7405358396602550252, guid: 1b220f585f8f7014aa6a428079f9f315,
        type: 3}
      propertyPath: m_LocalRotation.x
      value: 0.5965538
      objectReference: {fileID: 0}
    - target: {fileID: 7405358396602550252, guid: 1b220f585f8f7014aa6a428079f9f315,
        type: 3}
      propertyPath: m_LocalRotation.y
      value: 0.17840472
      objectReference: {fileID: 0}
    - target: {fileID: 7405358396602550252, guid: 1b220f585f8f7014aa6a428079f9f315,
        type: 3}
      propertyPath: m_LocalRotation.z
      value: -0.123946056
      objectReference: {fileID: 0}
    - target: {fileID: 7696333625507261064, guid: 1b220f585f8f7014aa6a428079f9f315,
        type: 3}
      propertyPath: m_LocalPosition.x
      value: -0.000000090571
      objectReference: {fileID: 0}
    - target: {fileID: 7696333625507261064, guid: 1b220f585f8f7014aa6a428079f9f315,
        type: 3}
      propertyPath: m_LocalPosition.y
      value: 0.028680004
      objectReference: {fileID: 0}
    - target: {fileID: 7696333625507261064, guid: 1b220f585f8f7014aa6a428079f9f315,
        type: 3}
      propertyPath: m_LocalPosition.z
      value: -0.000000039843105
      objectReference: {fileID: 0}
    - target: {fileID: 7696333625507261064, guid: 1b220f585f8f7014aa6a428079f9f315,
        type: 3}
      propertyPath: m_LocalRotation.w
      value: -0.9988526
      objectReference: {fileID: 0}
    - target: {fileID: 7696333625507261064, guid: 1b220f585f8f7014aa6a428079f9f315,
        type: 3}
      propertyPath: m_LocalRotation.x
      value: -0.0037891024
      objectReference: {fileID: 0}
    - target: {fileID: 7696333625507261064, guid: 1b220f585f8f7014aa6a428079f9f315,
        type: 3}
      propertyPath: m_LocalRotation.y
      value: 0.021903103
      objectReference: {fileID: 0}
    - target: {fileID: 7696333625507261064, guid: 1b220f585f8f7014aa6a428079f9f315,
        type: 3}
      propertyPath: m_LocalRotation.z
      value: 0.042419653
      objectReference: {fileID: 0}
    - target: {fileID: 7887901489315153763, guid: 1b220f585f8f7014aa6a428079f9f315,
        type: 3}
      propertyPath: m_LocalPosition.x
      value: 2.7532148e-12
      objectReference: {fileID: 0}
    - target: {fileID: 7887901489315153763, guid: 1b220f585f8f7014aa6a428079f9f315,
        type: 3}
      propertyPath: m_LocalPosition.y
      value: 0.0000001192093
      objectReference: {fileID: 0}
    - target: {fileID: 7887901489315153763, guid: 1b220f585f8f7014aa6a428079f9f315,
        type: 3}
      propertyPath: m_LocalPosition.z
      value: -0.0000000018625317
      objectReference: {fileID: 0}
    - target: {fileID: 7887901489315153763, guid: 1b220f585f8f7014aa6a428079f9f315,
        type: 3}
      propertyPath: m_LocalRotation.x
      value: 0.0938417
      objectReference: {fileID: 0}
    - target: {fileID: 7887901489315153763, guid: 1b220f585f8f7014aa6a428079f9f315,
        type: 3}
      propertyPath: m_LocalRotation.y
      value: -2.8421703e-14
      objectReference: {fileID: 0}
    - target: {fileID: 7887901489315153763, guid: 1b220f585f8f7014aa6a428079f9f315,
        type: 3}
      propertyPath: m_LocalRotation.z
      value: 0.00000006821678
      objectReference: {fileID: 0}
    - target: {fileID: 7966054333387873958, guid: 1b220f585f8f7014aa6a428079f9f315,
        type: 3}
      propertyPath: m_LocalPosition.x
      value: 0.0043586125
      objectReference: {fileID: 0}
    - target: {fileID: 7966054333387873958, guid: 1b220f585f8f7014aa6a428079f9f315,
        type: 3}
      propertyPath: m_LocalPosition.y
      value: 0.016053163
      objectReference: {fileID: 0}
    - target: {fileID: 7966054333387873958, guid: 1b220f585f8f7014aa6a428079f9f315,
        type: 3}
      propertyPath: m_LocalPosition.z
      value: 0.02701746
      objectReference: {fileID: 0}
    - target: {fileID: 7966054333387873958, guid: 1b220f585f8f7014aa6a428079f9f315,
        type: 3}
      propertyPath: m_LocalRotation.w
      value: -0.93826425
      objectReference: {fileID: 0}
    - target: {fileID: 7966054333387873958, guid: 1b220f585f8f7014aa6a428079f9f315,
        type: 3}
      propertyPath: m_LocalRotation.x
      value: -0.28208488
      objectReference: {fileID: 0}
    - target: {fileID: 7966054333387873958, guid: 1b220f585f8f7014aa6a428079f9f315,
        type: 3}
      propertyPath: m_LocalRotation.y
      value: 0.113182016
      objectReference: {fileID: 0}
    - target: {fileID: 7966054333387873958, guid: 1b220f585f8f7014aa6a428079f9f315,
        type: 3}
      propertyPath: m_LocalRotation.z
      value: 0.16516122
      objectReference: {fileID: 0}
    - target: {fileID: 8081261034749579992, guid: 1b220f585f8f7014aa6a428079f9f315,
        type: 3}
      propertyPath: m_LocalPosition.x
      value: -0.00586641
      objectReference: {fileID: 0}
    - target: {fileID: 8081261034749579992, guid: 1b220f585f8f7014aa6a428079f9f315,
        type: 3}
      propertyPath: m_LocalPosition.y
      value: 0.0914107
      objectReference: {fileID: 0}
    - target: {fileID: 8081261034749579992, guid: 1b220f585f8f7014aa6a428079f9f315,
        type: 3}
      propertyPath: m_LocalPosition.z
      value: -0.017724523
      objectReference: {fileID: 0}
    - target: {fileID: 8081261034749579992, guid: 1b220f585f8f7014aa6a428079f9f315,
        type: 3}
      propertyPath: m_LocalRotation.w
      value: 0.9753703
      objectReference: {fileID: 0}
    - target: {fileID: 8081261034749579992, guid: 1b220f585f8f7014aa6a428079f9f315,
        type: 3}
      propertyPath: m_LocalRotation.x
      value: -0.03060872
      objectReference: {fileID: 0}
    - target: {fileID: 8081261034749579992, guid: 1b220f585f8f7014aa6a428079f9f315,
        type: 3}
      propertyPath: m_LocalRotation.y
      value: 0.010802059
      objectReference: {fileID: 0}
    - target: {fileID: 8081261034749579992, guid: 1b220f585f8f7014aa6a428079f9f315,
        type: 3}
      propertyPath: m_LocalRotation.z
      value: 0.21817286
      objectReference: {fileID: 0}
    - target: {fileID: 8153093272604768251, guid: 1b220f585f8f7014aa6a428079f9f315,
        type: 3}
      propertyPath: m_LocalPosition.x
      value: 0.00000610575
      objectReference: {fileID: 0}
    - target: {fileID: 8153093272604768251, guid: 1b220f585f8f7014aa6a428079f9f315,
        type: 3}
      propertyPath: m_LocalPosition.y
      value: 0.15373927
      objectReference: {fileID: 0}
    - target: {fileID: 8153093272604768251, guid: 1b220f585f8f7014aa6a428079f9f315,
        type: 3}
      propertyPath: m_LocalPosition.z
      value: 0.0000027865165
      objectReference: {fileID: 0}
    - target: {fileID: 8153093272604768251, guid: 1b220f585f8f7014aa6a428079f9f315,
        type: 3}
      propertyPath: m_LocalRotation.w
      value: 0.9908209
      objectReference: {fileID: 0}
    - target: {fileID: 8153093272604768251, guid: 1b220f585f8f7014aa6a428079f9f315,
        type: 3}
      propertyPath: m_LocalRotation.x
      value: 0.13224535
      objectReference: {fileID: 0}
    - target: {fileID: 8153093272604768251, guid: 1b220f585f8f7014aa6a428079f9f315,
        type: 3}
      propertyPath: m_LocalRotation.y
      value: -0.024543881
      objectReference: {fileID: 0}
    - target: {fileID: 8153093272604768251, guid: 1b220f585f8f7014aa6a428079f9f315,
        type: 3}
      propertyPath: m_LocalRotation.z
      value: 0.013521805
      objectReference: {fileID: 0}
    - target: {fileID: 8275501230857046118, guid: 1b220f585f8f7014aa6a428079f9f315,
        type: 3}
      propertyPath: m_LocalPosition.x
      value: 0.0013775828
      objectReference: {fileID: 0}
    - target: {fileID: 8275501230857046118, guid: 1b220f585f8f7014aa6a428079f9f315,
        type: 3}
      propertyPath: m_LocalPosition.y
      value: -0.004284978
      objectReference: {fileID: 0}
    - target: {fileID: 8275501230857046118, guid: 1b220f585f8f7014aa6a428079f9f315,
        type: 3}
      propertyPath: m_LocalPosition.z
      value: 1.0212047
      objectReference: {fileID: 0}
    - target: {fileID: 8275501230857046118, guid: 1b220f585f8f7014aa6a428079f9f315,
        type: 3}
      propertyPath: m_LocalRotation.w
      value: 0.70688224
      objectReference: {fileID: 0}
    - target: {fileID: 8275501230857046118, guid: 1b220f585f8f7014aa6a428079f9f315,
        type: 3}
      propertyPath: m_LocalRotation.x
      value: 0.7073078
      objectReference: {fileID: 0}
    - target: {fileID: 8275501230857046118, guid: 1b220f585f8f7014aa6a428079f9f315,
        type: 3}
      propertyPath: m_LocalRotation.y
      value: 0.00091594376
      objectReference: {fileID: 0}
    - target: {fileID: 8275501230857046118, guid: 1b220f585f8f7014aa6a428079f9f315,
        type: 3}
      propertyPath: m_LocalRotation.z
      value: 0.0056937467
      objectReference: {fileID: 0}
    - target: {fileID: 8476684236297019293, guid: 1b220f585f8f7014aa6a428079f9f315,
        type: 3}
      propertyPath: m_LocalPosition.x
      value: -0.000000069732685
      objectReference: {fileID: 0}
    - target: {fileID: 8476684236297019293, guid: 1b220f585f8f7014aa6a428079f9f315,
        type: 3}
      propertyPath: m_LocalPosition.y
      value: 0.03081504
      objectReference: {fileID: 0}
    - target: {fileID: 8476684236297019293, guid: 1b220f585f8f7014aa6a428079f9f315,
        type: 3}
      propertyPath: m_LocalPosition.z
      value: 0.00000029311522
      objectReference: {fileID: 0}
    - target: {fileID: 8476684236297019293, guid: 1b220f585f8f7014aa6a428079f9f315,
        type: 3}
      propertyPath: m_LocalRotation.w
      value: -0.9843917
      objectReference: {fileID: 0}
    - target: {fileID: 8476684236297019293, guid: 1b220f585f8f7014aa6a428079f9f315,
        type: 3}
      propertyPath: m_LocalRotation.x
      value: -0.010204503
      objectReference: {fileID: 0}
    - target: {fileID: 8476684236297019293, guid: 1b220f585f8f7014aa6a428079f9f315,
        type: 3}
      propertyPath: m_LocalRotation.y
      value: 0.019927213
      objectReference: {fileID: 0}
    - target: {fileID: 8476684236297019293, guid: 1b220f585f8f7014aa6a428079f9f315,
        type: 3}
      propertyPath: m_LocalRotation.z
      value: 0.17456183
      objectReference: {fileID: 0}
    - target: {fileID: 8732272558732516742, guid: 1b220f585f8f7014aa6a428079f9f315,
        type: 3}
      propertyPath: m_LocalPosition.y
      value: -0.019790523
      objectReference: {fileID: 0}
    - target: {fileID: 8732272558732516742, guid: 1b220f585f8f7014aa6a428079f9f315,
        type: 3}
      propertyPath: m_LocalPosition.z
      value: 0.00076767313
      objectReference: {fileID: 0}
    - target: {fileID: 8732272558732516742, guid: 1b220f585f8f7014aa6a428079f9f315,
        type: 3}
      propertyPath: m_LocalRotation.w
      value: 0.0080502
      objectReference: {fileID: 0}
    - target: {fileID: 8732272558732516742, guid: 1b220f585f8f7014aa6a428079f9f315,
        type: 3}
      propertyPath: m_LocalRotation.x
      value: -0.007300721
      objectReference: {fileID: 0}
    - target: {fileID: 8732272558732516742, guid: 1b220f585f8f7014aa6a428079f9f315,
        type: 3}
      propertyPath: m_LocalRotation.y
      value: 0.09373431
      objectReference: {fileID: 0}
    - target: {fileID: 8732272558732516742, guid: 1b220f585f8f7014aa6a428079f9f315,
        type: 3}
      propertyPath: m_LocalRotation.z
      value: 0.99553794
      objectReference: {fileID: 0}
    - target: {fileID: 8860465475601051482, guid: 1b220f585f8f7014aa6a428079f9f315,
        type: 3}
      propertyPath: m_LocalPosition.x
      value: 0.000019490712
      objectReference: {fileID: 0}
    - target: {fileID: 8860465475601051482, guid: 1b220f585f8f7014aa6a428079f9f315,
        type: 3}
      propertyPath: m_LocalPosition.y
      value: 0.2689837
      objectReference: {fileID: 0}
    - target: {fileID: 8860465475601051482, guid: 1b220f585f8f7014aa6a428079f9f315,
        type: 3}
      propertyPath: m_LocalPosition.z
      value: -0.00004462597
      objectReference: {fileID: 0}
    - target: {fileID: 8860465475601051482, guid: 1b220f585f8f7014aa6a428079f9f315,
        type: 3}
      propertyPath: m_LocalRotation.w
      value: 0.9865255
      objectReference: {fileID: 0}
    - target: {fileID: 8860465475601051482, guid: 1b220f585f8f7014aa6a428079f9f315,
        type: 3}
      propertyPath: m_LocalRotation.x
      value: 0.012728434
      objectReference: {fileID: 0}
    - target: {fileID: 8860465475601051482, guid: 1b220f585f8f7014aa6a428079f9f315,
        type: 3}
      propertyPath: m_LocalRotation.y
      value: 0.16310364
      objectReference: {fileID: 0}
    - target: {fileID: 8860465475601051482, guid: 1b220f585f8f7014aa6a428079f9f315,
        type: 3}
      propertyPath: m_LocalRotation.z
      value: -0.0016215979
      objectReference: {fileID: 0}
    - target: {fileID: 8949501585594730069, guid: 1b220f585f8f7014aa6a428079f9f315,
        type: 3}
      propertyPath: m_LocalPosition.x
      value: -0.000001147621
      objectReference: {fileID: 0}
    - target: {fileID: 8949501585594730069, guid: 1b220f585f8f7014aa6a428079f9f315,
        type: 3}
      propertyPath: m_LocalPosition.y
      value: 0.048639715
      objectReference: {fileID: 0}
    - target: {fileID: 8949501585594730069, guid: 1b220f585f8f7014aa6a428079f9f315,
        type: 3}
      propertyPath: m_LocalPosition.z
      value: -0.0000025681159
      objectReference: {fileID: 0}
    - target: {fileID: 8949501585594730069, guid: 1b220f585f8f7014aa6a428079f9f315,
        type: 3}
      propertyPath: m_LocalRotation.w
      value: -0.992289
      objectReference: {fileID: 0}
    - target: {fileID: 8949501585594730069, guid: 1b220f585f8f7014aa6a428079f9f315,
        type: 3}
      propertyPath: m_LocalRotation.x
      value: 0.00051404524
      objectReference: {fileID: 0}
    - target: {fileID: 8949501585594730069, guid: 1b220f585f8f7014aa6a428079f9f315,
        type: 3}
      propertyPath: m_LocalRotation.y
      value: 0.013973099
      objectReference: {fileID: 0}
    - target: {fileID: 8949501585594730069, guid: 1b220f585f8f7014aa6a428079f9f315,
        type: 3}
      propertyPath: m_LocalRotation.z
      value: 0.12315485
      objectReference: {fileID: 0}
    m_RemovedComponents: []
  m_SourcePrefab: {fileID: 100100000, guid: 1b220f585f8f7014aa6a428079f9f315, type: 3}
