%YAML 1.1
%TAG !u! tag:unity3d.com,2011:
--- !u!1001 &1759492934928808668
PrefabInstance:
  m_ObjectHideFlags: 0
  serializedVersion: 2
  m_Modification:
    m_TransformParent: {fileID: 6970501072358031094}
    m_Modifications:
    - target: {fileID: -8679921383154817045, guid: 3e1003888a676ca44a4f752fdb55c7de,
        type: 3}
      propertyPath: m_RootOrder
      value: 6
      objectReference: {fileID: 0}
    - target: {fileID: -8679921383154817045, guid: 3e1003888a676ca44a4f752fdb55c7de,
        type: 3}
      propertyPath: m_LocalScale.x
      value: 2.6848
      objectReference: {fileID: 0}
    - target: {fileID: -8679921383154817045, guid: 3e1003888a676ca44a4f752fdb55c7de,
        type: 3}
      propertyPath: m_LocalScale.y
      value: 2.6848
      objectReference: {fileID: 0}
    - target: {fileID: -8679921383154817045, guid: 3e1003888a676ca44a4f752fdb55c7de,
        type: 3}
      propertyPath: m_LocalScale.z
      value: 2.6848
      objectReference: {fileID: 0}
    - target: {fileID: -8679921383154817045, guid: 3e1003888a676ca44a4f752fdb55c7de,
        type: 3}
      propertyPath: m_LocalPosition.x
      value: 0
      objectReference: {fileID: 0}
    - target: {fileID: -8679921383154817045, guid: 3e1003888a676ca44a4f752fdb55c7de,
        type: 3}
      propertyPath: m_LocalPosition.y
      value: 0.133
      objectReference: {fileID: 0}
    - target: {fileID: -8679921383154817045, guid: 3e1003888a676ca44a4f752fdb55c7de,
        type: 3}
      propertyPath: m_LocalPosition.z
      value: 0
      objectReference: {fileID: 0}
    - target: {fileID: -8679921383154817045, guid: 3e1003888a676ca44a4f752fdb55c7de,
        type: 3}
      propertyPath: m_LocalRotation.w
      value: 1
      objectReference: {fileID: 0}
    - target: {fileID: -8679921383154817045, guid: 3e1003888a676ca44a4f752fdb55c7de,
        type: 3}
      propertyPath: m_LocalRotation.x
      value: -0
      objectReference: {fileID: 0}
    - target: {fileID: -8679921383154817045, guid: 3e1003888a676ca44a4f752fdb55c7de,
        type: 3}
      propertyPath: m_LocalRotation.y
      value: -0
      objectReference: {fileID: 0}
    - target: {fileID: -8679921383154817045, guid: 3e1003888a676ca44a4f752fdb55c7de,
        type: 3}
      propertyPath: m_LocalRotation.z
      value: -0
      objectReference: {fileID: 0}
    - target: {fileID: -8679921383154817045, guid: 3e1003888a676ca44a4f752fdb55c7de,
        type: 3}
      propertyPath: m_LocalEulerAnglesHint.x
      value: 0
      objectReference: {fileID: 0}
    - target: {fileID: -8679921383154817045, guid: 3e1003888a676ca44a4f752fdb55c7de,
        type: 3}
      propertyPath: m_LocalEulerAnglesHint.y
      value: 0
      objectReference: {fileID: 0}
    - target: {fileID: -8679921383154817045, guid: 3e1003888a676ca44a4f752fdb55c7de,
        type: 3}
      propertyPath: m_LocalEulerAnglesHint.z
      value: 0
      objectReference: {fileID: 0}
    - target: {fileID: -7988468677212183585, guid: 3e1003888a676ca44a4f752fdb55c7de,
        type: 3}
      propertyPath: m_AABB.m_Center.x
      value: -0.24215227
      objectReference: {fileID: 0}
    - target: {fileID: -7988468677212183585, guid: 3e1003888a676ca44a4f752fdb55c7de,
        type: 3}
      propertyPath: m_AABB.m_Center.y
      value: -0.59242797
      objectReference: {fileID: 0}
    - target: {fileID: -7988468677212183585, guid: 3e1003888a676ca44a4f752fdb55c7de,
        type: 3}
      propertyPath: m_AABB.m_Center.z
      value: 0.018860132
      objectReference: {fileID: 0}
    - target: {fileID: -7988468677212183585, guid: 3e1003888a676ca44a4f752fdb55c7de,
        type: 3}
      propertyPath: m_AABB.m_Extent.x
      value: 0.46426868
      objectReference: {fileID: 0}
    - target: {fileID: -7988468677212183585, guid: 3e1003888a676ca44a4f752fdb55c7de,
        type: 3}
      propertyPath: m_AABB.m_Extent.y
      value: 0.9449527
      objectReference: {fileID: 0}
    - target: {fileID: -7988468677212183585, guid: 3e1003888a676ca44a4f752fdb55c7de,
        type: 3}
      propertyPath: m_AABB.m_Extent.z
      value: 0.5714921
      objectReference: {fileID: 0}
    - target: {fileID: -7615161879405210021, guid: 3e1003888a676ca44a4f752fdb55c7de,
        type: 3}
      propertyPath: m_AABB.m_Center.y
      value: -0.13936436
      objectReference: {fileID: 0}
    - target: {fileID: -7615161879405210021, guid: 3e1003888a676ca44a4f752fdb55c7de,
        type: 3}
      propertyPath: m_AABB.m_Center.z
      value: -0.033711106
      objectReference: {fileID: 0}
    - target: {fileID: -7615161879405210021, guid: 3e1003888a676ca44a4f752fdb55c7de,
        type: 3}
      propertyPath: m_AABB.m_Extent.y
      value: 0.92839456
      objectReference: {fileID: 0}
    - target: {fileID: -7615161879405210021, guid: 3e1003888a676ca44a4f752fdb55c7de,
        type: 3}
      propertyPath: m_AABB.m_Extent.z
      value: 0.83699095
      objectReference: {fileID: 0}
    - target: {fileID: -7099290042363681084, guid: 3e1003888a676ca44a4f752fdb55c7de,
        type: 3}
      propertyPath: m_LocalPosition.x
      value: -0.010828947
      objectReference: {fileID: 0}
    - target: {fileID: -7099290042363681084, guid: 3e1003888a676ca44a4f752fdb55c7de,
        type: 3}
      propertyPath: m_LocalPosition.y
      value: 0.010680848
      objectReference: {fileID: 0}
    - target: {fileID: -7099290042363681084, guid: 3e1003888a676ca44a4f752fdb55c7de,
        type: 3}
      propertyPath: m_LocalPosition.z
      value: 0.3315967
      objectReference: {fileID: 0}
    - target: {fileID: -7099290042363681084, guid: 3e1003888a676ca44a4f752fdb55c7de,
        type: 3}
      propertyPath: m_LocalRotation.w
      value: 0.9755426
      objectReference: {fileID: 0}
    - target: {fileID: -7099290042363681084, guid: 3e1003888a676ca44a4f752fdb55c7de,
        type: 3}
      propertyPath: m_LocalRotation.x
      value: 0.13742886
      objectReference: {fileID: 0}
    - target: {fileID: -7099290042363681084, guid: 3e1003888a676ca44a4f752fdb55c7de,
        type: 3}
      propertyPath: m_LocalRotation.y
      value: 0.13022122
      objectReference: {fileID: 0}
    - target: {fileID: -7099290042363681084, guid: 3e1003888a676ca44a4f752fdb55c7de,
        type: 3}
      propertyPath: m_LocalRotation.z
      value: 0.11167996
      objectReference: {fileID: 0}
    - target: {fileID: -6702679425341504398, guid: 3e1003888a676ca44a4f752fdb55c7de,
        type: 3}
      propertyPath: m_LocalPosition.x
      value: 0.014038659
      objectReference: {fileID: 0}
    - target: {fileID: -6702679425341504398, guid: 3e1003888a676ca44a4f752fdb55c7de,
        type: 3}
      propertyPath: m_LocalPosition.y
      value: 0.39096835
      objectReference: {fileID: 0}
    - target: {fileID: -6702679425341504398, guid: 3e1003888a676ca44a4f752fdb55c7de,
        type: 3}
      propertyPath: m_LocalPosition.z
      value: -0.10132668
      objectReference: {fileID: 0}
    - target: {fileID: -6702679425341504398, guid: 3e1003888a676ca44a4f752fdb55c7de,
        type: 3}
      propertyPath: m_LocalRotation.w
      value: 0.87521297
      objectReference: {fileID: 0}
    - target: {fileID: -6702679425341504398, guid: 3e1003888a676ca44a4f752fdb55c7de,
        type: 3}
      propertyPath: m_LocalRotation.x
      value: -0.4315465
      objectReference: {fileID: 0}
    - target: {fileID: -6702679425341504398, guid: 3e1003888a676ca44a4f752fdb55c7de,
        type: 3}
      propertyPath: m_LocalRotation.y
      value: 0.10151013
      objectReference: {fileID: 0}
    - target: {fileID: -6702679425341504398, guid: 3e1003888a676ca44a4f752fdb55c7de,
        type: 3}
      propertyPath: m_LocalRotation.z
      value: -0.19356038
      objectReference: {fileID: 0}
    - target: {fileID: -6065682676782151922, guid: 3e1003888a676ca44a4f752fdb55c7de,
        type: 3}
      propertyPath: m_LocalPosition.x
      value: 0
      objectReference: {fileID: 0}
    - target: {fileID: -6065682676782151922, guid: 3e1003888a676ca44a4f752fdb55c7de,
        type: 3}
      propertyPath: m_LocalPosition.y
      value: 0.10637593
      objectReference: {fileID: 0}
    - target: {fileID: -6065682676782151922, guid: 3e1003888a676ca44a4f752fdb55c7de,
        type: 3}
      propertyPath: m_LocalPosition.z
      value: 0.026311724
      objectReference: {fileID: 0}
    - target: {fileID: -6065682676782151922, guid: 3e1003888a676ca44a4f752fdb55c7de,
        type: 3}
      propertyPath: m_LocalRotation.w
      value: 0.9999588
      objectReference: {fileID: 0}
    - target: {fileID: -6065682676782151922, guid: 3e1003888a676ca44a4f752fdb55c7de,
        type: 3}
      propertyPath: m_LocalRotation.x
      value: 0.008669599
      objectReference: {fileID: 0}
    - target: {fileID: -6065682676782151922, guid: 3e1003888a676ca44a4f752fdb55c7de,
        type: 3}
      propertyPath: m_LocalRotation.y
      value: 0.0026712862
      objectReference: {fileID: 0}
    - target: {fileID: -6065682676782151922, guid: 3e1003888a676ca44a4f752fdb55c7de,
        type: 3}
      propertyPath: m_LocalRotation.z
      value: -0.00030140576
      objectReference: {fileID: 0}
    - target: {fileID: -5842923972990545921, guid: 3e1003888a676ca44a4f752fdb55c7de,
        type: 3}
      propertyPath: m_LocalPosition.x
      value: -0.018205082
      objectReference: {fileID: 0}
    - target: {fileID: -5842923972990545921, guid: 3e1003888a676ca44a4f752fdb55c7de,
        type: 3}
      propertyPath: m_LocalPosition.y
      value: 0.20384422
      objectReference: {fileID: 0}
    - target: {fileID: -5842923972990545921, guid: 3e1003888a676ca44a4f752fdb55c7de,
        type: 3}
      propertyPath: m_LocalPosition.z
      value: -0.06348353
      objectReference: {fileID: 0}
    - target: {fileID: -5842923972990545921, guid: 3e1003888a676ca44a4f752fdb55c7de,
        type: 3}
      propertyPath: m_LocalRotation.w
      value: 0.9428374
      objectReference: {fileID: 0}
    - target: {fileID: -5842923972990545921, guid: 3e1003888a676ca44a4f752fdb55c7de,
        type: 3}
      propertyPath: m_LocalRotation.x
      value: 0.31944337
      objectReference: {fileID: 0}
    - target: {fileID: -5842923972990545921, guid: 3e1003888a676ca44a4f752fdb55c7de,
        type: 3}
      propertyPath: m_LocalRotation.y
      value: 0.09083189
      objectReference: {fileID: 0}
    - target: {fileID: -5842923972990545921, guid: 3e1003888a676ca44a4f752fdb55c7de,
        type: 3}
      propertyPath: m_LocalRotation.z
      value: -0.027624318
      objectReference: {fileID: 0}
    - target: {fileID: -5625100138404393899, guid: 3e1003888a676ca44a4f752fdb55c7de,
        type: 3}
      propertyPath: m_AABB.m_Center.x
      value: 0.1924443
      objectReference: {fileID: 0}
    - target: {fileID: -5625100138404393899, guid: 3e1003888a676ca44a4f752fdb55c7de,
        type: 3}
      propertyPath: m_AABB.m_Center.y
      value: -0.5779425
      objectReference: {fileID: 0}
    - target: {fileID: -5625100138404393899, guid: 3e1003888a676ca44a4f752fdb55c7de,
        type: 3}
      propertyPath: m_AABB.m_Center.z
      value: -0.10563362
      objectReference: {fileID: 0}
    - target: {fileID: -5625100138404393899, guid: 3e1003888a676ca44a4f752fdb55c7de,
        type: 3}
      propertyPath: m_AABB.m_Extent.x
      value: 0.46054813
      objectReference: {fileID: 0}
    - target: {fileID: -5625100138404393899, guid: 3e1003888a676ca44a4f752fdb55c7de,
        type: 3}
      propertyPath: m_AABB.m_Extent.y
      value: 0.9634361
      objectReference: {fileID: 0}
    - target: {fileID: -5625100138404393899, guid: 3e1003888a676ca44a4f752fdb55c7de,
        type: 3}
      propertyPath: m_AABB.m_Extent.z
      value: 0.7351868
      objectReference: {fileID: 0}
    - target: {fileID: -5011285632634993761, guid: 3e1003888a676ca44a4f752fdb55c7de,
        type: 3}
      propertyPath: m_LocalPosition.x
      value: 6.8212103e-12
      objectReference: {fileID: 0}
    - target: {fileID: -5011285632634993761, guid: 3e1003888a676ca44a4f752fdb55c7de,
        type: 3}
      propertyPath: m_LocalPosition.z
      value: 0.0010400416
      objectReference: {fileID: 0}
    - target: {fileID: -5011285632634993761, guid: 3e1003888a676ca44a4f752fdb55c7de,
        type: 3}
      propertyPath: m_LocalRotation.w
      value: 0.99740916
      objectReference: {fileID: 0}
    - target: {fileID: -5011285632634993761, guid: 3e1003888a676ca44a4f752fdb55c7de,
        type: 3}
      propertyPath: m_LocalRotation.x
      value: 0.071886994
      objectReference: {fileID: 0}
    - target: {fileID: -5011285632634993761, guid: 3e1003888a676ca44a4f752fdb55c7de,
        type: 3}
      propertyPath: m_LocalRotation.y
      value: 0.0026850991
      objectReference: {fileID: 0}
    - target: {fileID: -5011285632634993761, guid: 3e1003888a676ca44a4f752fdb55c7de,
        type: 3}
      propertyPath: m_LocalRotation.z
      value: -0.00013194974
      objectReference: {fileID: 0}
    - target: {fileID: -1841962968684231107, guid: 3e1003888a676ca44a4f752fdb55c7de,
        type: 3}
      propertyPath: m_LocalPosition.x
      value: 0.011546909
      objectReference: {fileID: 0}
    - target: {fileID: -1841962968684231107, guid: 3e1003888a676ca44a4f752fdb55c7de,
        type: 3}
      propertyPath: m_LocalPosition.y
      value: 0.006471831
      objectReference: {fileID: 0}
    - target: {fileID: -1841962968684231107, guid: 3e1003888a676ca44a4f752fdb55c7de,
        type: 3}
      propertyPath: m_LocalPosition.z
      value: 0.5223901
      objectReference: {fileID: 0}
    - target: {fileID: -1841962968684231107, guid: 3e1003888a676ca44a4f752fdb55c7de,
        type: 3}
      propertyPath: m_LocalRotation.w
      value: 0.61034894
      objectReference: {fileID: 0}
    - target: {fileID: -1841962968684231107, guid: 3e1003888a676ca44a4f752fdb55c7de,
        type: 3}
      propertyPath: m_LocalRotation.x
      value: 0.775519
      objectReference: {fileID: 0}
    - target: {fileID: -1841962968684231107, guid: 3e1003888a676ca44a4f752fdb55c7de,
        type: 3}
      propertyPath: m_LocalRotation.y
      value: -0.11341552
      objectReference: {fileID: 0}
    - target: {fileID: -1841962968684231107, guid: 3e1003888a676ca44a4f752fdb55c7de,
        type: 3}
      propertyPath: m_LocalRotation.z
      value: -0.11480986
      objectReference: {fileID: 0}
    - target: {fileID: -1618327259405067152, guid: 3e1003888a676ca44a4f752fdb55c7de,
        type: 3}
      propertyPath: m_AABB.m_Center.y
      value: -0.06069064
      objectReference: {fileID: 0}
    - target: {fileID: -1618327259405067152, guid: 3e1003888a676ca44a4f752fdb55c7de,
        type: 3}
      propertyPath: m_AABB.m_Center.z
      value: 0.2895707
      objectReference: {fileID: 0}
    - target: {fileID: -1618327259405067152, guid: 3e1003888a676ca44a4f752fdb55c7de,
        type: 3}
      propertyPath: m_AABB.m_Extent.y
      value: 1.0050931
      objectReference: {fileID: 0}
    - target: {fileID: -1618327259405067152, guid: 3e1003888a676ca44a4f752fdb55c7de,
        type: 3}
      propertyPath: m_AABB.m_Extent.z
      value: 0.8837935
      objectReference: {fileID: 0}
    - target: {fileID: -1206874426333947015, guid: 3e1003888a676ca44a4f752fdb55c7de,
        type: 3}
      propertyPath: m_AABB.m_Center.x
      value: 0.004952371
      objectReference: {fileID: 0}
    - target: {fileID: -1206874426333947015, guid: 3e1003888a676ca44a4f752fdb55c7de,
        type: 3}
      propertyPath: m_AABB.m_Center.y
      value: 0.2591042
      objectReference: {fileID: 0}
    - target: {fileID: -1206874426333947015, guid: 3e1003888a676ca44a4f752fdb55c7de,
        type: 3}
      propertyPath: m_AABB.m_Center.z
      value: 0.12718141
      objectReference: {fileID: 0}
    - target: {fileID: -1206874426333947015, guid: 3e1003888a676ca44a4f752fdb55c7de,
        type: 3}
      propertyPath: m_AABB.m_Extent.x
      value: 0.6274908
      objectReference: {fileID: 0}
    - target: {fileID: -1206874426333947015, guid: 3e1003888a676ca44a4f752fdb55c7de,
        type: 3}
      propertyPath: m_AABB.m_Extent.y
      value: 0.56583345
      objectReference: {fileID: 0}
    - target: {fileID: -1206874426333947015, guid: 3e1003888a676ca44a4f752fdb55c7de,
        type: 3}
      propertyPath: m_AABB.m_Extent.z
      value: 0.52439654
      objectReference: {fileID: 0}
    - target: {fileID: -1105630903287680254, guid: 3e1003888a676ca44a4f752fdb55c7de,
        type: 3}
      propertyPath: m_LocalPosition.x
      value: -0.0056233406
      objectReference: {fileID: 0}
    - target: {fileID: -1105630903287680254, guid: 3e1003888a676ca44a4f752fdb55c7de,
        type: 3}
      propertyPath: m_LocalPosition.y
      value: 0.7572691
      objectReference: {fileID: 0}
    - target: {fileID: -1105630903287680254, guid: 3e1003888a676ca44a4f752fdb55c7de,
        type: 3}
      propertyPath: m_LocalPosition.z
      value: -0.16373837
      objectReference: {fileID: 0}
    - target: {fileID: -1105630903287680254, guid: 3e1003888a676ca44a4f752fdb55c7de,
        type: 3}
      propertyPath: m_LocalRotation.w
      value: 0.9999523
      objectReference: {fileID: 0}
    - target: {fileID: -1105630903287680254, guid: 3e1003888a676ca44a4f752fdb55c7de,
        type: 3}
      propertyPath: m_LocalRotation.x
      value: -0.0022006212
      objectReference: {fileID: 0}
    - target: {fileID: -1105630903287680254, guid: 3e1003888a676ca44a4f752fdb55c7de,
        type: 3}
      propertyPath: m_LocalRotation.y
      value: 0.0000017600437
      objectReference: {fileID: 0}
    - target: {fileID: -1105630903287680254, guid: 3e1003888a676ca44a4f752fdb55c7de,
        type: 3}
      propertyPath: m_LocalRotation.z
      value: 0.009520627
      objectReference: {fileID: 0}
    - target: {fileID: 19079712761036904, guid: 3e1003888a676ca44a4f752fdb55c7de,
        type: 3}
      propertyPath: m_LocalPosition.y
      value: 0.231998
      objectReference: {fileID: 0}
    - target: {fileID: 19079712761036904, guid: 3e1003888a676ca44a4f752fdb55c7de,
        type: 3}
      propertyPath: m_LocalPosition.z
      value: 0.011043041
      objectReference: {fileID: 0}
    - target: {fileID: 19079712761036904, guid: 3e1003888a676ca44a4f752fdb55c7de,
        type: 3}
      propertyPath: m_LocalRotation.w
      value: 0.57835126
      objectReference: {fileID: 0}
    - target: {fileID: 19079712761036904, guid: 3e1003888a676ca44a4f752fdb55c7de,
        type: 3}
      propertyPath: m_LocalRotation.x
      value: 0.57697713
      objectReference: {fileID: 0}
    - target: {fileID: 19079712761036904, guid: 3e1003888a676ca44a4f752fdb55c7de,
        type: 3}
      propertyPath: m_LocalRotation.y
      value: 0.44949043
      objectReference: {fileID: 0}
    - target: {fileID: 19079712761036904, guid: 3e1003888a676ca44a4f752fdb55c7de,
        type: 3}
      propertyPath: m_LocalRotation.z
      value: -0.3613386
      objectReference: {fileID: 0}
    - target: {fileID: 136296584740529628, guid: 3e1003888a676ca44a4f752fdb55c7de,
        type: 3}
      propertyPath: m_LocalPosition.x
      value: -0.020015547
      objectReference: {fileID: 0}
    - target: {fileID: 136296584740529628, guid: 3e1003888a676ca44a4f752fdb55c7de,
        type: 3}
      propertyPath: m_LocalPosition.y
      value: 0.38545883
      objectReference: {fileID: 0}
    - target: {fileID: 136296584740529628, guid: 3e1003888a676ca44a4f752fdb55c7de,
        type: 3}
      propertyPath: m_LocalPosition.z
      value: 0.08170498
      objectReference: {fileID: 0}
    - target: {fileID: 136296584740529628, guid: 3e1003888a676ca44a4f752fdb55c7de,
        type: 3}
      propertyPath: m_LocalRotation.w
      value: 0.8732035
      objectReference: {fileID: 0}
    - target: {fileID: 136296584740529628, guid: 3e1003888a676ca44a4f752fdb55c7de,
        type: 3}
      propertyPath: m_LocalRotation.x
      value: -0.48637527
      objectReference: {fileID: 0}
    - target: {fileID: 136296584740529628, guid: 3e1003888a676ca44a4f752fdb55c7de,
        type: 3}
      propertyPath: m_LocalRotation.y
      value: 0.011870469
      objectReference: {fileID: 0}
    - target: {fileID: 136296584740529628, guid: 3e1003888a676ca44a4f752fdb55c7de,
        type: 3}
      propertyPath: m_LocalRotation.z
      value: -0.0285268
      objectReference: {fileID: 0}
    - target: {fileID: 919132149155446097, guid: 3e1003888a676ca44a4f752fdb55c7de,
        type: 3}
      propertyPath: m_Name
      value: BigRobot
      objectReference: {fileID: 0}
    - target: {fileID: 1596682526304872296, guid: 3e1003888a676ca44a4f752fdb55c7de,
        type: 3}
      propertyPath: m_LocalPosition.x
      value: 0.022032596
      objectReference: {fileID: 0}
    - target: {fileID: 1596682526304872296, guid: 3e1003888a676ca44a4f752fdb55c7de,
        type: 3}
      propertyPath: m_LocalPosition.y
      value: 0.38507262
      objectReference: {fileID: 0}
    - target: {fileID: 1596682526304872296, guid: 3e1003888a676ca44a4f752fdb55c7de,
        type: 3}
      propertyPath: m_LocalPosition.z
      value: 0.081309766
      objectReference: {fileID: 0}
    - target: {fileID: 1596682526304872296, guid: 3e1003888a676ca44a4f752fdb55c7de,
        type: 3}
      propertyPath: m_LocalRotation.w
      value: 0.86551696
      objectReference: {fileID: 0}
    - target: {fileID: 1596682526304872296, guid: 3e1003888a676ca44a4f752fdb55c7de,
        type: 3}
      propertyPath: m_LocalRotation.x
      value: -0.49674702
      objectReference: {fileID: 0}
    - target: {fileID: 1596682526304872296, guid: 3e1003888a676ca44a4f752fdb55c7de,
        type: 3}
      propertyPath: m_LocalRotation.y
      value: -0.042545304
      objectReference: {fileID: 0}
    - target: {fileID: 1596682526304872296, guid: 3e1003888a676ca44a4f752fdb55c7de,
        type: 3}
      propertyPath: m_LocalRotation.z
      value: 0.048091657
      objectReference: {fileID: 0}
    - target: {fileID: 1633573652933273972, guid: 3e1003888a676ca44a4f752fdb55c7de,
        type: 3}
      propertyPath: m_LocalPosition.x
      value: 0.30603033
      objectReference: {fileID: 0}
    - target: {fileID: 1633573652933273972, guid: 3e1003888a676ca44a4f752fdb55c7de,
        type: 3}
      propertyPath: m_LocalPosition.y
      value: 0.0062058885
      objectReference: {fileID: 0}
    - target: {fileID: 1633573652933273972, guid: 3e1003888a676ca44a4f752fdb55c7de,
        type: 3}
      propertyPath: m_LocalPosition.z
      value: 0.39724287
      objectReference: {fileID: 0}
    - target: {fileID: 1633573652933273972, guid: 3e1003888a676ca44a4f752fdb55c7de,
        type: 3}
      propertyPath: m_LocalRotation.w
      value: 0.60514337
      objectReference: {fileID: 0}
    - target: {fileID: 1633573652933273972, guid: 3e1003888a676ca44a4f752fdb55c7de,
        type: 3}
      propertyPath: m_LocalRotation.x
      value: 0.6042436
      objectReference: {fileID: 0}
    - target: {fileID: 1633573652933273972, guid: 3e1003888a676ca44a4f752fdb55c7de,
        type: 3}
      propertyPath: m_LocalRotation.y
      value: 0.40825075
      objectReference: {fileID: 0}
    - target: {fileID: 1633573652933273972, guid: 3e1003888a676ca44a4f752fdb55c7de,
        type: 3}
      propertyPath: m_LocalRotation.z
      value: -0.31940964
      objectReference: {fileID: 0}
    - target: {fileID: 2236237030686087061, guid: 3e1003888a676ca44a4f752fdb55c7de,
        type: 3}
      propertyPath: m_AABB.m_Center.x
      value: 0.012812555
      objectReference: {fileID: 0}
    - target: {fileID: 2236237030686087061, guid: 3e1003888a676ca44a4f752fdb55c7de,
        type: 3}
      propertyPath: m_AABB.m_Center.y
      value: 0.5437819
      objectReference: {fileID: 0}
    - target: {fileID: 2236237030686087061, guid: 3e1003888a676ca44a4f752fdb55c7de,
        type: 3}
      propertyPath: m_AABB.m_Center.z
      value: 0.19248782
      objectReference: {fileID: 0}
    - target: {fileID: 2236237030686087061, guid: 3e1003888a676ca44a4f752fdb55c7de,
        type: 3}
      propertyPath: m_AABB.m_Extent.x
      value: 0.35687023
      objectReference: {fileID: 0}
    - target: {fileID: 2236237030686087061, guid: 3e1003888a676ca44a4f752fdb55c7de,
        type: 3}
      propertyPath: m_AABB.m_Extent.y
      value: 0.47352886
      objectReference: {fileID: 0}
    - target: {fileID: 2236237030686087061, guid: 3e1003888a676ca44a4f752fdb55c7de,
        type: 3}
      propertyPath: m_AABB.m_Extent.z
      value: 0.57831633
      objectReference: {fileID: 0}
    - target: {fileID: 3136669964457869768, guid: 3e1003888a676ca44a4f752fdb55c7de,
        type: 3}
      propertyPath: m_AABB.m_Center.x
      value: 0.066868454
      objectReference: {fileID: 0}
    - target: {fileID: 3136669964457869768, guid: 3e1003888a676ca44a4f752fdb55c7de,
        type: 3}
      propertyPath: m_AABB.m_Center.y
      value: 0.26441658
      objectReference: {fileID: 0}
    - target: {fileID: 3136669964457869768, guid: 3e1003888a676ca44a4f752fdb55c7de,
        type: 3}
      propertyPath: m_AABB.m_Center.z
      value: -0.34071803
      objectReference: {fileID: 0}
    - target: {fileID: 3136669964457869768, guid: 3e1003888a676ca44a4f752fdb55c7de,
        type: 3}
      propertyPath: m_AABB.m_Extent.x
      value: 0.7044959
      objectReference: {fileID: 0}
    - target: {fileID: 3136669964457869768, guid: 3e1003888a676ca44a4f752fdb55c7de,
        type: 3}
      propertyPath: m_AABB.m_Extent.y
      value: 0.8422611
      objectReference: {fileID: 0}
    - target: {fileID: 3136669964457869768, guid: 3e1003888a676ca44a4f752fdb55c7de,
        type: 3}
      propertyPath: m_AABB.m_Extent.z
      value: 0.5401968
      objectReference: {fileID: 0}
    - target: {fileID: 3535382178221449299, guid: 3e1003888a676ca44a4f752fdb55c7de,
        type: 3}
      propertyPath: m_LocalPosition.x
      value: -1.796252e-11
      objectReference: {fileID: 0}
    - target: {fileID: 3535382178221449299, guid: 3e1003888a676ca44a4f752fdb55c7de,
        type: 3}
      propertyPath: m_LocalPosition.y
      value: 0.0799629
      objectReference: {fileID: 0}
    - target: {fileID: 3535382178221449299, guid: 3e1003888a676ca44a4f752fdb55c7de,
        type: 3}
      propertyPath: m_LocalPosition.z
      value: -0.029906578
      objectReference: {fileID: 0}
    - target: {fileID: 3535382178221449299, guid: 3e1003888a676ca44a4f752fdb55c7de,
        type: 3}
      propertyPath: m_LocalRotation.w
      value: 0.9939281
      objectReference: {fileID: 0}
    - target: {fileID: 3535382178221449299, guid: 3e1003888a676ca44a4f752fdb55c7de,
        type: 3}
      propertyPath: m_LocalRotation.x
      value: 0.10968716
      objectReference: {fileID: 0}
    - target: {fileID: 3535382178221449299, guid: 3e1003888a676ca44a4f752fdb55c7de,
        type: 3}
      propertyPath: m_LocalRotation.y
      value: -0.0012000498
      objectReference: {fileID: 0}
    - target: {fileID: 3535382178221449299, guid: 3e1003888a676ca44a4f752fdb55c7de,
        type: 3}
      propertyPath: m_LocalRotation.z
      value: -0.008622033
      objectReference: {fileID: 0}
    - target: {fileID: 3920968081635764010, guid: 3e1003888a676ca44a4f752fdb55c7de,
        type: 3}
      propertyPath: m_LocalPosition.y
      value: 0.013418214
      objectReference: {fileID: 0}
    - target: {fileID: 3920968081635764010, guid: 3e1003888a676ca44a4f752fdb55c7de,
        type: 3}
      propertyPath: m_LocalRotation.w
      value: -0.1922837
      objectReference: {fileID: 0}
    - target: {fileID: 3920968081635764010, guid: 3e1003888a676ca44a4f752fdb55c7de,
        type: 3}
      propertyPath: m_LocalRotation.x
      value: 0.10365466
      objectReference: {fileID: 0}
    - target: {fileID: 3920968081635764010, guid: 3e1003888a676ca44a4f752fdb55c7de,
        type: 3}
      propertyPath: m_LocalRotation.y
      value: 0.3819474
      objectReference: {fileID: 0}
    - target: {fileID: 3920968081635764010, guid: 3e1003888a676ca44a4f752fdb55c7de,
        type: 3}
      propertyPath: m_LocalRotation.z
      value: 0.89799714
      objectReference: {fileID: 0}
    - target: {fileID: 4236890074915506079, guid: 3e1003888a676ca44a4f752fdb55c7de,
        type: 3}
      propertyPath: m_LocalPosition.y
      value: 0.2319955
      objectReference: {fileID: 0}
    - target: {fileID: 4236890074915506079, guid: 3e1003888a676ca44a4f752fdb55c7de,
        type: 3}
      propertyPath: m_LocalPosition.z
      value: 0.0110615445
      objectReference: {fileID: 0}
    - target: {fileID: 4236890074915506079, guid: 3e1003888a676ca44a4f752fdb55c7de,
        type: 3}
      propertyPath: m_LocalRotation.w
      value: 0.5868996
      objectReference: {fileID: 0}
    - target: {fileID: 4236890074915506079, guid: 3e1003888a676ca44a4f752fdb55c7de,
        type: 3}
      propertyPath: m_LocalRotation.x
      value: 0.5994467
      objectReference: {fileID: 0}
    - target: {fileID: 4236890074915506079, guid: 3e1003888a676ca44a4f752fdb55c7de,
        type: 3}
      propertyPath: m_LocalRotation.y
      value: -0.43363714
      objectReference: {fileID: 0}
    - target: {fileID: 4236890074915506079, guid: 3e1003888a676ca44a4f752fdb55c7de,
        type: 3}
      propertyPath: m_LocalRotation.z
      value: 0.32889417
      objectReference: {fileID: 0}
    - target: {fileID: 4287511310788349613, guid: 3e1003888a676ca44a4f752fdb55c7de,
        type: 3}
      propertyPath: m_LocalPosition.y
      value: 0.4798287
      objectReference: {fileID: 0}
    - target: {fileID: 4287511310788349613, guid: 3e1003888a676ca44a4f752fdb55c7de,
        type: 3}
      propertyPath: m_LocalPosition.z
      value: -0.11330666
      objectReference: {fileID: 0}
    - target: {fileID: 4287511310788349613, guid: 3e1003888a676ca44a4f752fdb55c7de,
        type: 3}
      propertyPath: m_LocalRotation.w
      value: 0.8376321
      objectReference: {fileID: 0}
    - target: {fileID: 4287511310788349613, guid: 3e1003888a676ca44a4f752fdb55c7de,
        type: 3}
      propertyPath: m_LocalRotation.x
      value: 0.5417661
      objectReference: {fileID: 0}
    - target: {fileID: 4287511310788349613, guid: 3e1003888a676ca44a4f752fdb55c7de,
        type: 3}
      propertyPath: m_LocalRotation.y
      value: 0.008331614
      objectReference: {fileID: 0}
    - target: {fileID: 4287511310788349613, guid: 3e1003888a676ca44a4f752fdb55c7de,
        type: 3}
      propertyPath: m_LocalRotation.z
      value: -0.06922763
      objectReference: {fileID: 0}
    - target: {fileID: 4439214743951002752, guid: 3e1003888a676ca44a4f752fdb55c7de,
        type: 3}
      propertyPath: m_LocalPosition.x
      value: -5.320544e-11
      objectReference: {fileID: 0}
    - target: {fileID: 4439214743951002752, guid: 3e1003888a676ca44a4f752fdb55c7de,
        type: 3}
      propertyPath: m_LocalPosition.y
      value: 0.08159431
      objectReference: {fileID: 0}
    - target: {fileID: 4439214743951002752, guid: 3e1003888a676ca44a4f752fdb55c7de,
        type: 3}
      propertyPath: m_LocalPosition.z
      value: 0.035655078
      objectReference: {fileID: 0}
    - target: {fileID: 4439214743951002752, guid: 3e1003888a676ca44a4f752fdb55c7de,
        type: 3}
      propertyPath: m_LocalRotation.w
      value: 0.9845817
      objectReference: {fileID: 0}
    - target: {fileID: 4439214743951002752, guid: 3e1003888a676ca44a4f752fdb55c7de,
        type: 3}
      propertyPath: m_LocalRotation.x
      value: 0.17469999
      objectReference: {fileID: 0}
    - target: {fileID: 4439214743951002752, guid: 3e1003888a676ca44a4f752fdb55c7de,
        type: 3}
      propertyPath: m_LocalRotation.y
      value: -0.0015819962
      objectReference: {fileID: 0}
    - target: {fileID: 4439214743951002752, guid: 3e1003888a676ca44a4f752fdb55c7de,
        type: 3}
      propertyPath: m_LocalRotation.z
      value: -0.008731541
      objectReference: {fileID: 0}
    - target: {fileID: 5866666021909216657, guid: 3e1003888a676ca44a4f752fdb55c7de,
        type: 3}
      propertyPath: m_Enabled
      value: 0
      objectReference: {fileID: 0}
    - target: {fileID: 5866666021909216657, guid: 3e1003888a676ca44a4f752fdb55c7de,
        type: 3}
      propertyPath: m_Controller
      value: 
      objectReference: {fileID: 22100000, guid: 4de612b0c3c3dae448006db777770721,
        type: 2}
    - target: {fileID: 6206289774691558161, guid: 3e1003888a676ca44a4f752fdb55c7de,
        type: 3}
      propertyPath: m_LocalPosition.x
      value: -0.015196351
      objectReference: {fileID: 0}
    - target: {fileID: 6206289774691558161, guid: 3e1003888a676ca44a4f752fdb55c7de,
        type: 3}
      propertyPath: m_LocalPosition.y
      value: 0.42511925
      objectReference: {fileID: 0}
    - target: {fileID: 6206289774691558161, guid: 3e1003888a676ca44a4f752fdb55c7de,
        type: 3}
      propertyPath: m_LocalPosition.z
      value: -0.10908272
      objectReference: {fileID: 0}
    - target: {fileID: 6206289774691558161, guid: 3e1003888a676ca44a4f752fdb55c7de,
        type: 3}
      propertyPath: m_LocalRotation.w
      value: 0.919305
      objectReference: {fileID: 0}
    - target: {fileID: 6206289774691558161, guid: 3e1003888a676ca44a4f752fdb55c7de,
        type: 3}
      propertyPath: m_LocalRotation.x
      value: -0.36919412
      objectReference: {fileID: 0}
    - target: {fileID: 6206289774691558161, guid: 3e1003888a676ca44a4f752fdb55c7de,
        type: 3}
      propertyPath: m_LocalRotation.y
      value: -0.0750636
      objectReference: {fileID: 0}
    - target: {fileID: 6206289774691558161, guid: 3e1003888a676ca44a4f752fdb55c7de,
        type: 3}
      propertyPath: m_LocalRotation.z
      value: 0.113751456
      objectReference: {fileID: 0}
    - target: {fileID: 6799540436343147439, guid: 3e1003888a676ca44a4f752fdb55c7de,
        type: 3}
      propertyPath: m_LocalPosition.y
      value: 0.08088654
      objectReference: {fileID: 0}
    - target: {fileID: 6799540436343147439, guid: 3e1003888a676ca44a4f752fdb55c7de,
        type: 3}
      propertyPath: m_LocalPosition.z
      value: 0.019440822
      objectReference: {fileID: 0}
    - target: {fileID: 6799540436343147439, guid: 3e1003888a676ca44a4f752fdb55c7de,
        type: 3}
      propertyPath: m_LocalRotation.w
      value: 0.9966748
      objectReference: {fileID: 0}
    - target: {fileID: 6799540436343147439, guid: 3e1003888a676ca44a4f752fdb55c7de,
        type: 3}
      propertyPath: m_LocalRotation.x
      value: 0.081383996
      objectReference: {fileID: 0}
    - target: {fileID: 6799540436343147439, guid: 3e1003888a676ca44a4f752fdb55c7de,
        type: 3}
      propertyPath: m_LocalRotation.y
      value: -0.0015142853
      objectReference: {fileID: 0}
    - target: {fileID: 6799540436343147439, guid: 3e1003888a676ca44a4f752fdb55c7de,
        type: 3}
      propertyPath: m_LocalRotation.z
      value: -0.0037076015
      objectReference: {fileID: 0}
    - target: {fileID: 7393178957156508670, guid: 3e1003888a676ca44a4f752fdb55c7de,
        type: 3}
      propertyPath: m_LocalPosition.x
      value: 0.01812842
      objectReference: {fileID: 0}
    - target: {fileID: 7393178957156508670, guid: 3e1003888a676ca44a4f752fdb55c7de,
        type: 3}
      propertyPath: m_LocalPosition.y
      value: 0.20555927
      objectReference: {fileID: 0}
    - target: {fileID: 7393178957156508670, guid: 3e1003888a676ca44a4f752fdb55c7de,
        type: 3}
      propertyPath: m_LocalPosition.z
      value: -0.06369913
      objectReference: {fileID: 0}
    - target: {fileID: 7393178957156508670, guid: 3e1003888a676ca44a4f752fdb55c7de,
        type: 3}
      propertyPath: m_LocalRotation.w
      value: 0.9384092
      objectReference: {fileID: 0}
    - target: {fileID: 7393178957156508670, guid: 3e1003888a676ca44a4f752fdb55c7de,
        type: 3}
      propertyPath: m_LocalRotation.x
      value: 0.33157676
      objectReference: {fileID: 0}
    - target: {fileID: 7393178957156508670, guid: 3e1003888a676ca44a4f752fdb55c7de,
        type: 3}
      propertyPath: m_LocalRotation.y
      value: -0.09309591
      objectReference: {fileID: 0}
    - target: {fileID: 7393178957156508670, guid: 3e1003888a676ca44a4f752fdb55c7de,
        type: 3}
      propertyPath: m_LocalRotation.z
      value: 0.027897948
      objectReference: {fileID: 0}
    - target: {fileID: 7635881833368628813, guid: 3e1003888a676ca44a4f752fdb55c7de,
        type: 3}
      propertyPath: m_LocalPosition.x
      value: 0.027862353
      objectReference: {fileID: 0}
    - target: {fileID: 7635881833368628813, guid: 3e1003888a676ca44a4f752fdb55c7de,
        type: 3}
      propertyPath: m_LocalPosition.y
      value: 0.48000994
      objectReference: {fileID: 0}
    - target: {fileID: 7635881833368628813, guid: 3e1003888a676ca44a4f752fdb55c7de,
        type: 3}
      propertyPath: m_LocalPosition.z
      value: -0.11346743
      objectReference: {fileID: 0}
    - target: {fileID: 7635881833368628813, guid: 3e1003888a676ca44a4f752fdb55c7de,
        type: 3}
      propertyPath: m_LocalRotation.w
      value: 0.8375365
      objectReference: {fileID: 0}
    - target: {fileID: 7635881833368628813, guid: 3e1003888a676ca44a4f752fdb55c7de,
        type: 3}
      propertyPath: m_LocalRotation.x
      value: 0.5403419
      objectReference: {fileID: 0}
    - target: {fileID: 7635881833368628813, guid: 3e1003888a676ca44a4f752fdb55c7de,
        type: 3}
      propertyPath: m_LocalRotation.y
      value: -0.0432012
      objectReference: {fileID: 0}
    - target: {fileID: 7635881833368628813, guid: 3e1003888a676ca44a4f752fdb55c7de,
        type: 3}
      propertyPath: m_LocalRotation.z
      value: 0.06853324
      objectReference: {fileID: 0}
    - target: {fileID: 7976297688186158311, guid: 3e1003888a676ca44a4f752fdb55c7de,
        type: 3}
      propertyPath: m_LocalPosition.y
      value: 0.010683804
      objectReference: {fileID: 0}
    - target: {fileID: 7976297688186158311, guid: 3e1003888a676ca44a4f752fdb55c7de,
        type: 3}
      propertyPath: m_LocalPosition.z
      value: 0.35708216
      objectReference: {fileID: 0}
    - target: {fileID: 7976297688186158311, guid: 3e1003888a676ca44a4f752fdb55c7de,
        type: 3}
      propertyPath: m_LocalRotation.w
      value: 0.8141221
      objectReference: {fileID: 0}
    - target: {fileID: 7976297688186158311, guid: 3e1003888a676ca44a4f752fdb55c7de,
        type: 3}
      propertyPath: m_LocalRotation.x
      value: 0.045990806
      objectReference: {fileID: 0}
    - target: {fileID: 7976297688186158311, guid: 3e1003888a676ca44a4f752fdb55c7de,
        type: 3}
      propertyPath: m_LocalRotation.y
      value: -0.55355996
      objectReference: {fileID: 0}
    - target: {fileID: 7976297688186158311, guid: 3e1003888a676ca44a4f752fdb55c7de,
        type: 3}
      propertyPath: m_LocalRotation.z
      value: -0.16929702
      objectReference: {fileID: 0}
    - target: {fileID: 8820834471703272299, guid: 3e1003888a676ca44a4f752fdb55c7de,
        type: 3}
      propertyPath: m_LocalPosition.y
      value: 0.0133901285
      objectReference: {fileID: 0}
    - target: {fileID: 8820834471703272299, guid: 3e1003888a676ca44a4f752fdb55c7de,
        type: 3}
      propertyPath: m_LocalRotation.w
      value: 0.2038464
      objectReference: {fileID: 0}
    - target: {fileID: 8820834471703272299, guid: 3e1003888a676ca44a4f752fdb55c7de,
        type: 3}
      propertyPath: m_LocalRotation.x
      value: -0.094967484
      objectReference: {fileID: 0}
    - target: {fileID: 8820834471703272299, guid: 3e1003888a676ca44a4f752fdb55c7de,
        type: 3}
      propertyPath: m_LocalRotation.y
      value: 0.4023508
      objectReference: {fileID: 0}
    - target: {fileID: 8820834471703272299, guid: 3e1003888a676ca44a4f752fdb55c7de,
        type: 3}
      propertyPath: m_LocalRotation.z
      value: 0.88743544
      objectReference: {fileID: 0}
    m_RemovedComponents: []
  m_SourcePrefab: {fileID: 100100000, guid: 3e1003888a676ca44a4f752fdb55c7de, type: 3}
--- !u!1001 &6407270293546641534
PrefabInstance:
  m_ObjectHideFlags: 0
  serializedVersion: 2
  m_Modification:
    m_TransformParent: {fileID: 0}
    m_Modifications:
    - target: {fileID: 623150813728196135, guid: 57a7fcc8445f63542ad17c6297f481b9,
        type: 3}
      propertyPath: m_RootOrder
      value: 3
      objectReference: {fileID: 0}
    - target: {fileID: 623150814112471399, guid: 57a7fcc8445f63542ad17c6297f481b9,
        type: 3}
      propertyPath: m_RootOrder
      value: 4
      objectReference: {fileID: 0}
    - target: {fileID: 623150814890543157, guid: 57a7fcc8445f63542ad17c6297f481b9,
        type: 3}
      propertyPath: m_RootOrder
      value: 2
      objectReference: {fileID: 0}
    - target: {fileID: 623150814890543157, guid: 57a7fcc8445f63542ad17c6297f481b9,
        type: 3}
      propertyPath: m_LocalPosition.x
      value: -0.002
      objectReference: {fileID: 0}
    - target: {fileID: 623150814890543157, guid: 57a7fcc8445f63542ad17c6297f481b9,
        type: 3}
      propertyPath: m_LocalPosition.y
      value: 1.622
      objectReference: {fileID: 0}
    - target: {fileID: 623150814890543157, guid: 57a7fcc8445f63542ad17c6297f481b9,
        type: 3}
      propertyPath: m_LocalPosition.z
      value: 4.06
      objectReference: {fileID: 0}
    - target: {fileID: 623150814890543157, guid: 57a7fcc8445f63542ad17c6297f481b9,
        type: 3}
      propertyPath: m_LocalRotation.w
      value: 0
      objectReference: {fileID: 0}
    - target: {fileID: 623150814890543157, guid: 57a7fcc8445f63542ad17c6297f481b9,
        type: 3}
      propertyPath: m_LocalRotation.x
      value: 0
      objectReference: {fileID: 0}
    - target: {fileID: 623150814890543157, guid: 57a7fcc8445f63542ad17c6297f481b9,
        type: 3}
      propertyPath: m_LocalRotation.y
      value: 1
      objectReference: {fileID: 0}
    - target: {fileID: 623150814890543157, guid: 57a7fcc8445f63542ad17c6297f481b9,
        type: 3}
      propertyPath: m_LocalRotation.z
      value: 0
      objectReference: {fileID: 0}
    - target: {fileID: 623150814890543157, guid: 57a7fcc8445f63542ad17c6297f481b9,
        type: 3}
      propertyPath: m_LocalEulerAnglesHint.y
      value: 180
      objectReference: {fileID: 0}
    - target: {fileID: 623150815092121124, guid: 57a7fcc8445f63542ad17c6297f481b9,
        type: 3}
      propertyPath: m_RootOrder
      value: 0
      objectReference: {fileID: 0}
    - target: {fileID: 623150815092121124, guid: 57a7fcc8445f63542ad17c6297f481b9,
        type: 3}
      propertyPath: m_LocalPosition.y
      value: 2.44
      objectReference: {fileID: 0}
    - target: {fileID: 623150815092121124, guid: 57a7fcc8445f63542ad17c6297f481b9,
        type: 3}
      propertyPath: m_LocalPosition.z
      value: 1.41
      objectReference: {fileID: 0}
    - target: {fileID: 623150815092121124, guid: 57a7fcc8445f63542ad17c6297f481b9,
        type: 3}
      propertyPath: m_LocalRotation.w
      value: 0
      objectReference: {fileID: 0}
    - target: {fileID: 623150815092121124, guid: 57a7fcc8445f63542ad17c6297f481b9,
        type: 3}
      propertyPath: m_LocalRotation.x
      value: 0
      objectReference: {fileID: 0}
    - target: {fileID: 623150815092121124, guid: 57a7fcc8445f63542ad17c6297f481b9,
        type: 3}
      propertyPath: m_LocalRotation.y
      value: 1
      objectReference: {fileID: 0}
    - target: {fileID: 623150815092121124, guid: 57a7fcc8445f63542ad17c6297f481b9,
        type: 3}
      propertyPath: m_LocalRotation.z
      value: 0
      objectReference: {fileID: 0}
    - target: {fileID: 623150815092121124, guid: 57a7fcc8445f63542ad17c6297f481b9,
        type: 3}
      propertyPath: m_LocalEulerAnglesHint.y
      value: 180
      objectReference: {fileID: 0}
    - target: {fileID: 3868326098092834985, guid: 57a7fcc8445f63542ad17c6297f481b9,
        type: 3}
      propertyPath: m_Avatar
      value: 
      objectReference: {fileID: 9000000, guid: 3e1003888a676ca44a4f752fdb55c7de, type: 3}
    - target: {fileID: 3868326098092834985, guid: 57a7fcc8445f63542ad17c6297f481b9,
        type: 3}
      propertyPath: m_Controller
      value: 
      objectReference: {fileID: 22100000, guid: 4de612b0c3c3dae448006db777770721,
        type: 2}
    - target: {fileID: 4059717616814757512, guid: 57a7fcc8445f63542ad17c6297f481b9,
        type: 3}
      propertyPath: m_RootOrder
      value: 0
      objectReference: {fileID: 0}
    - target: {fileID: 4059717616814757512, guid: 57a7fcc8445f63542ad17c6297f481b9,
        type: 3}
      propertyPath: m_LocalPosition.x
      value: 0
      objectReference: {fileID: 0}
    - target: {fileID: 4059717616814757512, guid: 57a7fcc8445f63542ad17c6297f481b9,
        type: 3}
      propertyPath: m_LocalPosition.y
      value: 0
      objectReference: {fileID: 0}
    - target: {fileID: 4059717616814757512, guid: 57a7fcc8445f63542ad17c6297f481b9,
        type: 3}
      propertyPath: m_LocalPosition.z
      value: 0
      objectReference: {fileID: 0}
    - target: {fileID: 4059717616814757512, guid: 57a7fcc8445f63542ad17c6297f481b9,
        type: 3}
      propertyPath: m_LocalRotation.w
      value: 1
      objectReference: {fileID: 0}
    - target: {fileID: 4059717616814757512, guid: 57a7fcc8445f63542ad17c6297f481b9,
        type: 3}
      propertyPath: m_LocalRotation.x
      value: 0
      objectReference: {fileID: 0}
    - target: {fileID: 4059717616814757512, guid: 57a7fcc8445f63542ad17c6297f481b9,
        type: 3}
      propertyPath: m_LocalRotation.y
      value: 0
      objectReference: {fileID: 0}
    - target: {fileID: 4059717616814757512, guid: 57a7fcc8445f63542ad17c6297f481b9,
        type: 3}
      propertyPath: m_LocalRotation.z
      value: 0
      objectReference: {fileID: 0}
    - target: {fileID: 4059717616814757512, guid: 57a7fcc8445f63542ad17c6297f481b9,
        type: 3}
      propertyPath: m_LocalEulerAnglesHint.x
      value: 0
      objectReference: {fileID: 0}
    - target: {fileID: 4059717616814757512, guid: 57a7fcc8445f63542ad17c6297f481b9,
        type: 3}
      propertyPath: m_LocalEulerAnglesHint.y
      value: 0
      objectReference: {fileID: 0}
    - target: {fileID: 4059717616814757512, guid: 57a7fcc8445f63542ad17c6297f481b9,
        type: 3}
      propertyPath: m_LocalEulerAnglesHint.z
      value: 0
      objectReference: {fileID: 0}
    - target: {fileID: 4059717616814757516, guid: 57a7fcc8445f63542ad17c6297f481b9,
        type: 3}
      propertyPath: m_Name
      value: DialogueNPC_BigRobot Variant
      objectReference: {fileID: 0}
    - target: {fileID: 4789261475536079237, guid: 57a7fcc8445f63542ad17c6297f481b9,
        type: 3}
      propertyPath: m_RootOrder
      value: 5
      objectReference: {fileID: 0}
    - target: {fileID: 6638955650071466396, guid: 57a7fcc8445f63542ad17c6297f481b9,
        type: 3}
      propertyPath: m_Height
      value: 5.45
      objectReference: {fileID: 0}
    - target: {fileID: 6638955650071466396, guid: 57a7fcc8445f63542ad17c6297f481b9,
        type: 3}
      propertyPath: m_Radius
      value: 2.03
      objectReference: {fileID: 0}
    - target: {fileID: 6638955650071466396, guid: 57a7fcc8445f63542ad17c6297f481b9,
        type: 3}
      propertyPath: m_Center.y
      value: 2.86
      objectReference: {fileID: 0}
    - target: {fileID: 6989288902420054789, guid: 57a7fcc8445f63542ad17c6297f481b9,
        type: 3}
      propertyPath: m_IsActive
      value: 0
      objectReference: {fileID: 0}
    - target: {fileID: 7212403791484602596, guid: 57a7fcc8445f63542ad17c6297f481b9,
        type: 3}
      propertyPath: m_RootOrder
      value: 1
      objectReference: {fileID: 0}
    - target: {fileID: 8973914364925663965, guid: 57a7fcc8445f63542ad17c6297f481b9,
        type: 3}
      propertyPath: actorName
      value: GR-716
      objectReference: {fileID: 0}
    - target: {fileID: 8973914364925663965, guid: 57a7fcc8445f63542ad17c6297f481b9,
        type: 3}
      propertyPath: dialogueFileName
      value: BigRobot
      objectReference: {fileID: 0}
    m_RemovedComponents: []
  m_SourcePrefab: {fileID: 100100000, guid: 57a7fcc8445f63542ad17c6297f481b9, type: 3}
--- !u!4 &6970501072358031094 stripped
Transform:
  m_CorrespondingSourceObject: {fileID: 4059717616814757512, guid: 57a7fcc8445f63542ad17c6297f481b9,
    type: 3}
  m_PrefabInstance: {fileID: 6407270293546641534}
  m_PrefabAsset: {fileID: 0}
