%YAML 1.1
%TAG !u! tag:unity3d.com,2011:
--- !u!1001 &4106285667732878463
PrefabInstance:
  m_ObjectHideFlags: 0
  serializedVersion: 2
  m_Modification:
    m_TransformParent: {fileID: 48262678668382220}
    m_Modifications:
    - target: {fileID: -8679921383154817045, guid: f16d097b4f9f7ee4b9b573828f17f1ad,
        type: 3}
      propertyPath: m_RootOrder
      value: 5
      objectReference: {fileID: 0}
    - target: {fileID: -8679921383154817045, guid: f16d097b4f9f7ee4b9b573828f17f1ad,
        type: 3}
      propertyPath: m_LocalScale.x
      value: 0.9
      objectReference: {fileID: 0}
    - target: {fileID: -8679921383154817045, guid: f16d097b4f9f7ee4b9b573828f17f1ad,
        type: 3}
      propertyPath: m_LocalScale.y
      value: 0.9
      objectReference: {fileID: 0}
    - target: {fileID: -8679921383154817045, guid: f16d097b4f9f7ee4b9b573828f17f1ad,
        type: 3}
      propertyPath: m_LocalScale.z
      value: 0.9
      objectReference: {fileID: 0}
    - target: {fileID: -8679921383154817045, guid: f16d097b4f9f7ee4b9b573828f17f1ad,
        type: 3}
      propertyPath: m_LocalPosition.x
      value: 0
      objectReference: {fileID: 0}
    - target: {fileID: -8679921383154817045, guid: f16d097b4f9f7ee4b9b573828f17f1ad,
        type: 3}
      propertyPath: m_LocalPosition.y
      value: 0
      objectReference: {fileID: 0}
    - target: {fileID: -8679921383154817045, guid: f16d097b4f9f7ee4b9b573828f17f1ad,
        type: 3}
      propertyPath: m_LocalPosition.z
      value: 0
      objectReference: {fileID: 0}
    - target: {fileID: -8679921383154817045, guid: f16d097b4f9f7ee4b9b573828f17f1ad,
        type: 3}
      propertyPath: m_LocalRotation.w
      value: 1
      objectReference: {fileID: 0}
    - target: {fileID: -8679921383154817045, guid: f16d097b4f9f7ee4b9b573828f17f1ad,
        type: 3}
      propertyPath: m_LocalRotation.x
      value: -0
      objectReference: {fileID: 0}
    - target: {fileID: -8679921383154817045, guid: f16d097b4f9f7ee4b9b573828f17f1ad,
        type: 3}
      propertyPath: m_LocalRotation.y
      value: -0
      objectReference: {fileID: 0}
    - target: {fileID: -8679921383154817045, guid: f16d097b4f9f7ee4b9b573828f17f1ad,
        type: 3}
      propertyPath: m_LocalRotation.z
      value: -0
      objectReference: {fileID: 0}
    - target: {fileID: -8679921383154817045, guid: f16d097b4f9f7ee4b9b573828f17f1ad,
        type: 3}
      propertyPath: m_LocalEulerAnglesHint.x
      value: 0
      objectReference: {fileID: 0}
    - target: {fileID: -8679921383154817045, guid: f16d097b4f9f7ee4b9b573828f17f1ad,
        type: 3}
      propertyPath: m_LocalEulerAnglesHint.y
      value: 0
      objectReference: {fileID: 0}
    - target: {fileID: -8679921383154817045, guid: f16d097b4f9f7ee4b9b573828f17f1ad,
        type: 3}
      propertyPath: m_LocalEulerAnglesHint.z
      value: 0
      objectReference: {fileID: 0}
    - target: {fileID: -8191740002585371210, guid: f16d097b4f9f7ee4b9b573828f17f1ad,
        type: 3}
      propertyPath: m_LocalPosition.x
      value: -0.000863174
      objectReference: {fileID: 0}
    - target: {fileID: -8191740002585371210, guid: f16d097b4f9f7ee4b9b573828f17f1ad,
        type: 3}
      propertyPath: m_LocalPosition.y
      value: 0.03686841
      objectReference: {fileID: 0}
    - target: {fileID: -8191740002585371210, guid: f16d097b4f9f7ee4b9b573828f17f1ad,
        type: 3}
      propertyPath: m_LocalPosition.z
      value: 0.000000035390258
      objectReference: {fileID: 0}
    - target: {fileID: -8191740002585371210, guid: f16d097b4f9f7ee4b9b573828f17f1ad,
        type: 3}
      propertyPath: m_LocalRotation.w
      value: 0.9942059
      objectReference: {fileID: 0}
    - target: {fileID: -8191740002585371210, guid: f16d097b4f9f7ee4b9b573828f17f1ad,
        type: 3}
      propertyPath: m_LocalRotation.x
      value: -0.011598104
      objectReference: {fileID: 0}
    - target: {fileID: -8191740002585371210, guid: f16d097b4f9f7ee4b9b573828f17f1ad,
        type: 3}
      propertyPath: m_LocalRotation.y
      value: 0.019989276
      objectReference: {fileID: 0}
    - target: {fileID: -8191740002585371210, guid: f16d097b4f9f7ee4b9b573828f17f1ad,
        type: 3}
      propertyPath: m_LocalRotation.z
      value: -0.10497909
      objectReference: {fileID: 0}
    - target: {fileID: -8068027186691560116, guid: f16d097b4f9f7ee4b9b573828f17f1ad,
        type: 3}
      propertyPath: m_LocalPosition.x
      value: 0.00012413811
      objectReference: {fileID: 0}
    - target: {fileID: -8068027186691560116, guid: f16d097b4f9f7ee4b9b573828f17f1ad,
        type: 3}
      propertyPath: m_LocalPosition.y
      value: 0.02194388
      objectReference: {fileID: 0}
    - target: {fileID: -8068027186691560116, guid: f16d097b4f9f7ee4b9b573828f17f1ad,
        type: 3}
      propertyPath: m_LocalPosition.z
      value: -0.000000030246014
      objectReference: {fileID: 0}
    - target: {fileID: -8068027186691560116, guid: f16d097b4f9f7ee4b9b573828f17f1ad,
        type: 3}
      propertyPath: m_LocalRotation.w
      value: 0.9495395
      objectReference: {fileID: 0}
    - target: {fileID: -8068027186691560116, guid: f16d097b4f9f7ee4b9b573828f17f1ad,
        type: 3}
      propertyPath: m_LocalRotation.x
      value: 0.31323022
      objectReference: {fileID: 0}
    - target: {fileID: -8068027186691560116, guid: f16d097b4f9f7ee4b9b573828f17f1ad,
        type: 3}
      propertyPath: m_LocalRotation.y
      value: -0.0019178834
      objectReference: {fileID: 0}
    - target: {fileID: -8068027186691560116, guid: f16d097b4f9f7ee4b9b573828f17f1ad,
        type: 3}
      propertyPath: m_LocalRotation.z
      value: 0.016063359
      objectReference: {fileID: 0}
    - target: {fileID: -8021001004253913084, guid: f16d097b4f9f7ee4b9b573828f17f1ad,
        type: 3}
      propertyPath: m_LocalPosition.x
      value: 4.7573956e-13
      objectReference: {fileID: 0}
    - target: {fileID: -8021001004253913084, guid: f16d097b4f9f7ee4b9b573828f17f1ad,
        type: 3}
      propertyPath: m_LocalPosition.y
      value: 0.106563285
      objectReference: {fileID: 0}
    - target: {fileID: -8021001004253913084, guid: f16d097b4f9f7ee4b9b573828f17f1ad,
        type: 3}
      propertyPath: m_LocalPosition.z
      value: -0.0000000018626451
      objectReference: {fileID: 0}
    - target: {fileID: -8021001004253913084, guid: f16d097b4f9f7ee4b9b573828f17f1ad,
        type: 3}
      propertyPath: m_LocalRotation.w
      value: 0.9990514
      objectReference: {fileID: 0}
    - target: {fileID: -8021001004253913084, guid: f16d097b4f9f7ee4b9b573828f17f1ad,
        type: 3}
      propertyPath: m_LocalRotation.x
      value: 0.025207989
      objectReference: {fileID: 0}
    - target: {fileID: -8021001004253913084, guid: f16d097b4f9f7ee4b9b573828f17f1ad,
        type: 3}
      propertyPath: m_LocalRotation.y
      value: 0.0056514866
      objectReference: {fileID: 0}
    - target: {fileID: -8021001004253913084, guid: f16d097b4f9f7ee4b9b573828f17f1ad,
        type: 3}
      propertyPath: m_LocalRotation.z
      value: -0.0350571
      objectReference: {fileID: 0}
    - target: {fileID: -7219772299731422950, guid: f16d097b4f9f7ee4b9b573828f17f1ad,
        type: 3}
      propertyPath: m_LocalPosition.x
      value: -0.00009501167
      objectReference: {fileID: 0}
    - target: {fileID: -7219772299731422950, guid: f16d097b4f9f7ee4b9b573828f17f1ad,
        type: 3}
      propertyPath: m_LocalPosition.y
      value: 0.037132718
      objectReference: {fileID: 0}
    - target: {fileID: -7219772299731422950, guid: f16d097b4f9f7ee4b9b573828f17f1ad,
        type: 3}
      propertyPath: m_LocalPosition.z
      value: -0.000000026077032
      objectReference: {fileID: 0}
    - target: {fileID: -7219772299731422950, guid: f16d097b4f9f7ee4b9b573828f17f1ad,
        type: 3}
      propertyPath: m_LocalRotation.w
      value: -0.9962182
      objectReference: {fileID: 0}
    - target: {fileID: -7219772299731422950, guid: f16d097b4f9f7ee4b9b573828f17f1ad,
        type: 3}
      propertyPath: m_LocalRotation.x
      value: 0.023998015
      objectReference: {fileID: 0}
    - target: {fileID: -7219772299731422950, guid: f16d097b4f9f7ee4b9b573828f17f1ad,
        type: 3}
      propertyPath: m_LocalRotation.y
      value: 0.03564842
      objectReference: {fileID: 0}
    - target: {fileID: -7219772299731422950, guid: f16d097b4f9f7ee4b9b573828f17f1ad,
        type: 3}
      propertyPath: m_LocalRotation.z
      value: -0.07551641
      objectReference: {fileID: 0}
    - target: {fileID: -6874584590210671055, guid: f16d097b4f9f7ee4b9b573828f17f1ad,
        type: 3}
      propertyPath: m_LocalPosition.x
      value: -0.0000000018626451
      objectReference: {fileID: 0}
    - target: {fileID: -6874584590210671055, guid: f16d097b4f9f7ee4b9b573828f17f1ad,
        type: 3}
      propertyPath: m_LocalPosition.y
      value: 0.5588147
      objectReference: {fileID: 0}
    - target: {fileID: -6874584590210671055, guid: f16d097b4f9f7ee4b9b573828f17f1ad,
        type: 3}
      propertyPath: m_LocalPosition.z
      value: 0.0000000018626451
      objectReference: {fileID: 0}
    - target: {fileID: -6874584590210671055, guid: f16d097b4f9f7ee4b9b573828f17f1ad,
        type: 3}
      propertyPath: m_LocalRotation.w
      value: 0.80053526
      objectReference: {fileID: 0}
    - target: {fileID: -6874584590210671055, guid: f16d097b4f9f7ee4b9b573828f17f1ad,
        type: 3}
      propertyPath: m_LocalRotation.x
      value: 0.5885366
      objectReference: {fileID: 0}
    - target: {fileID: -6874584590210671055, guid: f16d097b4f9f7ee4b9b573828f17f1ad,
        type: 3}
      propertyPath: m_LocalRotation.y
      value: 0.11242069
      objectReference: {fileID: 0}
    - target: {fileID: -6874584590210671055, guid: f16d097b4f9f7ee4b9b573828f17f1ad,
        type: 3}
      propertyPath: m_LocalRotation.z
      value: -0.011380768
      objectReference: {fileID: 0}
    - target: {fileID: -6857788192064577062, guid: f16d097b4f9f7ee4b9b573828f17f1ad,
        type: 3}
      propertyPath: m_LocalPosition.x
      value: 0.0092525575
      objectReference: {fileID: 0}
    - target: {fileID: -6857788192064577062, guid: f16d097b4f9f7ee4b9b573828f17f1ad,
        type: 3}
      propertyPath: m_LocalPosition.y
      value: 0.043409612
      objectReference: {fileID: 0}
    - target: {fileID: -6857788192064577062, guid: f16d097b4f9f7ee4b9b573828f17f1ad,
        type: 3}
      propertyPath: m_LocalPosition.z
      value: -0.00000004656613
      objectReference: {fileID: 0}
    - target: {fileID: -6857788192064577062, guid: f16d097b4f9f7ee4b9b573828f17f1ad,
        type: 3}
      propertyPath: m_LocalRotation.w
      value: 0.98804754
      objectReference: {fileID: 0}
    - target: {fileID: -6857788192064577062, guid: f16d097b4f9f7ee4b9b573828f17f1ad,
        type: 3}
      propertyPath: m_LocalRotation.x
      value: -0.046298124
      objectReference: {fileID: 0}
    - target: {fileID: -6857788192064577062, guid: f16d097b4f9f7ee4b9b573828f17f1ad,
        type: 3}
      propertyPath: m_LocalRotation.y
      value: 0.033916857
      objectReference: {fileID: 0}
    - target: {fileID: -6857788192064577062, guid: f16d097b4f9f7ee4b9b573828f17f1ad,
        type: 3}
      propertyPath: m_LocalRotation.z
      value: 0.14306752
      objectReference: {fileID: 0}
    - target: {fileID: -6803169544883306252, guid: f16d097b4f9f7ee4b9b573828f17f1ad,
        type: 3}
      propertyPath: m_LocalPosition.y
      value: 0.11954947
      objectReference: {fileID: 0}
    - target: {fileID: -6803169544883306252, guid: f16d097b4f9f7ee4b9b573828f17f1ad,
        type: 3}
      propertyPath: m_LocalPosition.z
      value: -0.0014144443
      objectReference: {fileID: 0}
    - target: {fileID: -6803169544883306252, guid: f16d097b4f9f7ee4b9b573828f17f1ad,
        type: 3}
      propertyPath: m_LocalRotation.w
      value: 0.50556827
      objectReference: {fileID: 0}
    - target: {fileID: -6803169544883306252, guid: f16d097b4f9f7ee4b9b573828f17f1ad,
        type: 3}
      propertyPath: m_LocalRotation.x
      value: 0.68668914
      objectReference: {fileID: 0}
    - target: {fileID: -6803169544883306252, guid: f16d097b4f9f7ee4b9b573828f17f1ad,
        type: 3}
      propertyPath: m_LocalRotation.y
      value: -0.24252251
      objectReference: {fileID: 0}
    - target: {fileID: -6803169544883306252, guid: f16d097b4f9f7ee4b9b573828f17f1ad,
        type: 3}
      propertyPath: m_LocalRotation.z
      value: 0.4626464
      objectReference: {fileID: 0}
    - target: {fileID: -6768225281626788248, guid: f16d097b4f9f7ee4b9b573828f17f1ad,
        type: 3}
      propertyPath: m_LocalPosition.x
      value: -0.00028526306
      objectReference: {fileID: 0}
    - target: {fileID: -6768225281626788248, guid: f16d097b4f9f7ee4b9b573828f17f1ad,
        type: 3}
      propertyPath: m_LocalPosition.y
      value: 0.021157201
      objectReference: {fileID: 0}
    - target: {fileID: -6768225281626788248, guid: f16d097b4f9f7ee4b9b573828f17f1ad,
        type: 3}
      propertyPath: m_LocalPosition.z
      value: 0.0000000095053
      objectReference: {fileID: 0}
    - target: {fileID: -6768225281626788248, guid: f16d097b4f9f7ee4b9b573828f17f1ad,
        type: 3}
      propertyPath: m_LocalRotation.w
      value: -0.94954604
      objectReference: {fileID: 0}
    - target: {fileID: -6768225281626788248, guid: f16d097b4f9f7ee4b9b573828f17f1ad,
        type: 3}
      propertyPath: m_LocalRotation.x
      value: -0.31328171
      objectReference: {fileID: 0}
    - target: {fileID: -6768225281626788248, guid: f16d097b4f9f7ee4b9b573828f17f1ad,
        type: 3}
      propertyPath: m_LocalRotation.y
      value: -0.004775106
      objectReference: {fileID: 0}
    - target: {fileID: -6768225281626788248, guid: f16d097b4f9f7ee4b9b573828f17f1ad,
        type: 3}
      propertyPath: m_LocalRotation.z
      value: 0.013930676
      objectReference: {fileID: 0}
    - target: {fileID: -6024149945523619558, guid: f16d097b4f9f7ee4b9b573828f17f1ad,
        type: 3}
      propertyPath: m_LocalPosition.x
      value: -0.00029200225
      objectReference: {fileID: 0}
    - target: {fileID: -6024149945523619558, guid: f16d097b4f9f7ee4b9b573828f17f1ad,
        type: 3}
      propertyPath: m_LocalPosition.y
      value: 0.03274884
      objectReference: {fileID: 0}
    - target: {fileID: -6024149945523619558, guid: f16d097b4f9f7ee4b9b573828f17f1ad,
        type: 3}
      propertyPath: m_LocalPosition.z
      value: 0.000000030957494
      objectReference: {fileID: 0}
    - target: {fileID: -6024149945523619558, guid: f16d097b4f9f7ee4b9b573828f17f1ad,
        type: 3}
      propertyPath: m_LocalRotation.w
      value: -0.97926587
      objectReference: {fileID: 0}
    - target: {fileID: -6024149945523619558, guid: f16d097b4f9f7ee4b9b573828f17f1ad,
        type: 3}
      propertyPath: m_LocalRotation.x
      value: -0.2010165
      objectReference: {fileID: 0}
    - target: {fileID: -6024149945523619558, guid: f16d097b4f9f7ee4b9b573828f17f1ad,
        type: 3}
      propertyPath: m_LocalRotation.y
      value: 0.0028477903
      objectReference: {fileID: 0}
    - target: {fileID: -6024149945523619558, guid: f16d097b4f9f7ee4b9b573828f17f1ad,
        type: 3}
      propertyPath: m_LocalRotation.z
      value: 0.024951916
      objectReference: {fileID: 0}
    - target: {fileID: -5665043316445423941, guid: f16d097b4f9f7ee4b9b573828f17f1ad,
        type: 3}
      propertyPath: m_LocalPosition.x
      value: 0.00040468466
      objectReference: {fileID: 0}
    - target: {fileID: -5665043316445423941, guid: f16d097b4f9f7ee4b9b573828f17f1ad,
        type: 3}
      propertyPath: m_LocalPosition.y
      value: 0.028403029
      objectReference: {fileID: 0}
    - target: {fileID: -5665043316445423941, guid: f16d097b4f9f7ee4b9b573828f17f1ad,
        type: 3}
      propertyPath: m_LocalPosition.z
      value: 0.000000016828494
      objectReference: {fileID: 0}
    - target: {fileID: -5665043316445423941, guid: f16d097b4f9f7ee4b9b573828f17f1ad,
        type: 3}
      propertyPath: m_LocalRotation.w
      value: 0.98704934
      objectReference: {fileID: 0}
    - target: {fileID: -5665043316445423941, guid: f16d097b4f9f7ee4b9b573828f17f1ad,
        type: 3}
      propertyPath: m_LocalRotation.x
      value: 0.15936072
      objectReference: {fileID: 0}
    - target: {fileID: -5665043316445423941, guid: f16d097b4f9f7ee4b9b573828f17f1ad,
        type: 3}
      propertyPath: m_LocalRotation.y
      value: 0.00033305577
      objectReference: {fileID: 0}
    - target: {fileID: -5665043316445423941, guid: f16d097b4f9f7ee4b9b573828f17f1ad,
        type: 3}
      propertyPath: m_LocalRotation.z
      value: 0.018378848
      objectReference: {fileID: 0}
    - target: {fileID: -5480977901411583989, guid: f16d097b4f9f7ee4b9b573828f17f1ad,
        type: 3}
      propertyPath: m_LocalPosition.x
      value: 0.0025026917
      objectReference: {fileID: 0}
    - target: {fileID: -5480977901411583989, guid: f16d097b4f9f7ee4b9b573828f17f1ad,
        type: 3}
      propertyPath: m_LocalPosition.y
      value: 0.035368532
      objectReference: {fileID: 0}
    - target: {fileID: -5480977901411583989, guid: f16d097b4f9f7ee4b9b573828f17f1ad,
        type: 3}
      propertyPath: m_LocalPosition.z
      value: -0.000000011411828
      objectReference: {fileID: 0}
    - target: {fileID: -5480977901411583989, guid: f16d097b4f9f7ee4b9b573828f17f1ad,
        type: 3}
      propertyPath: m_LocalRotation.w
      value: -0.98862964
      objectReference: {fileID: 0}
    - target: {fileID: -5480977901411583989, guid: f16d097b4f9f7ee4b9b573828f17f1ad,
        type: 3}
      propertyPath: m_LocalRotation.x
      value: -0.14551166
      objectReference: {fileID: 0}
    - target: {fileID: -5480977901411583989, guid: f16d097b4f9f7ee4b9b573828f17f1ad,
        type: 3}
      propertyPath: m_LocalRotation.y
      value: -0.004992424
      objectReference: {fileID: 0}
    - target: {fileID: -5480977901411583989, guid: f16d097b4f9f7ee4b9b573828f17f1ad,
        type: 3}
      propertyPath: m_LocalRotation.z
      value: 0.037589286
      objectReference: {fileID: 0}
    - target: {fileID: -3746190272939815206, guid: f16d097b4f9f7ee4b9b573828f17f1ad,
        type: 3}
      propertyPath: m_LocalPosition.x
      value: 0.0000000013969839
      objectReference: {fileID: 0}
    - target: {fileID: -3746190272939815206, guid: f16d097b4f9f7ee4b9b573828f17f1ad,
        type: 3}
      propertyPath: m_LocalPosition.y
      value: 0.5276414
      objectReference: {fileID: 0}
    - target: {fileID: -3746190272939815206, guid: f16d097b4f9f7ee4b9b573828f17f1ad,
        type: 3}
      propertyPath: m_LocalPosition.z
      value: 0.0000000027939677
      objectReference: {fileID: 0}
    - target: {fileID: -3746190272939815206, guid: f16d097b4f9f7ee4b9b573828f17f1ad,
        type: 3}
      propertyPath: m_LocalRotation.w
      value: 0.9512081
      objectReference: {fileID: 0}
    - target: {fileID: -3746190272939815206, guid: f16d097b4f9f7ee4b9b573828f17f1ad,
        type: 3}
      propertyPath: m_LocalRotation.x
      value: -0.25778088
      objectReference: {fileID: 0}
    - target: {fileID: -3746190272939815206, guid: f16d097b4f9f7ee4b9b573828f17f1ad,
        type: 3}
      propertyPath: m_LocalRotation.y
      value: -0.16763629
      objectReference: {fileID: 0}
    - target: {fileID: -3746190272939815206, guid: f16d097b4f9f7ee4b9b573828f17f1ad,
        type: 3}
      propertyPath: m_LocalRotation.z
      value: 0.025500253
      objectReference: {fileID: 0}
    - target: {fileID: -3480699329000672020, guid: f16d097b4f9f7ee4b9b573828f17f1ad,
        type: 3}
      propertyPath: m_LocalPosition.x
      value: 5.456968e-12
      objectReference: {fileID: 0}
    - target: {fileID: -3480699329000672020, guid: f16d097b4f9f7ee4b9b573828f17f1ad,
        type: 3}
      propertyPath: m_LocalPosition.y
      value: 0.09117388
      objectReference: {fileID: 0}
    - target: {fileID: -3480699329000672020, guid: f16d097b4f9f7ee4b9b573828f17f1ad,
        type: 3}
      propertyPath: m_LocalPosition.z
      value: -0.0055043516
      objectReference: {fileID: 0}
    - target: {fileID: -3480699329000672020, guid: f16d097b4f9f7ee4b9b573828f17f1ad,
        type: 3}
      propertyPath: m_LocalRotation.w
      value: 0.99234706
      objectReference: {fileID: 0}
    - target: {fileID: -3480699329000672020, guid: f16d097b4f9f7ee4b9b573828f17f1ad,
        type: 3}
      propertyPath: m_LocalRotation.x
      value: -0.027116233
      objectReference: {fileID: 0}
    - target: {fileID: -3480699329000672020, guid: f16d097b4f9f7ee4b9b573828f17f1ad,
        type: 3}
      propertyPath: m_LocalRotation.y
      value: 0.021286976
      objectReference: {fileID: 0}
    - target: {fileID: -3480699329000672020, guid: f16d097b4f9f7ee4b9b573828f17f1ad,
        type: 3}
      propertyPath: m_LocalRotation.z
      value: -0.11857071
      objectReference: {fileID: 0}
    - target: {fileID: -3432401550182100168, guid: f16d097b4f9f7ee4b9b573828f17f1ad,
        type: 3}
      propertyPath: m_LocalPosition.x
      value: 3.4924597e-10
      objectReference: {fileID: 0}
    - target: {fileID: -3432401550182100168, guid: f16d097b4f9f7ee4b9b573828f17f1ad,
        type: 3}
      propertyPath: m_LocalPosition.y
      value: 0.115715265
      objectReference: {fileID: 0}
    - target: {fileID: -3432401550182100168, guid: f16d097b4f9f7ee4b9b573828f17f1ad,
        type: 3}
      propertyPath: m_LocalPosition.z
      value: 0.000000022351742
      objectReference: {fileID: 0}
    - target: {fileID: -3432401550182100168, guid: f16d097b4f9f7ee4b9b573828f17f1ad,
        type: 3}
      propertyPath: m_LocalRotation.w
      value: 0.8665261
      objectReference: {fileID: 0}
    - target: {fileID: -3432401550182100168, guid: f16d097b4f9f7ee4b9b573828f17f1ad,
        type: 3}
      propertyPath: m_LocalRotation.x
      value: 0.48580506
      objectReference: {fileID: 0}
    - target: {fileID: -3432401550182100168, guid: f16d097b4f9f7ee4b9b573828f17f1ad,
        type: 3}
      propertyPath: m_LocalRotation.y
      value: -0.10748776
      objectReference: {fileID: 0}
    - target: {fileID: -3432401550182100168, guid: f16d097b4f9f7ee4b9b573828f17f1ad,
        type: 3}
      propertyPath: m_LocalRotation.z
      value: 0.039652716
      objectReference: {fileID: 0}
    - target: {fileID: -3321919801592875672, guid: f16d097b4f9f7ee4b9b573828f17f1ad,
        type: 3}
      propertyPath: m_LocalPosition.x
      value: 6.902161e-13
      objectReference: {fileID: 0}
    - target: {fileID: -3321919801592875672, guid: f16d097b4f9f7ee4b9b573828f17f1ad,
        type: 3}
      propertyPath: m_LocalPosition.y
      value: 0.0959959
      objectReference: {fileID: 0}
    - target: {fileID: -3321919801592875672, guid: f16d097b4f9f7ee4b9b573828f17f1ad,
        type: 3}
      propertyPath: m_LocalRotation.w
      value: 0.9910191
      objectReference: {fileID: 0}
    - target: {fileID: -3321919801592875672, guid: f16d097b4f9f7ee4b9b573828f17f1ad,
        type: 3}
      propertyPath: m_LocalRotation.x
      value: -0.13094202
      objectReference: {fileID: 0}
    - target: {fileID: -3321919801592875672, guid: f16d097b4f9f7ee4b9b573828f17f1ad,
        type: 3}
      propertyPath: m_LocalRotation.y
      value: -0.027104348
      objectReference: {fileID: 0}
    - target: {fileID: -3321919801592875672, guid: f16d097b4f9f7ee4b9b573828f17f1ad,
        type: 3}
      propertyPath: m_LocalRotation.z
      value: 0.0008482635
      objectReference: {fileID: 0}
    - target: {fileID: -2899422035419094908, guid: f16d097b4f9f7ee4b9b573828f17f1ad,
        type: 3}
      propertyPath: m_LocalPosition.x
      value: 0.002464588
      objectReference: {fileID: 0}
    - target: {fileID: -2899422035419094908, guid: f16d097b4f9f7ee4b9b573828f17f1ad,
        type: 3}
      propertyPath: m_LocalPosition.y
      value: 0.03266594
      objectReference: {fileID: 0}
    - target: {fileID: -2899422035419094908, guid: f16d097b4f9f7ee4b9b573828f17f1ad,
        type: 3}
      propertyPath: m_LocalPosition.z
      value: 0.000000062787166
      objectReference: {fileID: 0}
    - target: {fileID: -2899422035419094908, guid: f16d097b4f9f7ee4b9b573828f17f1ad,
        type: 3}
      propertyPath: m_LocalRotation.w
      value: -0.98524827
      objectReference: {fileID: 0}
    - target: {fileID: -2899422035419094908, guid: f16d097b4f9f7ee4b9b573828f17f1ad,
        type: 3}
      propertyPath: m_LocalRotation.x
      value: -0.16539812
      objectReference: {fileID: 0}
    - target: {fileID: -2899422035419094908, guid: f16d097b4f9f7ee4b9b573828f17f1ad,
        type: 3}
      propertyPath: m_LocalRotation.y
      value: -0.0046578934
      objectReference: {fileID: 0}
    - target: {fileID: -2899422035419094908, guid: f16d097b4f9f7ee4b9b573828f17f1ad,
        type: 3}
      propertyPath: m_LocalRotation.z
      value: 0.043675907
      objectReference: {fileID: 0}
    - target: {fileID: -2770666803903516498, guid: f16d097b4f9f7ee4b9b573828f17f1ad,
        type: 3}
      propertyPath: m_LocalPosition.x
      value: 0.0000000037252903
      objectReference: {fileID: 0}
    - target: {fileID: -2770666803903516498, guid: f16d097b4f9f7ee4b9b573828f17f1ad,
        type: 3}
      propertyPath: m_LocalPosition.y
      value: 0.16227004
      objectReference: {fileID: 0}
    - target: {fileID: -2770666803903516498, guid: f16d097b4f9f7ee4b9b573828f17f1ad,
        type: 3}
      propertyPath: m_LocalPosition.z
      value: -0.000000022351742
      objectReference: {fileID: 0}
    - target: {fileID: -2770666803903516498, guid: f16d097b4f9f7ee4b9b573828f17f1ad,
        type: 3}
      propertyPath: m_LocalRotation.w
      value: 0.91434807
      objectReference: {fileID: 0}
    - target: {fileID: -2770666803903516498, guid: f16d097b4f9f7ee4b9b573828f17f1ad,
        type: 3}
      propertyPath: m_LocalRotation.x
      value: 0.40271282
      objectReference: {fileID: 0}
    - target: {fileID: -2770666803903516498, guid: f16d097b4f9f7ee4b9b573828f17f1ad,
        type: 3}
      propertyPath: m_LocalRotation.y
      value: 0.03931399
      objectReference: {fileID: 0}
    - target: {fileID: -2770666803903516498, guid: f16d097b4f9f7ee4b9b573828f17f1ad,
        type: 3}
      propertyPath: m_LocalRotation.z
      value: -0.015629986
      objectReference: {fileID: 0}
    - target: {fileID: -2594260964506120097, guid: f16d097b4f9f7ee4b9b573828f17f1ad,
        type: 3}
      propertyPath: m_LocalPosition.x
      value: -0.012694344
      objectReference: {fileID: 0}
    - target: {fileID: -2594260964506120097, guid: f16d097b4f9f7ee4b9b573828f17f1ad,
        type: 3}
      propertyPath: m_LocalPosition.y
      value: 0.11971233
      objectReference: {fileID: 0}
    - target: {fileID: -2594260964506120097, guid: f16d097b4f9f7ee4b9b573828f17f1ad,
        type: 3}
      propertyPath: m_LocalPosition.z
      value: -0.002657989
      objectReference: {fileID: 0}
    - target: {fileID: -2594260964506120097, guid: f16d097b4f9f7ee4b9b573828f17f1ad,
        type: 3}
      propertyPath: m_LocalRotation.w
      value: 0.98558754
      objectReference: {fileID: 0}
    - target: {fileID: -2594260964506120097, guid: f16d097b4f9f7ee4b9b573828f17f1ad,
        type: 3}
      propertyPath: m_LocalRotation.x
      value: 0.16484612
      objectReference: {fileID: 0}
    - target: {fileID: -2594260964506120097, guid: f16d097b4f9f7ee4b9b573828f17f1ad,
        type: 3}
      propertyPath: m_LocalRotation.y
      value: -0.0027122644
      objectReference: {fileID: 0}
    - target: {fileID: -2594260964506120097, guid: f16d097b4f9f7ee4b9b573828f17f1ad,
        type: 3}
      propertyPath: m_LocalRotation.z
      value: -0.037890043
      objectReference: {fileID: 0}
    - target: {fileID: -2389525917609993686, guid: f16d097b4f9f7ee4b9b573828f17f1ad,
        type: 3}
      propertyPath: m_LocalPosition.x
      value: -0.0024094305
      objectReference: {fileID: 0}
    - target: {fileID: -2389525917609993686, guid: f16d097b4f9f7ee4b9b573828f17f1ad,
        type: 3}
      propertyPath: m_LocalPosition.y
      value: 0.039460905
      objectReference: {fileID: 0}
    - target: {fileID: -2389525917609993686, guid: f16d097b4f9f7ee4b9b573828f17f1ad,
        type: 3}
      propertyPath: m_LocalPosition.z
      value: 0.0000000012286137
      objectReference: {fileID: 0}
    - target: {fileID: -2389525917609993686, guid: f16d097b4f9f7ee4b9b573828f17f1ad,
        type: 3}
      propertyPath: m_LocalRotation.w
      value: 0.98779577
      objectReference: {fileID: 0}
    - target: {fileID: -2389525917609993686, guid: f16d097b4f9f7ee4b9b573828f17f1ad,
        type: 3}
      propertyPath: m_LocalRotation.x
      value: 0.15139614
      objectReference: {fileID: 0}
    - target: {fileID: -2389525917609993686, guid: f16d097b4f9f7ee4b9b573828f17f1ad,
        type: 3}
      propertyPath: m_LocalRotation.y
      value: -0.0048158905
      objectReference: {fileID: 0}
    - target: {fileID: -2389525917609993686, guid: f16d097b4f9f7ee4b9b573828f17f1ad,
        type: 3}
      propertyPath: m_LocalRotation.z
      value: 0.03627213
      objectReference: {fileID: 0}
    - target: {fileID: -2072040086291044643, guid: f16d097b4f9f7ee4b9b573828f17f1ad,
        type: 3}
      propertyPath: m_LocalPosition.x
      value: 0.0000000023283064
      objectReference: {fileID: 0}
    - target: {fileID: -2072040086291044643, guid: f16d097b4f9f7ee4b9b573828f17f1ad,
        type: 3}
      propertyPath: m_LocalPosition.y
      value: 0.5275672
      objectReference: {fileID: 0}
    - target: {fileID: -2072040086291044643, guid: f16d097b4f9f7ee4b9b573828f17f1ad,
        type: 3}
      propertyPath: m_LocalPosition.z
      value: -9.313226e-10
      objectReference: {fileID: 0}
    - target: {fileID: -2072040086291044643, guid: f16d097b4f9f7ee4b9b573828f17f1ad,
        type: 3}
      propertyPath: m_LocalRotation.w
      value: 0.9046202
      objectReference: {fileID: 0}
    - target: {fileID: -2072040086291044643, guid: f16d097b4f9f7ee4b9b573828f17f1ad,
        type: 3}
      propertyPath: m_LocalRotation.x
      value: -0.40938705
      objectReference: {fileID: 0}
    - target: {fileID: -2072040086291044643, guid: f16d097b4f9f7ee4b9b573828f17f1ad,
        type: 3}
      propertyPath: m_LocalRotation.y
      value: 0.11326582
      objectReference: {fileID: 0}
    - target: {fileID: -2072040086291044643, guid: f16d097b4f9f7ee4b9b573828f17f1ad,
        type: 3}
      propertyPath: m_LocalRotation.z
      value: -0.035147894
      objectReference: {fileID: 0}
    - target: {fileID: -1864740628597940677, guid: f16d097b4f9f7ee4b9b573828f17f1ad,
        type: 3}
      propertyPath: m_LocalPosition.x
      value: 0.00017120186
      objectReference: {fileID: 0}
    - target: {fileID: -1864740628597940677, guid: f16d097b4f9f7ee4b9b573828f17f1ad,
        type: 3}
      propertyPath: m_LocalPosition.y
      value: 0.029847493
      objectReference: {fileID: 0}
    - target: {fileID: -1864740628597940677, guid: f16d097b4f9f7ee4b9b573828f17f1ad,
        type: 3}
      propertyPath: m_LocalPosition.z
      value: 0.0000000063679693
      objectReference: {fileID: 0}
    - target: {fileID: -1864740628597940677, guid: f16d097b4f9f7ee4b9b573828f17f1ad,
        type: 3}
      propertyPath: m_LocalRotation.w
      value: 0.99680054
      objectReference: {fileID: 0}
    - target: {fileID: -1864740628597940677, guid: f16d097b4f9f7ee4b9b573828f17f1ad,
        type: 3}
      propertyPath: m_LocalRotation.x
      value: 0.070573516
      objectReference: {fileID: 0}
    - target: {fileID: -1864740628597940677, guid: f16d097b4f9f7ee4b9b573828f17f1ad,
        type: 3}
      propertyPath: m_LocalRotation.y
      value: 0.010486011
      objectReference: {fileID: 0}
    - target: {fileID: -1864740628597940677, guid: f16d097b4f9f7ee4b9b573828f17f1ad,
        type: 3}
      propertyPath: m_LocalRotation.z
      value: 0.036030192
      objectReference: {fileID: 0}
    - target: {fileID: -1812909498023395591, guid: f16d097b4f9f7ee4b9b573828f17f1ad,
        type: 3}
      propertyPath: m_LocalPosition.x
      value: -0.000000017393745
      objectReference: {fileID: 0}
    - target: {fileID: -1812909498023395591, guid: f16d097b4f9f7ee4b9b573828f17f1ad,
        type: 3}
      propertyPath: m_LocalPosition.z
      value: 0.000000047118192
      objectReference: {fileID: 0}
    - target: {fileID: -1812909498023395591, guid: f16d097b4f9f7ee4b9b573828f17f1ad,
        type: 3}
      propertyPath: m_LocalRotation.w
      value: 0.9978374
      objectReference: {fileID: 0}
    - target: {fileID: -1812909498023395591, guid: f16d097b4f9f7ee4b9b573828f17f1ad,
        type: 3}
      propertyPath: m_LocalRotation.x
      value: 0.0046310714
      objectReference: {fileID: 0}
    - target: {fileID: -1812909498023395591, guid: f16d097b4f9f7ee4b9b573828f17f1ad,
        type: 3}
      propertyPath: m_LocalRotation.y
      value: -0.064703524
      objectReference: {fileID: 0}
    - target: {fileID: -1812909498023395591, guid: f16d097b4f9f7ee4b9b573828f17f1ad,
        type: 3}
      propertyPath: m_LocalRotation.z
      value: -0.0106065925
      objectReference: {fileID: 0}
    - target: {fileID: -1070350730909333850, guid: f16d097b4f9f7ee4b9b573828f17f1ad,
        type: 3}
      propertyPath: m_LocalPosition.x
      value: -0.035938393
      objectReference: {fileID: 0}
    - target: {fileID: -1070350730909333850, guid: f16d097b4f9f7ee4b9b573828f17f1ad,
        type: 3}
      propertyPath: m_LocalPosition.y
      value: 0.11562586
      objectReference: {fileID: 0}
    - target: {fileID: -1070350730909333850, guid: f16d097b4f9f7ee4b9b573828f17f1ad,
        type: 3}
      propertyPath: m_LocalPosition.z
      value: -0.0013029426
      objectReference: {fileID: 0}
    - target: {fileID: -1070350730909333850, guid: f16d097b4f9f7ee4b9b573828f17f1ad,
        type: 3}
      propertyPath: m_LocalRotation.w
      value: -0.9947677
      objectReference: {fileID: 0}
    - target: {fileID: -1070350730909333850, guid: f16d097b4f9f7ee4b9b573828f17f1ad,
        type: 3}
      propertyPath: m_LocalRotation.x
      value: -0.042871047
      objectReference: {fileID: 0}
    - target: {fileID: -1070350730909333850, guid: f16d097b4f9f7ee4b9b573828f17f1ad,
        type: 3}
      propertyPath: m_LocalRotation.y
      value: -0.0025581114
      objectReference: {fileID: 0}
    - target: {fileID: -1070350730909333850, guid: f16d097b4f9f7ee4b9b573828f17f1ad,
        type: 3}
      propertyPath: m_LocalRotation.z
      value: -0.09269672
      objectReference: {fileID: 0}
    - target: {fileID: -870823317777057635, guid: f16d097b4f9f7ee4b9b573828f17f1ad,
        type: 3}
      propertyPath: m_LocalPosition.x
      value: -0.008861488
      objectReference: {fileID: 0}
    - target: {fileID: -870823317777057635, guid: f16d097b4f9f7ee4b9b573828f17f1ad,
        type: 3}
      propertyPath: m_LocalPosition.y
      value: 0.04264003
      objectReference: {fileID: 0}
    - target: {fileID: -870823317777057635, guid: f16d097b4f9f7ee4b9b573828f17f1ad,
        type: 3}
      propertyPath: m_LocalPosition.z
      value: -0.000000037252903
      objectReference: {fileID: 0}
    - target: {fileID: -870823317777057635, guid: f16d097b4f9f7ee4b9b573828f17f1ad,
        type: 3}
      propertyPath: m_LocalRotation.w
      value: -0.9788335
      objectReference: {fileID: 0}
    - target: {fileID: -870823317777057635, guid: f16d097b4f9f7ee4b9b573828f17f1ad,
        type: 3}
      propertyPath: m_LocalRotation.x
      value: 0.051010326
      objectReference: {fileID: 0}
    - target: {fileID: -870823317777057635, guid: f16d097b4f9f7ee4b9b573828f17f1ad,
        type: 3}
      propertyPath: m_LocalRotation.y
      value: 0.036944833
      objectReference: {fileID: 0}
    - target: {fileID: -870823317777057635, guid: f16d097b4f9f7ee4b9b573828f17f1ad,
        type: 3}
      propertyPath: m_LocalRotation.z
      value: 0.19472587
      objectReference: {fileID: 0}
    - target: {fileID: -104578136787704052, guid: f16d097b4f9f7ee4b9b573828f17f1ad,
        type: 3}
      propertyPath: m_LocalPosition.x
      value: 0.0132970195
      objectReference: {fileID: 0}
    - target: {fileID: -104578136787704052, guid: f16d097b4f9f7ee4b9b573828f17f1ad,
        type: 3}
      propertyPath: m_LocalPosition.y
      value: 0.11816758
      objectReference: {fileID: 0}
    - target: {fileID: -104578136787704052, guid: f16d097b4f9f7ee4b9b573828f17f1ad,
        type: 3}
      propertyPath: m_LocalPosition.z
      value: -0.003831122
      objectReference: {fileID: 0}
    - target: {fileID: -104578136787704052, guid: f16d097b4f9f7ee4b9b573828f17f1ad,
        type: 3}
      propertyPath: m_LocalRotation.w
      value: -0.9853051
      objectReference: {fileID: 0}
    - target: {fileID: -104578136787704052, guid: f16d097b4f9f7ee4b9b573828f17f1ad,
        type: 3}
      propertyPath: m_LocalRotation.x
      value: -0.16109712
      objectReference: {fileID: 0}
    - target: {fileID: -104578136787704052, guid: f16d097b4f9f7ee4b9b573828f17f1ad,
        type: 3}
      propertyPath: m_LocalRotation.y
      value: -0.0029551375
      objectReference: {fileID: 0}
    - target: {fileID: -104578136787704052, guid: f16d097b4f9f7ee4b9b573828f17f1ad,
        type: 3}
      propertyPath: m_LocalRotation.z
      value: -0.056683607
      objectReference: {fileID: 0}
    - target: {fileID: 366175167995203695, guid: f16d097b4f9f7ee4b9b573828f17f1ad,
        type: 3}
      propertyPath: m_LocalPosition.x
      value: 7.089202e-13
      objectReference: {fileID: 0}
    - target: {fileID: 366175167995203695, guid: f16d097b4f9f7ee4b9b573828f17f1ad,
        type: 3}
      propertyPath: m_LocalPosition.y
      value: 0.12178644
      objectReference: {fileID: 0}
    - target: {fileID: 366175167995203695, guid: f16d097b4f9f7ee4b9b573828f17f1ad,
        type: 3}
      propertyPath: m_LocalPosition.z
      value: 0
      objectReference: {fileID: 0}
    - target: {fileID: 366175167995203695, guid: f16d097b4f9f7ee4b9b573828f17f1ad,
        type: 3}
      propertyPath: m_LocalRotation.w
      value: 0.9990695
      objectReference: {fileID: 0}
    - target: {fileID: 366175167995203695, guid: f16d097b4f9f7ee4b9b573828f17f1ad,
        type: 3}
      propertyPath: m_LocalRotation.x
      value: 0.025019053
      objectReference: {fileID: 0}
    - target: {fileID: 366175167995203695, guid: f16d097b4f9f7ee4b9b573828f17f1ad,
        type: 3}
      propertyPath: m_LocalRotation.y
      value: 0.0072039035
      objectReference: {fileID: 0}
    - target: {fileID: 366175167995203695, guid: f16d097b4f9f7ee4b9b573828f17f1ad,
        type: 3}
      propertyPath: m_LocalRotation.z
      value: -0.03438352
      objectReference: {fileID: 0}
    - target: {fileID: 608321761475470972, guid: f16d097b4f9f7ee4b9b573828f17f1ad,
        type: 3}
      propertyPath: m_LocalPosition.x
      value: 0.000000003259629
      objectReference: {fileID: 0}
    - target: {fileID: 608321761475470972, guid: f16d097b4f9f7ee4b9b573828f17f1ad,
        type: 3}
      propertyPath: m_LocalPosition.y
      value: 0.55867666
      objectReference: {fileID: 0}
    - target: {fileID: 608321761475470972, guid: f16d097b4f9f7ee4b9b573828f17f1ad,
        type: 3}
      propertyPath: m_LocalPosition.z
      value: 0.000000007450581
      objectReference: {fileID: 0}
    - target: {fileID: 608321761475470972, guid: f16d097b4f9f7ee4b9b573828f17f1ad,
        type: 3}
      propertyPath: m_LocalRotation.w
      value: 0.8386765
      objectReference: {fileID: 0}
    - target: {fileID: 608321761475470972, guid: f16d097b4f9f7ee4b9b573828f17f1ad,
        type: 3}
      propertyPath: m_LocalRotation.x
      value: 0.52750534
      objectReference: {fileID: 0}
    - target: {fileID: 608321761475470972, guid: f16d097b4f9f7ee4b9b573828f17f1ad,
        type: 3}
      propertyPath: m_LocalRotation.y
      value: -0.1277889
      objectReference: {fileID: 0}
    - target: {fileID: 608321761475470972, guid: f16d097b4f9f7ee4b9b573828f17f1ad,
        type: 3}
      propertyPath: m_LocalRotation.z
      value: 0.04505409
      objectReference: {fileID: 0}
    - target: {fileID: 919132149155446097, guid: f16d097b4f9f7ee4b9b573828f17f1ad,
        type: 3}
      propertyPath: m_Name
      value: Judy
      objectReference: {fileID: 0}
    - target: {fileID: 1092408308860062549, guid: f16d097b4f9f7ee4b9b573828f17f1ad,
        type: 3}
      propertyPath: m_LocalPosition.x
      value: -0.00042365774
      objectReference: {fileID: 0}
    - target: {fileID: 1092408308860062549, guid: f16d097b4f9f7ee4b9b573828f17f1ad,
        type: 3}
      propertyPath: m_LocalPosition.y
      value: 0.02912417
      objectReference: {fileID: 0}
    - target: {fileID: 1092408308860062549, guid: f16d097b4f9f7ee4b9b573828f17f1ad,
        type: 3}
      propertyPath: m_LocalPosition.z
      value: -4.092726e-12
      objectReference: {fileID: 0}
    - target: {fileID: 1092408308860062549, guid: f16d097b4f9f7ee4b9b573828f17f1ad,
        type: 3}
      propertyPath: m_LocalRotation.w
      value: -0.98443913
      objectReference: {fileID: 0}
    - target: {fileID: 1092408308860062549, guid: f16d097b4f9f7ee4b9b573828f17f1ad,
        type: 3}
      propertyPath: m_LocalRotation.x
      value: -0.17249224
      objectReference: {fileID: 0}
    - target: {fileID: 1092408308860062549, guid: f16d097b4f9f7ee4b9b573828f17f1ad,
        type: 3}
      propertyPath: m_LocalRotation.y
      value: 0.003426938
      objectReference: {fileID: 0}
    - target: {fileID: 1092408308860062549, guid: f16d097b4f9f7ee4b9b573828f17f1ad,
        type: 3}
      propertyPath: m_LocalRotation.z
      value: 0.0333833
      objectReference: {fileID: 0}
    - target: {fileID: 1189529853000058984, guid: f16d097b4f9f7ee4b9b573828f17f1ad,
        type: 3}
      propertyPath: m_LocalPosition.x
      value: 0.033843778
      objectReference: {fileID: 0}
    - target: {fileID: 1189529853000058984, guid: f16d097b4f9f7ee4b9b573828f17f1ad,
        type: 3}
      propertyPath: m_LocalPosition.y
      value: 0.10932129
      objectReference: {fileID: 0}
    - target: {fileID: 1189529853000058984, guid: f16d097b4f9f7ee4b9b573828f17f1ad,
        type: 3}
      propertyPath: m_LocalPosition.z
      value: -0.0015912503
      objectReference: {fileID: 0}
    - target: {fileID: 1189529853000058984, guid: f16d097b4f9f7ee4b9b573828f17f1ad,
        type: 3}
      propertyPath: m_LocalRotation.w
      value: -0.9771422
      objectReference: {fileID: 0}
    - target: {fileID: 1189529853000058984, guid: f16d097b4f9f7ee4b9b573828f17f1ad,
        type: 3}
      propertyPath: m_LocalRotation.x
      value: -0.21192674
      objectReference: {fileID: 0}
    - target: {fileID: 1189529853000058984, guid: f16d097b4f9f7ee4b9b573828f17f1ad,
        type: 3}
      propertyPath: m_LocalRotation.y
      value: 0.006941137
      objectReference: {fileID: 0}
    - target: {fileID: 1189529853000058984, guid: f16d097b4f9f7ee4b9b573828f17f1ad,
        type: 3}
      propertyPath: m_LocalRotation.z
      value: -0.015228518
      objectReference: {fileID: 0}
    - target: {fileID: 1330755669629619180, guid: f16d097b4f9f7ee4b9b573828f17f1ad,
        type: 3}
      propertyPath: m_LocalPosition.x
      value: 0.035483703
      objectReference: {fileID: 0}
    - target: {fileID: 1330755669629619180, guid: f16d097b4f9f7ee4b9b573828f17f1ad,
        type: 3}
      propertyPath: m_LocalPosition.y
      value: 0.11657875
      objectReference: {fileID: 0}
    - target: {fileID: 1330755669629619180, guid: f16d097b4f9f7ee4b9b573828f17f1ad,
        type: 3}
      propertyPath: m_LocalPosition.z
      value: -0.0016663764
      objectReference: {fileID: 0}
    - target: {fileID: 1330755669629619180, guid: f16d097b4f9f7ee4b9b573828f17f1ad,
        type: 3}
      propertyPath: m_LocalRotation.w
      value: 0.9954864
      objectReference: {fileID: 0}
    - target: {fileID: 1330755669629619180, guid: f16d097b4f9f7ee4b9b573828f17f1ad,
        type: 3}
      propertyPath: m_LocalRotation.x
      value: 0.047483448
      objectReference: {fileID: 0}
    - target: {fileID: 1330755669629619180, guid: f16d097b4f9f7ee4b9b573828f17f1ad,
        type: 3}
      propertyPath: m_LocalRotation.y
      value: -0.0034149804
      objectReference: {fileID: 0}
    - target: {fileID: 1330755669629619180, guid: f16d097b4f9f7ee4b9b573828f17f1ad,
        type: 3}
      propertyPath: m_LocalRotation.z
      value: -0.08210091
      objectReference: {fileID: 0}
    - target: {fileID: 1564860333797465651, guid: f16d097b4f9f7ee4b9b573828f17f1ad,
        type: 3}
      propertyPath: m_LocalPosition.x
      value: -0.0016744192
      objectReference: {fileID: 0}
    - target: {fileID: 1564860333797465651, guid: f16d097b4f9f7ee4b9b573828f17f1ad,
        type: 3}
      propertyPath: m_LocalPosition.y
      value: 0.030544916
      objectReference: {fileID: 0}
    - target: {fileID: 1564860333797465651, guid: f16d097b4f9f7ee4b9b573828f17f1ad,
        type: 3}
      propertyPath: m_LocalPosition.z
      value: -0.000000029733087
      objectReference: {fileID: 0}
    - target: {fileID: 1564860333797465651, guid: f16d097b4f9f7ee4b9b573828f17f1ad,
        type: 3}
      propertyPath: m_LocalRotation.w
      value: 0.9827804
      objectReference: {fileID: 0}
    - target: {fileID: 1564860333797465651, guid: f16d097b4f9f7ee4b9b573828f17f1ad,
        type: 3}
      propertyPath: m_LocalRotation.x
      value: 0.18148926
      objectReference: {fileID: 0}
    - target: {fileID: 1564860333797465651, guid: f16d097b4f9f7ee4b9b573828f17f1ad,
        type: 3}
      propertyPath: m_LocalRotation.y
      value: -0.0029493412
      objectReference: {fileID: 0}
    - target: {fileID: 1564860333797465651, guid: f16d097b4f9f7ee4b9b573828f17f1ad,
        type: 3}
      propertyPath: m_LocalRotation.z
      value: 0.03457879
      objectReference: {fileID: 0}
    - target: {fileID: 1852576806548013000, guid: f16d097b4f9f7ee4b9b573828f17f1ad,
        type: 3}
      propertyPath: m_LocalPosition.x
      value: -0.00000009476662
      objectReference: {fileID: 0}
    - target: {fileID: 1852576806548013000, guid: f16d097b4f9f7ee4b9b573828f17f1ad,
        type: 3}
      propertyPath: m_LocalPosition.y
      value: 0.2670815
      objectReference: {fileID: 0}
    - target: {fileID: 1852576806548013000, guid: f16d097b4f9f7ee4b9b573828f17f1ad,
        type: 3}
      propertyPath: m_LocalPosition.z
      value: 0.00000006563414
      objectReference: {fileID: 0}
    - target: {fileID: 1852576806548013000, guid: f16d097b4f9f7ee4b9b573828f17f1ad,
        type: 3}
      propertyPath: m_LocalRotation.w
      value: 0.9715914
      objectReference: {fileID: 0}
    - target: {fileID: 1852576806548013000, guid: f16d097b4f9f7ee4b9b573828f17f1ad,
        type: 3}
      propertyPath: m_LocalRotation.x
      value: 0.08056989
      objectReference: {fileID: 0}
    - target: {fileID: 1852576806548013000, guid: f16d097b4f9f7ee4b9b573828f17f1ad,
        type: 3}
      propertyPath: m_LocalRotation.y
      value: -0.21733879
      objectReference: {fileID: 0}
    - target: {fileID: 1852576806548013000, guid: f16d097b4f9f7ee4b9b573828f17f1ad,
        type: 3}
      propertyPath: m_LocalRotation.z
      value: -0.047776673
      objectReference: {fileID: 0}
    - target: {fileID: 2559285840627121667, guid: f16d097b4f9f7ee4b9b573828f17f1ad,
        type: 3}
      propertyPath: m_LocalPosition.x
      value: -0.11280148
      objectReference: {fileID: 0}
    - target: {fileID: 2559285840627121667, guid: f16d097b4f9f7ee4b9b573828f17f1ad,
        type: 3}
      propertyPath: m_LocalPosition.y
      value: -0.050573707
      objectReference: {fileID: 0}
    - target: {fileID: 2559285840627121667, guid: f16d097b4f9f7ee4b9b573828f17f1ad,
        type: 3}
      propertyPath: m_LocalRotation.w
      value: 0.15357749
      objectReference: {fileID: 0}
    - target: {fileID: 2559285840627121667, guid: f16d097b4f9f7ee4b9b573828f17f1ad,
        type: 3}
      propertyPath: m_LocalRotation.x
      value: -0.0643152
      objectReference: {fileID: 0}
    - target: {fileID: 2559285840627121667, guid: f16d097b4f9f7ee4b9b573828f17f1ad,
        type: 3}
      propertyPath: m_LocalRotation.y
      value: 0.1274354
      objectReference: {fileID: 0}
    - target: {fileID: 2559285840627121667, guid: f16d097b4f9f7ee4b9b573828f17f1ad,
        type: 3}
      propertyPath: m_LocalRotation.z
      value: 0.9777718
      objectReference: {fileID: 0}
    - target: {fileID: 2563496969622287784, guid: f16d097b4f9f7ee4b9b573828f17f1ad,
        type: 3}
      propertyPath: m_LocalPosition.x
      value: -0.00000002241893
      objectReference: {fileID: 0}
    - target: {fileID: 2563496969622287784, guid: f16d097b4f9f7ee4b9b573828f17f1ad,
        type: 3}
      propertyPath: m_LocalPosition.y
      value: 0.27711695
      objectReference: {fileID: 0}
    - target: {fileID: 2563496969622287784, guid: f16d097b4f9f7ee4b9b573828f17f1ad,
        type: 3}
      propertyPath: m_LocalPosition.z
      value: 0.000000041341536
      objectReference: {fileID: 0}
    - target: {fileID: 2563496969622287784, guid: f16d097b4f9f7ee4b9b573828f17f1ad,
        type: 3}
      propertyPath: m_LocalRotation.w
      value: 0.9804231
      objectReference: {fileID: 0}
    - target: {fileID: 2563496969622287784, guid: f16d097b4f9f7ee4b9b573828f17f1ad,
        type: 3}
      propertyPath: m_LocalRotation.x
      value: 0.017196564
      objectReference: {fileID: 0}
    - target: {fileID: 2563496969622287784, guid: f16d097b4f9f7ee4b9b573828f17f1ad,
        type: 3}
      propertyPath: m_LocalRotation.y
      value: 0.18850458
      objectReference: {fileID: 0}
    - target: {fileID: 2563496969622287784, guid: f16d097b4f9f7ee4b9b573828f17f1ad,
        type: 3}
      propertyPath: m_LocalRotation.z
      value: 0.05422969
      objectReference: {fileID: 0}
    - target: {fileID: 2916570863362053800, guid: f16d097b4f9f7ee4b9b573828f17f1ad,
        type: 3}
      propertyPath: m_LocalPosition.x
      value: 0.0000000018626451
      objectReference: {fileID: 0}
    - target: {fileID: 2916570863362053800, guid: f16d097b4f9f7ee4b9b573828f17f1ad,
        type: 3}
      propertyPath: m_LocalPosition.y
      value: 0.16123909
      objectReference: {fileID: 0}
    - target: {fileID: 2916570863362053800, guid: f16d097b4f9f7ee4b9b573828f17f1ad,
        type: 3}
      propertyPath: m_LocalPosition.z
      value: -0.000000044703484
      objectReference: {fileID: 0}
    - target: {fileID: 2916570863362053800, guid: f16d097b4f9f7ee4b9b573828f17f1ad,
        type: 3}
      propertyPath: m_LocalRotation.w
      value: 0.90142614
      objectReference: {fileID: 0}
    - target: {fileID: 2916570863362053800, guid: f16d097b4f9f7ee4b9b573828f17f1ad,
        type: 3}
      propertyPath: m_LocalRotation.x
      value: 0.43078342
      objectReference: {fileID: 0}
    - target: {fileID: 2916570863362053800, guid: f16d097b4f9f7ee4b9b573828f17f1ad,
        type: 3}
      propertyPath: m_LocalRotation.y
      value: -0.039964125
      objectReference: {fileID: 0}
    - target: {fileID: 2916570863362053800, guid: f16d097b4f9f7ee4b9b573828f17f1ad,
        type: 3}
      propertyPath: m_LocalRotation.z
      value: 0.016110085
      objectReference: {fileID: 0}
    - target: {fileID: 3183749884578473501, guid: f16d097b4f9f7ee4b9b573828f17f1ad,
        type: 3}
      propertyPath: m_LocalPosition.x
      value: 0.00040051554
      objectReference: {fileID: 0}
    - target: {fileID: 3183749884578473501, guid: f16d097b4f9f7ee4b9b573828f17f1ad,
        type: 3}
      propertyPath: m_LocalPosition.y
      value: 0.032199103
      objectReference: {fileID: 0}
    - target: {fileID: 3183749884578473501, guid: f16d097b4f9f7ee4b9b573828f17f1ad,
        type: 3}
      propertyPath: m_LocalPosition.z
      value: -0.000000020967093
      objectReference: {fileID: 0}
    - target: {fileID: 3183749884578473501, guid: f16d097b4f9f7ee4b9b573828f17f1ad,
        type: 3}
      propertyPath: m_LocalRotation.w
      value: 0.98668253
      objectReference: {fileID: 0}
    - target: {fileID: 3183749884578473501, guid: f16d097b4f9f7ee4b9b573828f17f1ad,
        type: 3}
      propertyPath: m_LocalRotation.x
      value: 0.1602233
      objectReference: {fileID: 0}
    - target: {fileID: 3183749884578473501, guid: f16d097b4f9f7ee4b9b573828f17f1ad,
        type: 3}
      propertyPath: m_LocalRotation.y
      value: 0.0043538944
      objectReference: {fileID: 0}
    - target: {fileID: 3183749884578473501, guid: f16d097b4f9f7ee4b9b573828f17f1ad,
        type: 3}
      propertyPath: m_LocalRotation.z
      value: 0.027698671
      objectReference: {fileID: 0}
    - target: {fileID: 3667946887678727147, guid: f16d097b4f9f7ee4b9b573828f17f1ad,
        type: 3}
      propertyPath: m_LocalPosition.x
      value: -0.011202578
      objectReference: {fileID: 0}
    - target: {fileID: 3667946887678727147, guid: f16d097b4f9f7ee4b9b573828f17f1ad,
        type: 3}
      propertyPath: m_LocalPosition.y
      value: 0.11939052
      objectReference: {fileID: 0}
    - target: {fileID: 3667946887678727147, guid: f16d097b4f9f7ee4b9b573828f17f1ad,
        type: 3}
      propertyPath: m_LocalPosition.z
      value: -0.003987592
      objectReference: {fileID: 0}
    - target: {fileID: 3667946887678727147, guid: f16d097b4f9f7ee4b9b573828f17f1ad,
        type: 3}
      propertyPath: m_LocalRotation.w
      value: -0.9920088
      objectReference: {fileID: 0}
    - target: {fileID: 3667946887678727147, guid: f16d097b4f9f7ee4b9b573828f17f1ad,
        type: 3}
      propertyPath: m_LocalRotation.x
      value: -0.113961145
      objectReference: {fileID: 0}
    - target: {fileID: 3667946887678727147, guid: f16d097b4f9f7ee4b9b573828f17f1ad,
        type: 3}
      propertyPath: m_LocalRotation.y
      value: -0.010379671
      objectReference: {fileID: 0}
    - target: {fileID: 3667946887678727147, guid: f16d097b4f9f7ee4b9b573828f17f1ad,
        type: 3}
      propertyPath: m_LocalRotation.z
      value: -0.05313877
      objectReference: {fileID: 0}
    - target: {fileID: 4747904710347621765, guid: f16d097b4f9f7ee4b9b573828f17f1ad,
        type: 3}
      propertyPath: m_LocalPosition.x
      value: -0.033054907
      objectReference: {fileID: 0}
    - target: {fileID: 4747904710347621765, guid: f16d097b4f9f7ee4b9b573828f17f1ad,
        type: 3}
      propertyPath: m_LocalPosition.y
      value: 0.10810058
      objectReference: {fileID: 0}
    - target: {fileID: 4747904710347621765, guid: f16d097b4f9f7ee4b9b573828f17f1ad,
        type: 3}
      propertyPath: m_LocalPosition.z
      value: -0.0024458915
      objectReference: {fileID: 0}
    - target: {fileID: 4747904710347621765, guid: f16d097b4f9f7ee4b9b573828f17f1ad,
        type: 3}
      propertyPath: m_LocalRotation.w
      value: 0.9765231
      objectReference: {fileID: 0}
    - target: {fileID: 4747904710347621765, guid: f16d097b4f9f7ee4b9b573828f17f1ad,
        type: 3}
      propertyPath: m_LocalRotation.x
      value: 0.21520576
      objectReference: {fileID: 0}
    - target: {fileID: 4747904710347621765, guid: f16d097b4f9f7ee4b9b573828f17f1ad,
        type: 3}
      propertyPath: m_LocalRotation.y
      value: 0.009171961
      objectReference: {fileID: 0}
    - target: {fileID: 4747904710347621765, guid: f16d097b4f9f7ee4b9b573828f17f1ad,
        type: 3}
      propertyPath: m_LocalRotation.z
      value: 0.0022668238
      objectReference: {fileID: 0}
    - target: {fileID: 5048025441337412694, guid: f16d097b4f9f7ee4b9b573828f17f1ad,
        type: 3}
      propertyPath: m_LocalPosition.x
      value: 0.026024884
      objectReference: {fileID: 0}
    - target: {fileID: 5048025441337412694, guid: f16d097b4f9f7ee4b9b573828f17f1ad,
        type: 3}
      propertyPath: m_LocalPosition.y
      value: 0.045232274
      objectReference: {fileID: 0}
    - target: {fileID: 5048025441337412694, guid: f16d097b4f9f7ee4b9b573828f17f1ad,
        type: 3}
      propertyPath: m_LocalPosition.z
      value: 0.018838283
      objectReference: {fileID: 0}
    - target: {fileID: 5048025441337412694, guid: f16d097b4f9f7ee4b9b573828f17f1ad,
        type: 3}
      propertyPath: m_LocalRotation.w
      value: 0.96775967
      objectReference: {fileID: 0}
    - target: {fileID: 5048025441337412694, guid: f16d097b4f9f7ee4b9b573828f17f1ad,
        type: 3}
      propertyPath: m_LocalRotation.x
      value: 0.20013018
      objectReference: {fileID: 0}
    - target: {fileID: 5048025441337412694, guid: f16d097b4f9f7ee4b9b573828f17f1ad,
        type: 3}
      propertyPath: m_LocalRotation.y
      value: 0.012246364
      objectReference: {fileID: 0}
    - target: {fileID: 5048025441337412694, guid: f16d097b4f9f7ee4b9b573828f17f1ad,
        type: 3}
      propertyPath: m_LocalRotation.z
      value: -0.15244378
      objectReference: {fileID: 0}
    - target: {fileID: 5097370190579632962, guid: f16d097b4f9f7ee4b9b573828f17f1ad,
        type: 3}
      propertyPath: m_LocalPosition.x
      value: -0.00018043765
      objectReference: {fileID: 0}
    - target: {fileID: 5097370190579632962, guid: f16d097b4f9f7ee4b9b573828f17f1ad,
        type: 3}
      propertyPath: m_LocalPosition.y
      value: 0.030446667
      objectReference: {fileID: 0}
    - target: {fileID: 5097370190579632962, guid: f16d097b4f9f7ee4b9b573828f17f1ad,
        type: 3}
      propertyPath: m_LocalPosition.z
      value: 0.00000007265061
      objectReference: {fileID: 0}
    - target: {fileID: 5097370190579632962, guid: f16d097b4f9f7ee4b9b573828f17f1ad,
        type: 3}
      propertyPath: m_LocalRotation.w
      value: -0.99614084
      objectReference: {fileID: 0}
    - target: {fileID: 5097370190579632962, guid: f16d097b4f9f7ee4b9b573828f17f1ad,
        type: 3}
      propertyPath: m_LocalRotation.x
      value: -0.07731775
      objectReference: {fileID: 0}
    - target: {fileID: 5097370190579632962, guid: f16d097b4f9f7ee4b9b573828f17f1ad,
        type: 3}
      propertyPath: m_LocalRotation.y
      value: 0.011432377
      objectReference: {fileID: 0}
    - target: {fileID: 5097370190579632962, guid: f16d097b4f9f7ee4b9b573828f17f1ad,
        type: 3}
      propertyPath: m_LocalRotation.z
      value: 0.0399337
      objectReference: {fileID: 0}
    - target: {fileID: 5372056943023685468, guid: f16d097b4f9f7ee4b9b573828f17f1ad,
        type: 3}
      propertyPath: m_LocalPosition.x
      value: 0.00085466215
      objectReference: {fileID: 0}
    - target: {fileID: 5372056943023685468, guid: f16d097b4f9f7ee4b9b573828f17f1ad,
        type: 3}
      propertyPath: m_LocalPosition.y
      value: 0.026014429
      objectReference: {fileID: 0}
    - target: {fileID: 5372056943023685468, guid: f16d097b4f9f7ee4b9b573828f17f1ad,
        type: 3}
      propertyPath: m_LocalPosition.z
      value: 0.00000005487388
      objectReference: {fileID: 0}
    - target: {fileID: 5372056943023685468, guid: f16d097b4f9f7ee4b9b573828f17f1ad,
        type: 3}
      propertyPath: m_LocalRotation.w
      value: -0.98810464
      objectReference: {fileID: 0}
    - target: {fileID: 5372056943023685468, guid: f16d097b4f9f7ee4b9b573828f17f1ad,
        type: 3}
      propertyPath: m_LocalRotation.x
      value: -0.151549
      objectReference: {fileID: 0}
    - target: {fileID: 5372056943023685468, guid: f16d097b4f9f7ee4b9b573828f17f1ad,
        type: 3}
      propertyPath: m_LocalRotation.y
      value: -0.0012064871
      objectReference: {fileID: 0}
    - target: {fileID: 5372056943023685468, guid: f16d097b4f9f7ee4b9b573828f17f1ad,
        type: 3}
      propertyPath: m_LocalRotation.z
      value: 0.026089614
      objectReference: {fileID: 0}
    - target: {fileID: 5465940246521907071, guid: f16d097b4f9f7ee4b9b573828f17f1ad,
        type: 3}
      propertyPath: m_LocalPosition.x
      value: 0.0025355816
      objectReference: {fileID: 0}
    - target: {fileID: 5465940246521907071, guid: f16d097b4f9f7ee4b9b573828f17f1ad,
        type: 3}
      propertyPath: m_LocalPosition.y
      value: 1.1713128
      objectReference: {fileID: 0}
    - target: {fileID: 5465940246521907071, guid: f16d097b4f9f7ee4b9b573828f17f1ad,
        type: 3}
      propertyPath: m_LocalPosition.z
      value: -0.001917839
      objectReference: {fileID: 0}
    - target: {fileID: 5465940246521907071, guid: f16d097b4f9f7ee4b9b573828f17f1ad,
        type: 3}
      propertyPath: m_LocalRotation.w
      value: 0.99008024
      objectReference: {fileID: 0}
    - target: {fileID: 5465940246521907071, guid: f16d097b4f9f7ee4b9b573828f17f1ad,
        type: 3}
      propertyPath: m_LocalRotation.x
      value: -0.06688668
      objectReference: {fileID: 0}
    - target: {fileID: 5465940246521907071, guid: f16d097b4f9f7ee4b9b573828f17f1ad,
        type: 3}
      propertyPath: m_LocalRotation.y
      value: -0.01847024
      objectReference: {fileID: 0}
    - target: {fileID: 5465940246521907071, guid: f16d097b4f9f7ee4b9b573828f17f1ad,
        type: 3}
      propertyPath: m_LocalRotation.z
      value: 0.12217261
      objectReference: {fileID: 0}
    - target: {fileID: 5866666021909216657, guid: f16d097b4f9f7ee4b9b573828f17f1ad,
        type: 3}
      propertyPath: m_Enabled
      value: 0
      objectReference: {fileID: 0}
    - target: {fileID: 5866666021909216657, guid: f16d097b4f9f7ee4b9b573828f17f1ad,
        type: 3}
      propertyPath: m_Controller
      value: 
      objectReference: {fileID: 22100000, guid: 99bea165e58b40c4ba6740d9b4fcd9a1,
        type: 2}
    - target: {fileID: 6000407479487422213, guid: f16d097b4f9f7ee4b9b573828f17f1ad,
        type: 3}
      propertyPath: m_LocalPosition.x
      value: -0.000000018568244
      objectReference: {fileID: 0}
    - target: {fileID: 6000407479487422213, guid: f16d097b4f9f7ee4b9b573828f17f1ad,
        type: 3}
      propertyPath: m_LocalPosition.y
      value: 0.11571529
      objectReference: {fileID: 0}
    - target: {fileID: 6000407479487422213, guid: f16d097b4f9f7ee4b9b573828f17f1ad,
        type: 3}
      propertyPath: m_LocalPosition.z
      value: 0.0000000018626451
      objectReference: {fileID: 0}
    - target: {fileID: 6000407479487422213, guid: f16d097b4f9f7ee4b9b573828f17f1ad,
        type: 3}
      propertyPath: m_LocalRotation.w
      value: 0.8861832
      objectReference: {fileID: 0}
    - target: {fileID: 6000407479487422213, guid: f16d097b4f9f7ee4b9b573828f17f1ad,
        type: 3}
      propertyPath: m_LocalRotation.x
      value: 0.4447251
      objectReference: {fileID: 0}
    - target: {fileID: 6000407479487422213, guid: f16d097b4f9f7ee4b9b573828f17f1ad,
        type: 3}
      propertyPath: m_LocalRotation.y
      value: 0.12964733
      objectReference: {fileID: 0}
    - target: {fileID: 6000407479487422213, guid: f16d097b4f9f7ee4b9b573828f17f1ad,
        type: 3}
      propertyPath: m_LocalRotation.z
      value: -0.009507911
      objectReference: {fileID: 0}
    - target: {fileID: 6341119541397085964, guid: f16d097b4f9f7ee4b9b573828f17f1ad,
        type: 3}
      propertyPath: m_LocalPosition.x
      value: 0.0019295614
      objectReference: {fileID: 0}
    - target: {fileID: 6341119541397085964, guid: f16d097b4f9f7ee4b9b573828f17f1ad,
        type: 3}
      propertyPath: m_LocalPosition.y
      value: 0.038057994
      objectReference: {fileID: 0}
    - target: {fileID: 6341119541397085964, guid: f16d097b4f9f7ee4b9b573828f17f1ad,
        type: 3}
      propertyPath: m_LocalPosition.z
      value: 0.000000060851505
      objectReference: {fileID: 0}
    - target: {fileID: 6341119541397085964, guid: f16d097b4f9f7ee4b9b573828f17f1ad,
        type: 3}
      propertyPath: m_LocalRotation.w
      value: -0.9930369
      objectReference: {fileID: 0}
    - target: {fileID: 6341119541397085964, guid: f16d097b4f9f7ee4b9b573828f17f1ad,
        type: 3}
      propertyPath: m_LocalRotation.x
      value: -0.11374644
      objectReference: {fileID: 0}
    - target: {fileID: 6341119541397085964, guid: f16d097b4f9f7ee4b9b573828f17f1ad,
        type: 3}
      propertyPath: m_LocalRotation.y
      value: -0.004953622
      objectReference: {fileID: 0}
    - target: {fileID: 6341119541397085964, guid: f16d097b4f9f7ee4b9b573828f17f1ad,
        type: 3}
      propertyPath: m_LocalRotation.z
      value: 0.030249277
      objectReference: {fileID: 0}
    - target: {fileID: 6502182839619065283, guid: f16d097b4f9f7ee4b9b573828f17f1ad,
        type: 3}
      propertyPath: m_LocalPosition.x
      value: 0.000000017935662
      objectReference: {fileID: 0}
    - target: {fileID: 6502182839619065283, guid: f16d097b4f9f7ee4b9b573828f17f1ad,
        type: 3}
      propertyPath: m_LocalPosition.y
      value: 0.26654023
      objectReference: {fileID: 0}
    - target: {fileID: 6502182839619065283, guid: f16d097b4f9f7ee4b9b573828f17f1ad,
        type: 3}
      propertyPath: m_LocalPosition.z
      value: 0.00000006953792
      objectReference: {fileID: 0}
    - target: {fileID: 6502182839619065283, guid: f16d097b4f9f7ee4b9b573828f17f1ad,
        type: 3}
      propertyPath: m_LocalRotation.w
      value: 0.9402052
      objectReference: {fileID: 0}
    - target: {fileID: 6502182839619065283, guid: f16d097b4f9f7ee4b9b573828f17f1ad,
        type: 3}
      propertyPath: m_LocalRotation.x
      value: 0.07697413
      objectReference: {fileID: 0}
    - target: {fileID: 6502182839619065283, guid: f16d097b4f9f7ee4b9b573828f17f1ad,
        type: 3}
      propertyPath: m_LocalRotation.y
      value: 0.3302293
      objectReference: {fileID: 0}
    - target: {fileID: 6502182839619065283, guid: f16d097b4f9f7ee4b9b573828f17f1ad,
        type: 3}
      propertyPath: m_LocalRotation.z
      value: 0.032216195
      objectReference: {fileID: 0}
    - target: {fileID: 6515712193588681746, guid: f16d097b4f9f7ee4b9b573828f17f1ad,
        type: 3}
      propertyPath: m_LocalPosition.x
      value: 7.975358e-13
      objectReference: {fileID: 0}
    - target: {fileID: 6515712193588681746, guid: f16d097b4f9f7ee4b9b573828f17f1ad,
        type: 3}
      propertyPath: m_LocalPosition.y
      value: 0.13700983
      objectReference: {fileID: 0}
    - target: {fileID: 6515712193588681746, guid: f16d097b4f9f7ee4b9b573828f17f1ad,
        type: 3}
      propertyPath: m_LocalPosition.z
      value: 9.313226e-10
      objectReference: {fileID: 0}
    - target: {fileID: 6515712193588681746, guid: f16d097b4f9f7ee4b9b573828f17f1ad,
        type: 3}
      propertyPath: m_LocalRotation.w
      value: 0.99174756
      objectReference: {fileID: 0}
    - target: {fileID: 6515712193588681746, guid: f16d097b4f9f7ee4b9b573828f17f1ad,
        type: 3}
      propertyPath: m_LocalRotation.x
      value: 0.12803757
      objectReference: {fileID: 0}
    - target: {fileID: 6515712193588681746, guid: f16d097b4f9f7ee4b9b573828f17f1ad,
        type: 3}
      propertyPath: m_LocalRotation.y
      value: 0.005012213
      objectReference: {fileID: 0}
    - target: {fileID: 6515712193588681746, guid: f16d097b4f9f7ee4b9b573828f17f1ad,
        type: 3}
      propertyPath: m_LocalRotation.z
      value: -0.0042627887
      objectReference: {fileID: 0}
    - target: {fileID: 6655383506977046455, guid: f16d097b4f9f7ee4b9b573828f17f1ad,
        type: 3}
      propertyPath: m_LocalPosition.x
      value: -0.0005073844
      objectReference: {fileID: 0}
    - target: {fileID: 6655383506977046455, guid: f16d097b4f9f7ee4b9b573828f17f1ad,
        type: 3}
      propertyPath: m_LocalPosition.y
      value: 0.028438577
      objectReference: {fileID: 0}
    - target: {fileID: 6655383506977046455, guid: f16d097b4f9f7ee4b9b573828f17f1ad,
        type: 3}
      propertyPath: m_LocalPosition.z
      value: 0.000000018599906
      objectReference: {fileID: 0}
    - target: {fileID: 6655383506977046455, guid: f16d097b4f9f7ee4b9b573828f17f1ad,
        type: 3}
      propertyPath: m_LocalRotation.w
      value: 0.99091226
      objectReference: {fileID: 0}
    - target: {fileID: 6655383506977046455, guid: f16d097b4f9f7ee4b9b573828f17f1ad,
        type: 3}
      propertyPath: m_LocalRotation.x
      value: 0.13358963
      objectReference: {fileID: 0}
    - target: {fileID: 6655383506977046455, guid: f16d097b4f9f7ee4b9b573828f17f1ad,
        type: 3}
      propertyPath: m_LocalRotation.y
      value: -0.00084218354
      objectReference: {fileID: 0}
    - target: {fileID: 6655383506977046455, guid: f16d097b4f9f7ee4b9b573828f17f1ad,
        type: 3}
      propertyPath: m_LocalRotation.z
      value: 0.015682915
      objectReference: {fileID: 0}
    - target: {fileID: 7078722787440015773, guid: f16d097b4f9f7ee4b9b573828f17f1ad,
        type: 3}
      propertyPath: m_LocalPosition.y
      value: 0.11950612
      objectReference: {fileID: 0}
    - target: {fileID: 7078722787440015773, guid: f16d097b4f9f7ee4b9b573828f17f1ad,
        type: 3}
      propertyPath: m_LocalPosition.z
      value: -0.000696409
      objectReference: {fileID: 0}
    - target: {fileID: 7078722787440015773, guid: f16d097b4f9f7ee4b9b573828f17f1ad,
        type: 3}
      propertyPath: m_LocalRotation.w
      value: -0.51771367
      objectReference: {fileID: 0}
    - target: {fileID: 7078722787440015773, guid: f16d097b4f9f7ee4b9b573828f17f1ad,
        type: 3}
      propertyPath: m_LocalRotation.x
      value: -0.66043854
      objectReference: {fileID: 0}
    - target: {fileID: 7078722787440015773, guid: f16d097b4f9f7ee4b9b573828f17f1ad,
        type: 3}
      propertyPath: m_LocalRotation.y
      value: -0.28840753
      objectReference: {fileID: 0}
    - target: {fileID: 7078722787440015773, guid: f16d097b4f9f7ee4b9b573828f17f1ad,
        type: 3}
      propertyPath: m_LocalRotation.z
      value: 0.46110147
      objectReference: {fileID: 0}
    - target: {fileID: 7666680083751660616, guid: f16d097b4f9f7ee4b9b573828f17f1ad,
        type: 3}
      propertyPath: m_LocalPosition.x
      value: -0.0022430464
      objectReference: {fileID: 0}
    - target: {fileID: 7666680083751660616, guid: f16d097b4f9f7ee4b9b573828f17f1ad,
        type: 3}
      propertyPath: m_LocalPosition.y
      value: 0.036478415
      objectReference: {fileID: 0}
    - target: {fileID: 7666680083751660616, guid: f16d097b4f9f7ee4b9b573828f17f1ad,
        type: 3}
      propertyPath: m_LocalPosition.z
      value: 0.000000062340376
      objectReference: {fileID: 0}
    - target: {fileID: 7666680083751660616, guid: f16d097b4f9f7ee4b9b573828f17f1ad,
        type: 3}
      propertyPath: m_LocalRotation.w
      value: 0.9879362
      objectReference: {fileID: 0}
    - target: {fileID: 7666680083751660616, guid: f16d097b4f9f7ee4b9b573828f17f1ad,
        type: 3}
      propertyPath: m_LocalRotation.x
      value: 0.15121391
      objectReference: {fileID: 0}
    - target: {fileID: 7666680083751660616, guid: f16d097b4f9f7ee4b9b573828f17f1ad,
        type: 3}
      propertyPath: m_LocalRotation.y
      value: -0.003916873
      objectReference: {fileID: 0}
    - target: {fileID: 7666680083751660616, guid: f16d097b4f9f7ee4b9b573828f17f1ad,
        type: 3}
      propertyPath: m_LocalRotation.z
      value: 0.03318246
      objectReference: {fileID: 0}
    - target: {fileID: 8169382868667117632, guid: f16d097b4f9f7ee4b9b573828f17f1ad,
        type: 3}
      propertyPath: m_LocalPosition.x
      value: 0.11280148
      objectReference: {fileID: 0}
    - target: {fileID: 8169382868667117632, guid: f16d097b4f9f7ee4b9b573828f17f1ad,
        type: 3}
      propertyPath: m_LocalPosition.y
      value: -0.050573707
      objectReference: {fileID: 0}
    - target: {fileID: 8169382868667117632, guid: f16d097b4f9f7ee4b9b573828f17f1ad,
        type: 3}
      propertyPath: m_LocalPosition.z
      value: 0.0018594287
      objectReference: {fileID: 0}
    - target: {fileID: 8169382868667117632, guid: f16d097b4f9f7ee4b9b573828f17f1ad,
        type: 3}
      propertyPath: m_LocalRotation.w
      value: 0.122705564
      objectReference: {fileID: 0}
    - target: {fileID: 8169382868667117632, guid: f16d097b4f9f7ee4b9b573828f17f1ad,
        type: 3}
      propertyPath: m_LocalRotation.x
      value: 0.014676595
      objectReference: {fileID: 0}
    - target: {fileID: 8169382868667117632, guid: f16d097b4f9f7ee4b9b573828f17f1ad,
        type: 3}
      propertyPath: m_LocalRotation.y
      value: 0.03429875
      objectReference: {fileID: 0}
    - target: {fileID: 8169382868667117632, guid: f16d097b4f9f7ee4b9b573828f17f1ad,
        type: 3}
      propertyPath: m_LocalRotation.z
      value: 0.9917417
      objectReference: {fileID: 0}
    - target: {fileID: 8255111157037086696, guid: f16d097b4f9f7ee4b9b573828f17f1ad,
        type: 3}
      propertyPath: m_LocalPosition.x
      value: 0.010265616
      objectReference: {fileID: 0}
    - target: {fileID: 8255111157037086696, guid: f16d097b4f9f7ee4b9b573828f17f1ad,
        type: 3}
      propertyPath: m_LocalPosition.y
      value: 0.118508875
      objectReference: {fileID: 0}
    - target: {fileID: 8255111157037086696, guid: f16d097b4f9f7ee4b9b573828f17f1ad,
        type: 3}
      propertyPath: m_LocalPosition.z
      value: -0.0044347835
      objectReference: {fileID: 0}
    - target: {fileID: 8255111157037086696, guid: f16d097b4f9f7ee4b9b573828f17f1ad,
        type: 3}
      propertyPath: m_LocalRotation.w
      value: 0.9916044
      objectReference: {fileID: 0}
    - target: {fileID: 8255111157037086696, guid: f16d097b4f9f7ee4b9b573828f17f1ad,
        type: 3}
      propertyPath: m_LocalRotation.x
      value: 0.11808594
      objectReference: {fileID: 0}
    - target: {fileID: 8255111157037086696, guid: f16d097b4f9f7ee4b9b573828f17f1ad,
        type: 3}
      propertyPath: m_LocalRotation.y
      value: -0.012692133
      objectReference: {fileID: 0}
    - target: {fileID: 8255111157037086696, guid: f16d097b4f9f7ee4b9b573828f17f1ad,
        type: 3}
      propertyPath: m_LocalRotation.z
      value: -0.051141284
      objectReference: {fileID: 0}
    - target: {fileID: 8447082967072642302, guid: f16d097b4f9f7ee4b9b573828f17f1ad,
        type: 3}
      propertyPath: m_LocalPosition.x
      value: -0.025760751
      objectReference: {fileID: 0}
    - target: {fileID: 8447082967072642302, guid: f16d097b4f9f7ee4b9b573828f17f1ad,
        type: 3}
      propertyPath: m_LocalPosition.y
      value: 0.044516653
      objectReference: {fileID: 0}
    - target: {fileID: 8447082967072642302, guid: f16d097b4f9f7ee4b9b573828f17f1ad,
        type: 3}
      propertyPath: m_LocalPosition.z
      value: 0.017839555
      objectReference: {fileID: 0}
    - target: {fileID: 8447082967072642302, guid: f16d097b4f9f7ee4b9b573828f17f1ad,
        type: 3}
      propertyPath: m_LocalRotation.w
      value: -0.96243405
      objectReference: {fileID: 0}
    - target: {fileID: 8447082967072642302, guid: f16d097b4f9f7ee4b9b573828f17f1ad,
        type: 3}
      propertyPath: m_LocalRotation.x
      value: -0.20480806
      objectReference: {fileID: 0}
    - target: {fileID: 8447082967072642302, guid: f16d097b4f9f7ee4b9b573828f17f1ad,
        type: 3}
      propertyPath: m_LocalRotation.y
      value: 0.011487051
      objectReference: {fileID: 0}
    - target: {fileID: 8447082967072642302, guid: f16d097b4f9f7ee4b9b573828f17f1ad,
        type: 3}
      propertyPath: m_LocalRotation.z
      value: -0.17788303
      objectReference: {fileID: 0}
    m_RemovedComponents: []
  m_SourcePrefab: {fileID: 100100000, guid: f16d097b4f9f7ee4b9b573828f17f1ad, type: 3}
--- !u!1001 &4106285668870882948
PrefabInstance:
  m_ObjectHideFlags: 0
  serializedVersion: 2
  m_Modification:
    m_TransformParent: {fileID: 0}
    m_Modifications:
    - target: {fileID: 623150813728196135, guid: 57a7fcc8445f63542ad17c6297f481b9,
        type: 3}
      propertyPath: m_RootOrder
      value: 3
      objectReference: {fileID: 0}
    - target: {fileID: 623150814112471399, guid: 57a7fcc8445f63542ad17c6297f481b9,
        type: 3}
      propertyPath: m_RootOrder
      value: 6
      objectReference: {fileID: 0}
    - target: {fileID: 623150814890543157, guid: 57a7fcc8445f63542ad17c6297f481b9,
        type: 3}
      propertyPath: m_RootOrder
      value: 2
      objectReference: {fileID: 0}
    - target: {fileID: 623150815092121124, guid: 57a7fcc8445f63542ad17c6297f481b9,
        type: 3}
      propertyPath: m_RootOrder
      value: 0
      objectReference: {fileID: 0}
    - target: {fileID: 3868326098092834985, guid: 57a7fcc8445f63542ad17c6297f481b9,
        type: 3}
      propertyPath: m_Avatar
      value: 
      objectReference: {fileID: 9000000, guid: f16d097b4f9f7ee4b9b573828f17f1ad, type: 3}
    - target: {fileID: 3868326098092834985, guid: 57a7fcc8445f63542ad17c6297f481b9,
        type: 3}
      propertyPath: m_Controller
      value: 
      objectReference: {fileID: 22100000, guid: 99bea165e58b40c4ba6740d9b4fcd9a1,
        type: 2}
    - target: {fileID: 4059717616814757512, guid: 57a7fcc8445f63542ad17c6297f481b9,
        type: 3}
      propertyPath: m_RootOrder
      value: 0
      objectReference: {fileID: 0}
    - target: {fileID: 4059717616814757512, guid: 57a7fcc8445f63542ad17c6297f481b9,
        type: 3}
      propertyPath: m_LocalPosition.x
      value: 0
      objectReference: {fileID: 0}
    - target: {fileID: 4059717616814757512, guid: 57a7fcc8445f63542ad17c6297f481b9,
        type: 3}
      propertyPath: m_LocalPosition.y
      value: 0
      objectReference: {fileID: 0}
    - target: {fileID: 4059717616814757512, guid: 57a7fcc8445f63542ad17c6297f481b9,
        type: 3}
      propertyPath: m_LocalPosition.z
      value: 0
      objectReference: {fileID: 0}
    - target: {fileID: 4059717616814757512, guid: 57a7fcc8445f63542ad17c6297f481b9,
        type: 3}
      propertyPath: m_LocalRotation.w
      value: 1
      objectReference: {fileID: 0}
    - target: {fileID: 4059717616814757512, guid: 57a7fcc8445f63542ad17c6297f481b9,
        type: 3}
      propertyPath: m_LocalRotation.x
      value: 0
      objectReference: {fileID: 0}
    - target: {fileID: 4059717616814757512, guid: 57a7fcc8445f63542ad17c6297f481b9,
        type: 3}
      propertyPath: m_LocalRotation.y
      value: 0
      objectReference: {fileID: 0}
    - target: {fileID: 4059717616814757512, guid: 57a7fcc8445f63542ad17c6297f481b9,
        type: 3}
      propertyPath: m_LocalRotation.z
      value: 0
      objectReference: {fileID: 0}
    - target: {fileID: 4059717616814757512, guid: 57a7fcc8445f63542ad17c6297f481b9,
        type: 3}
      propertyPath: m_LocalEulerAnglesHint.x
      value: 0
      objectReference: {fileID: 0}
    - target: {fileID: 4059717616814757512, guid: 57a7fcc8445f63542ad17c6297f481b9,
        type: 3}
      propertyPath: m_LocalEulerAnglesHint.y
      value: 0
      objectReference: {fileID: 0}
    - target: {fileID: 4059717616814757512, guid: 57a7fcc8445f63542ad17c6297f481b9,
        type: 3}
      propertyPath: m_LocalEulerAnglesHint.z
      value: 0
      objectReference: {fileID: 0}
    - target: {fileID: 4059717616814757515, guid: 57a7fcc8445f63542ad17c6297f481b9,
        type: 3}
      propertyPath: isInteractive
      value: 0
      objectReference: {fileID: 0}
    - target: {fileID: 4059717616814757516, guid: 57a7fcc8445f63542ad17c6297f481b9,
        type: 3}
      propertyPath: m_Name
      value: DialogueNPC_Judy Variant
      objectReference: {fileID: 0}
    - target: {fileID: 4059717616814757516, guid: 57a7fcc8445f63542ad17c6297f481b9,
        type: 3}
      propertyPath: m_IsActive
      value: 1
      objectReference: {fileID: 0}
    - target: {fileID: 4789261475536079237, guid: 57a7fcc8445f63542ad17c6297f481b9,
        type: 3}
      propertyPath: m_RootOrder
      value: 4
      objectReference: {fileID: 0}
    - target: {fileID: 6989288902420054789, guid: 57a7fcc8445f63542ad17c6297f481b9,
        type: 3}
      propertyPath: m_IsActive
      value: 0
      objectReference: {fileID: 0}
    - target: {fileID: 7212403791484602596, guid: 57a7fcc8445f63542ad17c6297f481b9,
        type: 3}
      propertyPath: m_RootOrder
      value: 1
      objectReference: {fileID: 0}
    - target: {fileID: 8973914364925663965, guid: 57a7fcc8445f63542ad17c6297f481b9,
        type: 3}
      propertyPath: actorName
      value: "\u0414\u0436\u0443\u0434\u0438"
      objectReference: {fileID: 0}
    - target: {fileID: 8973914364925663965, guid: 57a7fcc8445f63542ad17c6297f481b9,
        type: 3}
      propertyPath: dialogueFileName
      value: Judy
      objectReference: {fileID: 0}
    m_RemovedComponents: []
  m_SourcePrefab: {fileID: 100100000, guid: 57a7fcc8445f63542ad17c6297f481b9, type: 3}
--- !u!4 &48262678668382220 stripped
Transform:
  m_CorrespondingSourceObject: {fileID: 4059717616814757512, guid: 57a7fcc8445f63542ad17c6297f481b9,
    type: 3}
  m_PrefabInstance: {fileID: 4106285668870882948}
  m_PrefabAsset: {fileID: 0}
