%YAML 1.1
%TAG !u! tag:unity3d.com,2011:
--- !u!1001 &2760399291567249123
PrefabInstance:
  m_ObjectHideFlags: 0
  serializedVersion: 2
  m_Modification:
    m_TransformParent: {fileID: 2169023279417613710}
    m_Modifications:
    - target: {fileID: -9178788122459455076, guid: 243ef8b9ac1283a4db01e9237a3000cd,
        type: 3}
      propertyPath: m_IsActive
      value: 1
      objectReference: {fileID: 0}
    - target: {fileID: -8679921383154817045, guid: 243ef8b9ac1283a4db01e9237a3000cd,
        type: 3}
      propertyPath: m_RootOrder
      value: 5
      objectReference: {fileID: 0}
    - target: {fileID: -8679921383154817045, guid: 243ef8b9ac1283a4db01e9237a3000cd,
        type: 3}
      propertyPath: m_LocalScale.x
      value: 1.05
      objectReference: {fileID: 0}
    - target: {fileID: -8679921383154817045, guid: 243ef8b9ac1283a4db01e9237a3000cd,
        type: 3}
      propertyPath: m_LocalScale.y
      value: 1.05
      objectReference: {fileID: 0}
    - target: {fileID: -8679921383154817045, guid: 243ef8b9ac1283a4db01e9237a3000cd,
        type: 3}
      propertyPath: m_LocalScale.z
      value: 1.05
      objectReference: {fileID: 0}
    - target: {fileID: -8679921383154817045, guid: 243ef8b9ac1283a4db01e9237a3000cd,
        type: 3}
      propertyPath: m_LocalPosition.x
      value: 0
      objectReference: {fileID: 0}
    - target: {fileID: -8679921383154817045, guid: 243ef8b9ac1283a4db01e9237a3000cd,
        type: 3}
      propertyPath: m_LocalPosition.y
      value: 0
      objectReference: {fileID: 0}
    - target: {fileID: -8679921383154817045, guid: 243ef8b9ac1283a4db01e9237a3000cd,
        type: 3}
      propertyPath: m_LocalPosition.z
      value: 0
      objectReference: {fileID: 0}
    - target: {fileID: -8679921383154817045, guid: 243ef8b9ac1283a4db01e9237a3000cd,
        type: 3}
      propertyPath: m_LocalRotation.w
      value: 1
      objectReference: {fileID: 0}
    - target: {fileID: -8679921383154817045, guid: 243ef8b9ac1283a4db01e9237a3000cd,
        type: 3}
      propertyPath: m_LocalRotation.x
      value: 0
      objectReference: {fileID: 0}
    - target: {fileID: -8679921383154817045, guid: 243ef8b9ac1283a4db01e9237a3000cd,
        type: 3}
      propertyPath: m_LocalRotation.y
      value: 0
      objectReference: {fileID: 0}
    - target: {fileID: -8679921383154817045, guid: 243ef8b9ac1283a4db01e9237a3000cd,
        type: 3}
      propertyPath: m_LocalRotation.z
      value: 0
      objectReference: {fileID: 0}
    - target: {fileID: -8679921383154817045, guid: 243ef8b9ac1283a4db01e9237a3000cd,
        type: 3}
      propertyPath: m_LocalEulerAnglesHint.x
      value: 0
      objectReference: {fileID: 0}
    - target: {fileID: -8679921383154817045, guid: 243ef8b9ac1283a4db01e9237a3000cd,
        type: 3}
      propertyPath: m_LocalEulerAnglesHint.y
      value: 0
      objectReference: {fileID: 0}
    - target: {fileID: -8679921383154817045, guid: 243ef8b9ac1283a4db01e9237a3000cd,
        type: 3}
      propertyPath: m_LocalEulerAnglesHint.z
      value: 0
      objectReference: {fileID: 0}
    - target: {fileID: -8191740002585371210, guid: 243ef8b9ac1283a4db01e9237a3000cd,
        type: 3}
      propertyPath: m_LocalPosition.x
      value: 0.0011553504
      objectReference: {fileID: 0}
    - target: {fileID: -8191740002585371210, guid: 243ef8b9ac1283a4db01e9237a3000cd,
        type: 3}
      propertyPath: m_LocalPosition.y
      value: 0.035001747
      objectReference: {fileID: 0}
    - target: {fileID: -8191740002585371210, guid: 243ef8b9ac1283a4db01e9237a3000cd,
        type: 3}
      propertyPath: m_LocalPosition.z
      value: -0.000000027939409
      objectReference: {fileID: 0}
    - target: {fileID: -8191740002585371210, guid: 243ef8b9ac1283a4db01e9237a3000cd,
        type: 3}
      propertyPath: m_LocalRotation.w
      value: 0.99667215
      objectReference: {fileID: 0}
    - target: {fileID: -8191740002585371210, guid: 243ef8b9ac1283a4db01e9237a3000cd,
        type: 3}
      propertyPath: m_LocalRotation.x
      value: -0.012959186
      objectReference: {fileID: 0}
    - target: {fileID: -8191740002585371210, guid: 243ef8b9ac1283a4db01e9237a3000cd,
        type: 3}
      propertyPath: m_LocalRotation.y
      value: 0.042196963
      objectReference: {fileID: 0}
    - target: {fileID: -8191740002585371210, guid: 243ef8b9ac1283a4db01e9237a3000cd,
        type: 3}
      propertyPath: m_LocalRotation.z
      value: -0.0685283
      objectReference: {fileID: 0}
    - target: {fileID: -8068027186691560116, guid: 243ef8b9ac1283a4db01e9237a3000cd,
        type: 3}
      propertyPath: m_LocalPosition.x
      value: -0.00000923867
      objectReference: {fileID: 0}
    - target: {fileID: -8068027186691560116, guid: 243ef8b9ac1283a4db01e9237a3000cd,
        type: 3}
      propertyPath: m_LocalPosition.y
      value: 0.021855831
      objectReference: {fileID: 0}
    - target: {fileID: -8068027186691560116, guid: 243ef8b9ac1283a4db01e9237a3000cd,
        type: 3}
      propertyPath: m_LocalPosition.z
      value: 0.0000000698485
      objectReference: {fileID: 0}
    - target: {fileID: -8068027186691560116, guid: 243ef8b9ac1283a4db01e9237a3000cd,
        type: 3}
      propertyPath: m_LocalRotation.w
      value: 0.96129894
      objectReference: {fileID: 0}
    - target: {fileID: -8068027186691560116, guid: 243ef8b9ac1283a4db01e9237a3000cd,
        type: 3}
      propertyPath: m_LocalRotation.x
      value: 0.27150795
      objectReference: {fileID: 0}
    - target: {fileID: -8068027186691560116, guid: 243ef8b9ac1283a4db01e9237a3000cd,
        type: 3}
      propertyPath: m_LocalRotation.y
      value: -0.03632922
      objectReference: {fileID: 0}
    - target: {fileID: -8068027186691560116, guid: 243ef8b9ac1283a4db01e9237a3000cd,
        type: 3}
      propertyPath: m_LocalRotation.z
      value: 0.029461827
      objectReference: {fileID: 0}
    - target: {fileID: -8021001004253913084, guid: 243ef8b9ac1283a4db01e9237a3000cd,
        type: 3}
      propertyPath: m_LocalPosition.x
      value: 0
      objectReference: {fileID: 0}
    - target: {fileID: -8021001004253913084, guid: 243ef8b9ac1283a4db01e9237a3000cd,
        type: 3}
      propertyPath: m_LocalPosition.y
      value: 0.11550271
      objectReference: {fileID: 0}
    - target: {fileID: -8021001004253913084, guid: 243ef8b9ac1283a4db01e9237a3000cd,
        type: 3}
      propertyPath: m_LocalPosition.z
      value: 0.000000006519253
      objectReference: {fileID: 0}
    - target: {fileID: -8021001004253913084, guid: 243ef8b9ac1283a4db01e9237a3000cd,
        type: 3}
      propertyPath: m_LocalRotation.w
      value: 1
      objectReference: {fileID: 0}
    - target: {fileID: -8021001004253913084, guid: 243ef8b9ac1283a4db01e9237a3000cd,
        type: 3}
      propertyPath: m_LocalRotation.x
      value: -0
      objectReference: {fileID: 0}
    - target: {fileID: -8021001004253913084, guid: 243ef8b9ac1283a4db01e9237a3000cd,
        type: 3}
      propertyPath: m_LocalRotation.y
      value: -0.00000023841854
      objectReference: {fileID: 0}
    - target: {fileID: -8021001004253913084, guid: 243ef8b9ac1283a4db01e9237a3000cd,
        type: 3}
      propertyPath: m_LocalRotation.z
      value: -0
      objectReference: {fileID: 0}
    - target: {fileID: -7495000802325668597, guid: 243ef8b9ac1283a4db01e9237a3000cd,
        type: 3}
      propertyPath: m_IsActive
      value: 1
      objectReference: {fileID: 0}
    - target: {fileID: -7219772299731422950, guid: 243ef8b9ac1283a4db01e9237a3000cd,
        type: 3}
      propertyPath: m_LocalPosition.x
      value: -0.00068579154
      objectReference: {fileID: 0}
    - target: {fileID: -7219772299731422950, guid: 243ef8b9ac1283a4db01e9237a3000cd,
        type: 3}
      propertyPath: m_LocalPosition.y
      value: 0.034380455
      objectReference: {fileID: 0}
    - target: {fileID: -7219772299731422950, guid: 243ef8b9ac1283a4db01e9237a3000cd,
        type: 3}
      propertyPath: m_LocalPosition.z
      value: 0.0000000018626253
      objectReference: {fileID: 0}
    - target: {fileID: -7219772299731422950, guid: 243ef8b9ac1283a4db01e9237a3000cd,
        type: 3}
      propertyPath: m_LocalRotation.w
      value: -0.9991327
      objectReference: {fileID: 0}
    - target: {fileID: -7219772299731422950, guid: 243ef8b9ac1283a4db01e9237a3000cd,
        type: 3}
      propertyPath: m_LocalRotation.x
      value: 0.022717528
      objectReference: {fileID: 0}
    - target: {fileID: -7219772299731422950, guid: 243ef8b9ac1283a4db01e9237a3000cd,
        type: 3}
      propertyPath: m_LocalRotation.y
      value: 0.03475264
      objectReference: {fileID: 0}
    - target: {fileID: -7219772299731422950, guid: 243ef8b9ac1283a4db01e9237a3000cd,
        type: 3}
      propertyPath: m_LocalRotation.z
      value: -0.0031750193
      objectReference: {fileID: 0}
    - target: {fileID: -6874584590210671055, guid: 243ef8b9ac1283a4db01e9237a3000cd,
        type: 3}
      propertyPath: m_LocalPosition.x
      value: 0
      objectReference: {fileID: 0}
    - target: {fileID: -6874584590210671055, guid: 243ef8b9ac1283a4db01e9237a3000cd,
        type: 3}
      propertyPath: m_LocalPosition.y
      value: 0.4219351
      objectReference: {fileID: 0}
    - target: {fileID: -6874584590210671055, guid: 243ef8b9ac1283a4db01e9237a3000cd,
        type: 3}
      propertyPath: m_LocalPosition.z
      value: 0.000000011175861
      objectReference: {fileID: 0}
    - target: {fileID: -6874584590210671055, guid: 243ef8b9ac1283a4db01e9237a3000cd,
        type: 3}
      propertyPath: m_LocalRotation.w
      value: 0.88534546
      objectReference: {fileID: 0}
    - target: {fileID: -6874584590210671055, guid: 243ef8b9ac1283a4db01e9237a3000cd,
        type: 3}
      propertyPath: m_LocalRotation.x
      value: 0.3972868
      objectReference: {fileID: 0}
    - target: {fileID: -6874584590210671055, guid: 243ef8b9ac1283a4db01e9237a3000cd,
        type: 3}
      propertyPath: m_LocalRotation.y
      value: 0.2268181
      objectReference: {fileID: 0}
    - target: {fileID: -6874584590210671055, guid: 243ef8b9ac1283a4db01e9237a3000cd,
        type: 3}
      propertyPath: m_LocalRotation.z
      value: -0.08294754
      objectReference: {fileID: 0}
    - target: {fileID: -6857788192064577062, guid: 243ef8b9ac1283a4db01e9237a3000cd,
        type: 3}
      propertyPath: m_LocalPosition.x
      value: 0.004383553
      objectReference: {fileID: 0}
    - target: {fileID: -6857788192064577062, guid: 243ef8b9ac1283a4db01e9237a3000cd,
        type: 3}
      propertyPath: m_LocalPosition.y
      value: 0.035137236
      objectReference: {fileID: 0}
    - target: {fileID: -6857788192064577062, guid: 243ef8b9ac1283a4db01e9237a3000cd,
        type: 3}
      propertyPath: m_LocalPosition.z
      value: 0.0000000018626275
      objectReference: {fileID: 0}
    - target: {fileID: -6857788192064577062, guid: 243ef8b9ac1283a4db01e9237a3000cd,
        type: 3}
      propertyPath: m_LocalRotation.w
      value: 0.9671535
      objectReference: {fileID: 0}
    - target: {fileID: -6857788192064577062, guid: 243ef8b9ac1283a4db01e9237a3000cd,
        type: 3}
      propertyPath: m_LocalRotation.x
      value: -0.023364482
      objectReference: {fileID: 0}
    - target: {fileID: -6857788192064577062, guid: 243ef8b9ac1283a4db01e9237a3000cd,
        type: 3}
      propertyPath: m_LocalRotation.y
      value: 0.041351374
      objectReference: {fileID: 0}
    - target: {fileID: -6857788192064577062, guid: 243ef8b9ac1283a4db01e9237a3000cd,
        type: 3}
      propertyPath: m_LocalRotation.z
      value: 0.2497162
      objectReference: {fileID: 0}
    - target: {fileID: -6803169544883306252, guid: 243ef8b9ac1283a4db01e9237a3000cd,
        type: 3}
      propertyPath: m_LocalPosition.y
      value: 0.1212832
      objectReference: {fileID: 0}
    - target: {fileID: -6803169544883306252, guid: 243ef8b9ac1283a4db01e9237a3000cd,
        type: 3}
      propertyPath: m_LocalPosition.z
      value: -0.0027521015
      objectReference: {fileID: 0}
    - target: {fileID: -6803169544883306252, guid: 243ef8b9ac1283a4db01e9237a3000cd,
        type: 3}
      propertyPath: m_LocalRotation.w
      value: 0.44459066
      objectReference: {fileID: 0}
    - target: {fileID: -6803169544883306252, guid: 243ef8b9ac1283a4db01e9237a3000cd,
        type: 3}
      propertyPath: m_LocalRotation.x
      value: 0.7041011
      objectReference: {fileID: 0}
    - target: {fileID: -6803169544883306252, guid: 243ef8b9ac1283a4db01e9237a3000cd,
        type: 3}
      propertyPath: m_LocalRotation.y
      value: -0.17431214
      objectReference: {fileID: 0}
    - target: {fileID: -6803169544883306252, guid: 243ef8b9ac1283a4db01e9237a3000cd,
        type: 3}
      propertyPath: m_LocalRotation.z
      value: 0.52554363
      objectReference: {fileID: 0}
    - target: {fileID: -6768225281626788248, guid: 243ef8b9ac1283a4db01e9237a3000cd,
        type: 3}
      propertyPath: m_LocalPosition.x
      value: 0.00002092809
      objectReference: {fileID: 0}
    - target: {fileID: -6768225281626788248, guid: 243ef8b9ac1283a4db01e9237a3000cd,
        type: 3}
      propertyPath: m_LocalPosition.y
      value: 0.021962138
      objectReference: {fileID: 0}
    - target: {fileID: -6768225281626788248, guid: 243ef8b9ac1283a4db01e9237a3000cd,
        type: 3}
      propertyPath: m_LocalPosition.z
      value: 0.000000041443453
      objectReference: {fileID: 0}
    - target: {fileID: -6768225281626788248, guid: 243ef8b9ac1283a4db01e9237a3000cd,
        type: 3}
      propertyPath: m_LocalRotation.w
      value: -0.96102387
      objectReference: {fileID: 0}
    - target: {fileID: -6768225281626788248, guid: 243ef8b9ac1283a4db01e9237a3000cd,
        type: 3}
      propertyPath: m_LocalRotation.x
      value: -0.272912
      objectReference: {fileID: 0}
    - target: {fileID: -6768225281626788248, guid: 243ef8b9ac1283a4db01e9237a3000cd,
        type: 3}
      propertyPath: m_LocalRotation.y
      value: -0.03307729
      objectReference: {fileID: 0}
    - target: {fileID: -6768225281626788248, guid: 243ef8b9ac1283a4db01e9237a3000cd,
        type: 3}
      propertyPath: m_LocalRotation.z
      value: 0.029294169
      objectReference: {fileID: 0}
    - target: {fileID: -6430558835152682182, guid: 243ef8b9ac1283a4db01e9237a3000cd,
        type: 3}
      propertyPath: m_IsActive
      value: 1
      objectReference: {fileID: 0}
    - target: {fileID: -6024149945523619558, guid: 243ef8b9ac1283a4db01e9237a3000cd,
        type: 3}
      propertyPath: m_LocalPosition.x
      value: 0.0000070114206
      objectReference: {fileID: 0}
    - target: {fileID: -6024149945523619558, guid: 243ef8b9ac1283a4db01e9237a3000cd,
        type: 3}
      propertyPath: m_LocalPosition.y
      value: 0.03303708
      objectReference: {fileID: 0}
    - target: {fileID: -6024149945523619558, guid: 243ef8b9ac1283a4db01e9237a3000cd,
        type: 3}
      propertyPath: m_LocalPosition.z
      value: 0.00000004749696
      objectReference: {fileID: 0}
    - target: {fileID: -6024149945523619558, guid: 243ef8b9ac1283a4db01e9237a3000cd,
        type: 3}
      propertyPath: m_LocalRotation.w
      value: -0.97994596
      objectReference: {fileID: 0}
    - target: {fileID: -6024149945523619558, guid: 243ef8b9ac1283a4db01e9237a3000cd,
        type: 3}
      propertyPath: m_LocalRotation.x
      value: -0.19558083
      objectReference: {fileID: 0}
    - target: {fileID: -6024149945523619558, guid: 243ef8b9ac1283a4db01e9237a3000cd,
        type: 3}
      propertyPath: m_LocalRotation.y
      value: -0.034271292
      objectReference: {fileID: 0}
    - target: {fileID: -6024149945523619558, guid: 243ef8b9ac1283a4db01e9237a3000cd,
        type: 3}
      propertyPath: m_LocalRotation.z
      value: 0.016721454
      objectReference: {fileID: 0}
    - target: {fileID: -5665043316445423941, guid: 243ef8b9ac1283a4db01e9237a3000cd,
        type: 3}
      propertyPath: m_LocalPosition.x
      value: -0.000013970937
      objectReference: {fileID: 0}
    - target: {fileID: -5665043316445423941, guid: 243ef8b9ac1283a4db01e9237a3000cd,
        type: 3}
      propertyPath: m_LocalPosition.y
      value: 0.028849654
      objectReference: {fileID: 0}
    - target: {fileID: -5665043316445423941, guid: 243ef8b9ac1283a4db01e9237a3000cd,
        type: 3}
      propertyPath: m_LocalPosition.z
      value: 0.000000004656568
      objectReference: {fileID: 0}
    - target: {fileID: -5665043316445423941, guid: 243ef8b9ac1283a4db01e9237a3000cd,
        type: 3}
      propertyPath: m_LocalRotation.w
      value: 0.99208
      objectReference: {fileID: 0}
    - target: {fileID: -5665043316445423941, guid: 243ef8b9ac1283a4db01e9237a3000cd,
        type: 3}
      propertyPath: m_LocalRotation.x
      value: 0.12127403
      objectReference: {fileID: 0}
    - target: {fileID: -5665043316445423941, guid: 243ef8b9ac1283a4db01e9237a3000cd,
        type: 3}
      propertyPath: m_LocalRotation.y
      value: -0.031734414
      objectReference: {fileID: 0}
    - target: {fileID: -5665043316445423941, guid: 243ef8b9ac1283a4db01e9237a3000cd,
        type: 3}
      propertyPath: m_LocalRotation.z
      value: 0.007933731
      objectReference: {fileID: 0}
    - target: {fileID: -5480977901411583989, guid: 243ef8b9ac1283a4db01e9237a3000cd,
        type: 3}
      propertyPath: m_LocalPosition.x
      value: -0.000027651848
      objectReference: {fileID: 0}
    - target: {fileID: -5480977901411583989, guid: 243ef8b9ac1283a4db01e9237a3000cd,
        type: 3}
      propertyPath: m_LocalPosition.y
      value: 0.02972069
      objectReference: {fileID: 0}
    - target: {fileID: -5480977901411583989, guid: 243ef8b9ac1283a4db01e9237a3000cd,
        type: 3}
      propertyPath: m_LocalPosition.z
      value: 0.00000003160644
      objectReference: {fileID: 0}
    - target: {fileID: -5480977901411583989, guid: 243ef8b9ac1283a4db01e9237a3000cd,
        type: 3}
      propertyPath: m_LocalRotation.w
      value: -0.9824478
      objectReference: {fileID: 0}
    - target: {fileID: -5480977901411583989, guid: 243ef8b9ac1283a4db01e9237a3000cd,
        type: 3}
      propertyPath: m_LocalRotation.x
      value: -0.18596639
      objectReference: {fileID: 0}
    - target: {fileID: -5480977901411583989, guid: 243ef8b9ac1283a4db01e9237a3000cd,
        type: 3}
      propertyPath: m_LocalRotation.y
      value: -0.0007263421
      objectReference: {fileID: 0}
    - target: {fileID: -5480977901411583989, guid: 243ef8b9ac1283a4db01e9237a3000cd,
        type: 3}
      propertyPath: m_LocalRotation.z
      value: 0.014571142
      objectReference: {fileID: 0}
    - target: {fileID: -3746190272939815206, guid: 243ef8b9ac1283a4db01e9237a3000cd,
        type: 3}
      propertyPath: m_LocalPosition.x
      value: -0.000000014901172
      objectReference: {fileID: 0}
    - target: {fileID: -3746190272939815206, guid: 243ef8b9ac1283a4db01e9237a3000cd,
        type: 3}
      propertyPath: m_LocalPosition.z
      value: -9.313227e-10
      objectReference: {fileID: 0}
    - target: {fileID: -3746190272939815206, guid: 243ef8b9ac1283a4db01e9237a3000cd,
        type: 3}
      propertyPath: m_LocalRotation.w
      value: 0.99861246
      objectReference: {fileID: 0}
    - target: {fileID: -3746190272939815206, guid: 243ef8b9ac1283a4db01e9237a3000cd,
        type: 3}
      propertyPath: m_LocalRotation.x
      value: -0.03770214
      objectReference: {fileID: 0}
    - target: {fileID: -3746190272939815206, guid: 243ef8b9ac1283a4db01e9237a3000cd,
        type: 3}
      propertyPath: m_LocalRotation.y
      value: 0.0021198003
      objectReference: {fileID: 0}
    - target: {fileID: -3746190272939815206, guid: 243ef8b9ac1283a4db01e9237a3000cd,
        type: 3}
      propertyPath: m_LocalRotation.z
      value: -0.03670527
      objectReference: {fileID: 0}
    - target: {fileID: -3668607212182060886, guid: 243ef8b9ac1283a4db01e9237a3000cd,
        type: 3}
      propertyPath: m_IsActive
      value: 1
      objectReference: {fileID: 0}
    - target: {fileID: -3480699329000672020, guid: 243ef8b9ac1283a4db01e9237a3000cd,
        type: 3}
      propertyPath: m_LocalPosition.x
      value: 0
      objectReference: {fileID: 0}
    - target: {fileID: -3480699329000672020, guid: 243ef8b9ac1283a4db01e9237a3000cd,
        type: 3}
      propertyPath: m_LocalPosition.y
      value: 0.09839618
      objectReference: {fileID: 0}
    - target: {fileID: -3480699329000672020, guid: 243ef8b9ac1283a4db01e9237a3000cd,
        type: 3}
      propertyPath: m_LocalRotation.w
      value: 0.9984683
      objectReference: {fileID: 0}
    - target: {fileID: -3480699329000672020, guid: 243ef8b9ac1283a4db01e9237a3000cd,
        type: 3}
      propertyPath: m_LocalRotation.x
      value: -0.05532693
      objectReference: {fileID: 0}
    - target: {fileID: -3480699329000672020, guid: 243ef8b9ac1283a4db01e9237a3000cd,
        type: 3}
      propertyPath: m_LocalRotation.y
      value: -0
      objectReference: {fileID: 0}
    - target: {fileID: -3480699329000672020, guid: 243ef8b9ac1283a4db01e9237a3000cd,
        type: 3}
      propertyPath: m_LocalRotation.z
      value: -0
      objectReference: {fileID: 0}
    - target: {fileID: -3432401550182100168, guid: 243ef8b9ac1283a4db01e9237a3000cd,
        type: 3}
      propertyPath: m_LocalPosition.x
      value: 0.000000024679984
      objectReference: {fileID: 0}
    - target: {fileID: -3432401550182100168, guid: 243ef8b9ac1283a4db01e9237a3000cd,
        type: 3}
      propertyPath: m_LocalPosition.y
      value: 0.1457099
      objectReference: {fileID: 0}
    - target: {fileID: -3432401550182100168, guid: 243ef8b9ac1283a4db01e9237a3000cd,
        type: 3}
      propertyPath: m_LocalPosition.z
      value: -0.000000033527503
      objectReference: {fileID: 0}
    - target: {fileID: -3432401550182100168, guid: 243ef8b9ac1283a4db01e9237a3000cd,
        type: 3}
      propertyPath: m_LocalRotation.w
      value: 0.87936306
      objectReference: {fileID: 0}
    - target: {fileID: -3432401550182100168, guid: 243ef8b9ac1283a4db01e9237a3000cd,
        type: 3}
      propertyPath: m_LocalRotation.x
      value: 0.41787997
      objectReference: {fileID: 0}
    - target: {fileID: -3432401550182100168, guid: 243ef8b9ac1283a4db01e9237a3000cd,
        type: 3}
      propertyPath: m_LocalRotation.y
      value: -0.22770478
      objectReference: {fileID: 0}
    - target: {fileID: -3432401550182100168, guid: 243ef8b9ac1283a4db01e9237a3000cd,
        type: 3}
      propertyPath: m_LocalRotation.z
      value: 0.015736159
      objectReference: {fileID: 0}
    - target: {fileID: -3321919801592875672, guid: 243ef8b9ac1283a4db01e9237a3000cd,
        type: 3}
      propertyPath: m_LocalPosition.x
      value: 2.7765373e-11
      objectReference: {fileID: 0}
    - target: {fileID: -3321919801592875672, guid: 243ef8b9ac1283a4db01e9237a3000cd,
        type: 3}
      propertyPath: m_LocalPosition.y
      value: 0.0917096
      objectReference: {fileID: 0}
    - target: {fileID: -3321919801592875672, guid: 243ef8b9ac1283a4db01e9237a3000cd,
        type: 3}
      propertyPath: m_LocalPosition.z
      value: 0.031039393
      objectReference: {fileID: 0}
    - target: {fileID: -3321919801592875672, guid: 243ef8b9ac1283a4db01e9237a3000cd,
        type: 3}
      propertyPath: m_LocalRotation.w
      value: 0.99101907
      objectReference: {fileID: 0}
    - target: {fileID: -3321919801592875672, guid: 243ef8b9ac1283a4db01e9237a3000cd,
        type: 3}
      propertyPath: m_LocalRotation.x
      value: -0.13094199
      objectReference: {fileID: 0}
    - target: {fileID: -3321919801592875672, guid: 243ef8b9ac1283a4db01e9237a3000cd,
        type: 3}
      propertyPath: m_LocalRotation.y
      value: -0.027104367
      objectReference: {fileID: 0}
    - target: {fileID: -3321919801592875672, guid: 243ef8b9ac1283a4db01e9237a3000cd,
        type: 3}
      propertyPath: m_LocalRotation.z
      value: 0.00084829296
      objectReference: {fileID: 0}
    - target: {fileID: -2899422035419094908, guid: 243ef8b9ac1283a4db01e9237a3000cd,
        type: 3}
      propertyPath: m_LocalPosition.x
      value: -0.000017189552
      objectReference: {fileID: 0}
    - target: {fileID: -2899422035419094908, guid: 243ef8b9ac1283a4db01e9237a3000cd,
        type: 3}
      propertyPath: m_LocalPosition.y
      value: 0.030432895
      objectReference: {fileID: 0}
    - target: {fileID: -2899422035419094908, guid: 243ef8b9ac1283a4db01e9237a3000cd,
        type: 3}
      propertyPath: m_LocalPosition.z
      value: 0.000000008614648
      objectReference: {fileID: 0}
    - target: {fileID: -2899422035419094908, guid: 243ef8b9ac1283a4db01e9237a3000cd,
        type: 3}
      propertyPath: m_LocalRotation.w
      value: -0.97884655
      objectReference: {fileID: 0}
    - target: {fileID: -2899422035419094908, guid: 243ef8b9ac1283a4db01e9237a3000cd,
        type: 3}
      propertyPath: m_LocalRotation.x
      value: -0.2019393
      objectReference: {fileID: 0}
    - target: {fileID: -2899422035419094908, guid: 243ef8b9ac1283a4db01e9237a3000cd,
        type: 3}
      propertyPath: m_LocalRotation.y
      value: -0.03149965
      objectReference: {fileID: 0}
    - target: {fileID: -2899422035419094908, guid: 243ef8b9ac1283a4db01e9237a3000cd,
        type: 3}
      propertyPath: m_LocalRotation.z
      value: 0.009368404
      objectReference: {fileID: 0}
    - target: {fileID: -2770666803903516498, guid: 243ef8b9ac1283a4db01e9237a3000cd,
        type: 3}
      propertyPath: m_LocalPosition.x
      value: 0.0000000037252772
      objectReference: {fileID: 0}
    - target: {fileID: -2770666803903516498, guid: 243ef8b9ac1283a4db01e9237a3000cd,
        type: 3}
      propertyPath: m_LocalPosition.y
      value: 0.18322077
      objectReference: {fileID: 0}
    - target: {fileID: -2770666803903516498, guid: 243ef8b9ac1283a4db01e9237a3000cd,
        type: 3}
      propertyPath: m_LocalPosition.z
      value: -0.000000044703402
      objectReference: {fileID: 0}
    - target: {fileID: -2770666803903516498, guid: 243ef8b9ac1283a4db01e9237a3000cd,
        type: 3}
      propertyPath: m_LocalRotation.w
      value: 0.9423372
      objectReference: {fileID: 0}
    - target: {fileID: -2770666803903516498, guid: 243ef8b9ac1283a4db01e9237a3000cd,
        type: 3}
      propertyPath: m_LocalRotation.x
      value: 0.3329884
      objectReference: {fileID: 0}
    - target: {fileID: -2770666803903516498, guid: 243ef8b9ac1283a4db01e9237a3000cd,
        type: 3}
      propertyPath: m_LocalRotation.y
      value: 0.031543754
      objectReference: {fileID: 0}
    - target: {fileID: -2770666803903516498, guid: 243ef8b9ac1283a4db01e9237a3000cd,
        type: 3}
      propertyPath: m_LocalRotation.z
      value: -0.011146432
      objectReference: {fileID: 0}
    - target: {fileID: -2594260964506120097, guid: 243ef8b9ac1283a4db01e9237a3000cd,
        type: 3}
      propertyPath: m_LocalPosition.x
      value: -0.010544932
      objectReference: {fileID: 0}
    - target: {fileID: -2594260964506120097, guid: 243ef8b9ac1283a4db01e9237a3000cd,
        type: 3}
      propertyPath: m_LocalPosition.y
      value: 0.104089744
      objectReference: {fileID: 0}
    - target: {fileID: -2594260964506120097, guid: 243ef8b9ac1283a4db01e9237a3000cd,
        type: 3}
      propertyPath: m_LocalPosition.z
      value: 0.00060817954
      objectReference: {fileID: 0}
    - target: {fileID: -2594260964506120097, guid: 243ef8b9ac1283a4db01e9237a3000cd,
        type: 3}
      propertyPath: m_LocalRotation.w
      value: 0.9871701
      objectReference: {fileID: 0}
    - target: {fileID: -2594260964506120097, guid: 243ef8b9ac1283a4db01e9237a3000cd,
        type: 3}
      propertyPath: m_LocalRotation.x
      value: 0.13934532
      objectReference: {fileID: 0}
    - target: {fileID: -2594260964506120097, guid: 243ef8b9ac1283a4db01e9237a3000cd,
        type: 3}
      propertyPath: m_LocalRotation.y
      value: -0.03147521
      objectReference: {fileID: 0}
    - target: {fileID: -2594260964506120097, guid: 243ef8b9ac1283a4db01e9237a3000cd,
        type: 3}
      propertyPath: m_LocalRotation.z
      value: 0.07132603
      objectReference: {fileID: 0}
    - target: {fileID: -2389525917609993686, guid: 243ef8b9ac1283a4db01e9237a3000cd,
        type: 3}
      propertyPath: m_LocalPosition.x
      value: 0.000021233811
      objectReference: {fileID: 0}
    - target: {fileID: -2389525917609993686, guid: 243ef8b9ac1283a4db01e9237a3000cd,
        type: 3}
      propertyPath: m_LocalPosition.y
      value: 0.0336339
      objectReference: {fileID: 0}
    - target: {fileID: -2389525917609993686, guid: 243ef8b9ac1283a4db01e9237a3000cd,
        type: 3}
      propertyPath: m_LocalPosition.z
      value: 0.00000007299169
      objectReference: {fileID: 0}
    - target: {fileID: -2389525917609993686, guid: 243ef8b9ac1283a4db01e9237a3000cd,
        type: 3}
      propertyPath: m_LocalRotation.w
      value: 0.9816146
      objectReference: {fileID: 0}
    - target: {fileID: -2389525917609993686, guid: 243ef8b9ac1283a4db01e9237a3000cd,
        type: 3}
      propertyPath: m_LocalRotation.x
      value: 0.19016188
      objectReference: {fileID: 0}
    - target: {fileID: -2389525917609993686, guid: 243ef8b9ac1283a4db01e9237a3000cd,
        type: 3}
      propertyPath: m_LocalRotation.y
      value: -0.01099155
      objectReference: {fileID: 0}
    - target: {fileID: -2389525917609993686, guid: 243ef8b9ac1283a4db01e9237a3000cd,
        type: 3}
      propertyPath: m_LocalRotation.z
      value: 0.012267497
      objectReference: {fileID: 0}
    - target: {fileID: -2072040086291044643, guid: 243ef8b9ac1283a4db01e9237a3000cd,
        type: 3}
      propertyPath: m_LocalPosition.x
      value: 0.0000000037252947
      objectReference: {fileID: 0}
    - target: {fileID: -2072040086291044643, guid: 243ef8b9ac1283a4db01e9237a3000cd,
        type: 3}
      propertyPath: m_LocalPosition.y
      value: 0.4583791
      objectReference: {fileID: 0}
    - target: {fileID: -2072040086291044643, guid: 243ef8b9ac1283a4db01e9237a3000cd,
        type: 3}
      propertyPath: m_LocalPosition.z
      value: 9.3132174e-10
      objectReference: {fileID: 0}
    - target: {fileID: -2072040086291044643, guid: 243ef8b9ac1283a4db01e9237a3000cd,
        type: 3}
      propertyPath: m_LocalRotation.w
      value: 0.9992552
      objectReference: {fileID: 0}
    - target: {fileID: -2072040086291044643, guid: 243ef8b9ac1283a4db01e9237a3000cd,
        type: 3}
      propertyPath: m_LocalRotation.x
      value: -0.016717784
      objectReference: {fileID: 0}
    - target: {fileID: -2072040086291044643, guid: 243ef8b9ac1283a4db01e9237a3000cd,
        type: 3}
      propertyPath: m_LocalRotation.y
      value: 0.0012621908
      objectReference: {fileID: 0}
    - target: {fileID: -2072040086291044643, guid: 243ef8b9ac1283a4db01e9237a3000cd,
        type: 3}
      propertyPath: m_LocalRotation.z
      value: 0.034756918
      objectReference: {fileID: 0}
    - target: {fileID: -1864740628597940677, guid: 243ef8b9ac1283a4db01e9237a3000cd,
        type: 3}
      propertyPath: m_LocalPosition.x
      value: -0.000013260794
      objectReference: {fileID: 0}
    - target: {fileID: -1864740628597940677, guid: 243ef8b9ac1283a4db01e9237a3000cd,
        type: 3}
      propertyPath: m_LocalPosition.y
      value: 0.029636027
      objectReference: {fileID: 0}
    - target: {fileID: -1864740628597940677, guid: 243ef8b9ac1283a4db01e9237a3000cd,
        type: 3}
      propertyPath: m_LocalPosition.z
      value: 0.00000003119898
      objectReference: {fileID: 0}
    - target: {fileID: -1864740628597940677, guid: 243ef8b9ac1283a4db01e9237a3000cd,
        type: 3}
      propertyPath: m_LocalRotation.w
      value: 0.9977088
      objectReference: {fileID: 0}
    - target: {fileID: -1864740628597940677, guid: 243ef8b9ac1283a4db01e9237a3000cd,
        type: 3}
      propertyPath: m_LocalRotation.x
      value: 0.06486265
      objectReference: {fileID: 0}
    - target: {fileID: -1864740628597940677, guid: 243ef8b9ac1283a4db01e9237a3000cd,
        type: 3}
      propertyPath: m_LocalRotation.y
      value: -0.019150358
      objectReference: {fileID: 0}
    - target: {fileID: -1864740628597940677, guid: 243ef8b9ac1283a4db01e9237a3000cd,
        type: 3}
      propertyPath: m_LocalRotation.z
      value: 0.0018011626
      objectReference: {fileID: 0}
    - target: {fileID: -1812909498023395591, guid: 243ef8b9ac1283a4db01e9237a3000cd,
        type: 3}
      propertyPath: m_LocalPosition.x
      value: 0.000000045867573
      objectReference: {fileID: 0}
    - target: {fileID: -1812909498023395591, guid: 243ef8b9ac1283a4db01e9237a3000cd,
        type: 3}
      propertyPath: m_LocalPosition.y
      value: 0.24620277
      objectReference: {fileID: 0}
    - target: {fileID: -1812909498023395591, guid: 243ef8b9ac1283a4db01e9237a3000cd,
        type: 3}
      propertyPath: m_LocalPosition.z
      value: 0.00000008009321
      objectReference: {fileID: 0}
    - target: {fileID: -1812909498023395591, guid: 243ef8b9ac1283a4db01e9237a3000cd,
        type: 3}
      propertyPath: m_LocalRotation.w
      value: 0.97936624
      objectReference: {fileID: 0}
    - target: {fileID: -1812909498023395591, guid: 243ef8b9ac1283a4db01e9237a3000cd,
        type: 3}
      propertyPath: m_LocalRotation.x
      value: -0.0035092824
      objectReference: {fileID: 0}
    - target: {fileID: -1812909498023395591, guid: 243ef8b9ac1283a4db01e9237a3000cd,
        type: 3}
      propertyPath: m_LocalRotation.y
      value: 0.19562952
      objectReference: {fileID: 0}
    - target: {fileID: -1812909498023395591, guid: 243ef8b9ac1283a4db01e9237a3000cd,
        type: 3}
      propertyPath: m_LocalRotation.z
      value: -0.050581727
      objectReference: {fileID: 0}
    - target: {fileID: -1070350730909333850, guid: 243ef8b9ac1283a4db01e9237a3000cd,
        type: 3}
      propertyPath: m_LocalPosition.x
      value: -0.03425275
      objectReference: {fileID: 0}
    - target: {fileID: -1070350730909333850, guid: 243ef8b9ac1283a4db01e9237a3000cd,
        type: 3}
      propertyPath: m_LocalPosition.y
      value: 0.10307236
      objectReference: {fileID: 0}
    - target: {fileID: -1070350730909333850, guid: 243ef8b9ac1283a4db01e9237a3000cd,
        type: 3}
      propertyPath: m_LocalPosition.z
      value: 0.0024544194
      objectReference: {fileID: 0}
    - target: {fileID: -1070350730909333850, guid: 243ef8b9ac1283a4db01e9237a3000cd,
        type: 3}
      propertyPath: m_LocalRotation.w
      value: -0.998499
      objectReference: {fileID: 0}
    - target: {fileID: -1070350730909333850, guid: 243ef8b9ac1283a4db01e9237a3000cd,
        type: 3}
      propertyPath: m_LocalRotation.x
      value: -0.04683346
      objectReference: {fileID: 0}
    - target: {fileID: -1070350730909333850, guid: 243ef8b9ac1283a4db01e9237a3000cd,
        type: 3}
      propertyPath: m_LocalRotation.y
      value: -0.0061822217
      objectReference: {fileID: 0}
    - target: {fileID: -1070350730909333850, guid: 243ef8b9ac1283a4db01e9237a3000cd,
        type: 3}
      propertyPath: m_LocalRotation.z
      value: -0.027716523
      objectReference: {fileID: 0}
    - target: {fileID: -911536698197519843, guid: 243ef8b9ac1283a4db01e9237a3000cd,
        type: 3}
      propertyPath: m_IsActive
      value: 1
      objectReference: {fileID: 0}
    - target: {fileID: -870823317777057635, guid: 243ef8b9ac1283a4db01e9237a3000cd,
        type: 3}
      propertyPath: m_LocalPosition.x
      value: -0.0048289984
      objectReference: {fileID: 0}
    - target: {fileID: -870823317777057635, guid: 243ef8b9ac1283a4db01e9237a3000cd,
        type: 3}
      propertyPath: m_LocalPosition.y
      value: 0.035741314
      objectReference: {fileID: 0}
    - target: {fileID: -870823317777057635, guid: 243ef8b9ac1283a4db01e9237a3000cd,
        type: 3}
      propertyPath: m_LocalPosition.z
      value: 0.000000059604023
      objectReference: {fileID: 0}
    - target: {fileID: -870823317777057635, guid: 243ef8b9ac1283a4db01e9237a3000cd,
        type: 3}
      propertyPath: m_LocalRotation.w
      value: -0.95949435
      objectReference: {fileID: 0}
    - target: {fileID: -870823317777057635, guid: 243ef8b9ac1283a4db01e9237a3000cd,
        type: 3}
      propertyPath: m_LocalRotation.x
      value: 0.036503326
      objectReference: {fileID: 0}
    - target: {fileID: -870823317777057635, guid: 243ef8b9ac1283a4db01e9237a3000cd,
        type: 3}
      propertyPath: m_LocalRotation.y
      value: 0.035300005
      objectReference: {fileID: 0}
    - target: {fileID: -870823317777057635, guid: 243ef8b9ac1283a4db01e9237a3000cd,
        type: 3}
      propertyPath: m_LocalRotation.z
      value: 0.27711385
      objectReference: {fileID: 0}
    - target: {fileID: -104578136787704052, guid: 243ef8b9ac1283a4db01e9237a3000cd,
        type: 3}
      propertyPath: m_LocalPosition.x
      value: 0.012306119
      objectReference: {fileID: 0}
    - target: {fileID: -104578136787704052, guid: 243ef8b9ac1283a4db01e9237a3000cd,
        type: 3}
      propertyPath: m_LocalPosition.y
      value: 0.105772905
      objectReference: {fileID: 0}
    - target: {fileID: -104578136787704052, guid: 243ef8b9ac1283a4db01e9237a3000cd,
        type: 3}
      propertyPath: m_LocalPosition.z
      value: 0.0002751417
      objectReference: {fileID: 0}
    - target: {fileID: -104578136787704052, guid: 243ef8b9ac1283a4db01e9237a3000cd,
        type: 3}
      propertyPath: m_LocalRotation.w
      value: -0.9881099
      objectReference: {fileID: 0}
    - target: {fileID: -104578136787704052, guid: 243ef8b9ac1283a4db01e9237a3000cd,
        type: 3}
      propertyPath: m_LocalRotation.x
      value: -0.13651305
      objectReference: {fileID: 0}
    - target: {fileID: -104578136787704052, guid: 243ef8b9ac1283a4db01e9237a3000cd,
        type: 3}
      propertyPath: m_LocalRotation.y
      value: -0.028984653
      objectReference: {fileID: 0}
    - target: {fileID: -104578136787704052, guid: 243ef8b9ac1283a4db01e9237a3000cd,
        type: 3}
      propertyPath: m_LocalRotation.z
      value: 0.0645208
      objectReference: {fileID: 0}
    - target: {fileID: 366175167995203695, guid: 243ef8b9ac1283a4db01e9237a3000cd,
        type: 3}
      propertyPath: m_LocalPosition.x
      value: -2.078604e-11
      objectReference: {fileID: 0}
    - target: {fileID: 366175167995203695, guid: 243ef8b9ac1283a4db01e9237a3000cd,
        type: 3}
      propertyPath: m_LocalPosition.y
      value: 0.13200307
      objectReference: {fileID: 0}
    - target: {fileID: 366175167995203695, guid: 243ef8b9ac1283a4db01e9237a3000cd,
        type: 3}
      propertyPath: m_LocalPosition.z
      value: -9.3132074e-10
      objectReference: {fileID: 0}
    - target: {fileID: 366175167995203695, guid: 243ef8b9ac1283a4db01e9237a3000cd,
        type: 3}
      propertyPath: m_LocalRotation.w
      value: 1
      objectReference: {fileID: 0}
    - target: {fileID: 366175167995203695, guid: 243ef8b9ac1283a4db01e9237a3000cd,
        type: 3}
      propertyPath: m_LocalRotation.x
      value: -0
      objectReference: {fileID: 0}
    - target: {fileID: 366175167995203695, guid: 243ef8b9ac1283a4db01e9237a3000cd,
        type: 3}
      propertyPath: m_LocalRotation.y
      value: -0
      objectReference: {fileID: 0}
    - target: {fileID: 366175167995203695, guid: 243ef8b9ac1283a4db01e9237a3000cd,
        type: 3}
      propertyPath: m_LocalRotation.z
      value: -0
      objectReference: {fileID: 0}
    - target: {fileID: 608321761475470972, guid: 243ef8b9ac1283a4db01e9237a3000cd,
        type: 3}
      propertyPath: m_LocalPosition.x
      value: -0.000000011175835
      objectReference: {fileID: 0}
    - target: {fileID: 608321761475470972, guid: 243ef8b9ac1283a4db01e9237a3000cd,
        type: 3}
      propertyPath: m_LocalPosition.y
      value: 0.42321914
      objectReference: {fileID: 0}
    - target: {fileID: 608321761475470972, guid: 243ef8b9ac1283a4db01e9237a3000cd,
        type: 3}
      propertyPath: m_LocalPosition.z
      value: 0.000000011175864
      objectReference: {fileID: 0}
    - target: {fileID: 608321761475470972, guid: 243ef8b9ac1283a4db01e9237a3000cd,
        type: 3}
      propertyPath: m_LocalRotation.w
      value: 0.8788135
      objectReference: {fileID: 0}
    - target: {fileID: 608321761475470972, guid: 243ef8b9ac1283a4db01e9237a3000cd,
        type: 3}
      propertyPath: m_LocalRotation.x
      value: 0.4577302
      objectReference: {fileID: 0}
    - target: {fileID: 608321761475470972, guid: 243ef8b9ac1283a4db01e9237a3000cd,
        type: 3}
      propertyPath: m_LocalRotation.y
      value: -0.13071415
      objectReference: {fileID: 0}
    - target: {fileID: 608321761475470972, guid: 243ef8b9ac1283a4db01e9237a3000cd,
        type: 3}
      propertyPath: m_LocalRotation.z
      value: 0.032918874
      objectReference: {fileID: 0}
    - target: {fileID: 919132149155446097, guid: 243ef8b9ac1283a4db01e9237a3000cd,
        type: 3}
      propertyPath: m_Name
      value: Unarmed Idle
      objectReference: {fileID: 0}
    - target: {fileID: 1092408308860062549, guid: 243ef8b9ac1283a4db01e9237a3000cd,
        type: 3}
      propertyPath: m_LocalPosition.x
      value: 0.000034403776
      objectReference: {fileID: 0}
    - target: {fileID: 1092408308860062549, guid: 243ef8b9ac1283a4db01e9237a3000cd,
        type: 3}
      propertyPath: m_LocalPosition.y
      value: 0.02761492
      objectReference: {fileID: 0}
    - target: {fileID: 1092408308860062549, guid: 243ef8b9ac1283a4db01e9237a3000cd,
        type: 3}
      propertyPath: m_LocalPosition.z
      value: 0.000000047031318
      objectReference: {fileID: 0}
    - target: {fileID: 1092408308860062549, guid: 243ef8b9ac1283a4db01e9237a3000cd,
        type: 3}
      propertyPath: m_LocalRotation.w
      value: -0.99071485
      objectReference: {fileID: 0}
    - target: {fileID: 1092408308860062549, guid: 243ef8b9ac1283a4db01e9237a3000cd,
        type: 3}
      propertyPath: m_LocalRotation.x
      value: -0.13176098
      objectReference: {fileID: 0}
    - target: {fileID: 1092408308860062549, guid: 243ef8b9ac1283a4db01e9237a3000cd,
        type: 3}
      propertyPath: m_LocalRotation.y
      value: -0.031543095
      objectReference: {fileID: 0}
    - target: {fileID: 1092408308860062549, guid: 243ef8b9ac1283a4db01e9237a3000cd,
        type: 3}
      propertyPath: m_LocalRotation.z
      value: 0.011328277
      objectReference: {fileID: 0}
    - target: {fileID: 1189529853000058984, guid: 243ef8b9ac1283a4db01e9237a3000cd,
        type: 3}
      propertyPath: m_LocalPosition.y
      value: 0.09083993
      objectReference: {fileID: 0}
    - target: {fileID: 1189529853000058984, guid: 243ef8b9ac1283a4db01e9237a3000cd,
        type: 3}
      propertyPath: m_LocalPosition.z
      value: 0.0029228162
      objectReference: {fileID: 0}
    - target: {fileID: 1189529853000058984, guid: 243ef8b9ac1283a4db01e9237a3000cd,
        type: 3}
      propertyPath: m_LocalRotation.w
      value: -0.97529155
      objectReference: {fileID: 0}
    - target: {fileID: 1189529853000058984, guid: 243ef8b9ac1283a4db01e9237a3000cd,
        type: 3}
      propertyPath: m_LocalRotation.x
      value: -0.20055972
      objectReference: {fileID: 0}
    - target: {fileID: 1189529853000058984, guid: 243ef8b9ac1283a4db01e9237a3000cd,
        type: 3}
      propertyPath: m_LocalRotation.y
      value: -0.021938797
      objectReference: {fileID: 0}
    - target: {fileID: 1189529853000058984, guid: 243ef8b9ac1283a4db01e9237a3000cd,
        type: 3}
      propertyPath: m_LocalRotation.z
      value: 0.090005405
      objectReference: {fileID: 0}
    - target: {fileID: 1330755669629619180, guid: 243ef8b9ac1283a4db01e9237a3000cd,
        type: 3}
      propertyPath: m_LocalPosition.x
      value: 0.03440556
      objectReference: {fileID: 0}
    - target: {fileID: 1330755669629619180, guid: 243ef8b9ac1283a4db01e9237a3000cd,
        type: 3}
      propertyPath: m_LocalPosition.y
      value: 0.102922045
      objectReference: {fileID: 0}
    - target: {fileID: 1330755669629619180, guid: 243ef8b9ac1283a4db01e9237a3000cd,
        type: 3}
      propertyPath: m_LocalPosition.z
      value: 0.003025531
      objectReference: {fileID: 0}
    - target: {fileID: 1330755669629619180, guid: 243ef8b9ac1283a4db01e9237a3000cd,
        type: 3}
      propertyPath: m_LocalRotation.w
      value: 0.9996441
      objectReference: {fileID: 0}
    - target: {fileID: 1330755669629619180, guid: 243ef8b9ac1283a4db01e9237a3000cd,
        type: 3}
      propertyPath: m_LocalRotation.x
      value: 0.017115807
      objectReference: {fileID: 0}
    - target: {fileID: 1330755669629619180, guid: 243ef8b9ac1283a4db01e9237a3000cd,
        type: 3}
      propertyPath: m_LocalRotation.y
      value: -0.02032702
      objectReference: {fileID: 0}
    - target: {fileID: 1330755669629619180, guid: 243ef8b9ac1283a4db01e9237a3000cd,
        type: 3}
      propertyPath: m_LocalRotation.z
      value: 0.0023419845
      objectReference: {fileID: 0}
    - target: {fileID: 1564860333797465651, guid: 243ef8b9ac1283a4db01e9237a3000cd,
        type: 3}
      propertyPath: m_LocalPosition.x
      value: 0.000014495038
      objectReference: {fileID: 0}
    - target: {fileID: 1564860333797465651, guid: 243ef8b9ac1283a4db01e9237a3000cd,
        type: 3}
      propertyPath: m_LocalPosition.y
      value: 0.028870707
      objectReference: {fileID: 0}
    - target: {fileID: 1564860333797465651, guid: 243ef8b9ac1283a4db01e9237a3000cd,
        type: 3}
      propertyPath: m_LocalPosition.z
      value: -0.000000013271222
      objectReference: {fileID: 0}
    - target: {fileID: 1564860333797465651, guid: 243ef8b9ac1283a4db01e9237a3000cd,
        type: 3}
      propertyPath: m_LocalRotation.w
      value: 0.97529596
      objectReference: {fileID: 0}
    - target: {fileID: 1564860333797465651, guid: 243ef8b9ac1283a4db01e9237a3000cd,
        type: 3}
      propertyPath: m_LocalRotation.x
      value: 0.21833004
      objectReference: {fileID: 0}
    - target: {fileID: 1564860333797465651, guid: 243ef8b9ac1283a4db01e9237a3000cd,
        type: 3}
      propertyPath: m_LocalRotation.y
      value: -0.032003593
      objectReference: {fileID: 0}
    - target: {fileID: 1564860333797465651, guid: 243ef8b9ac1283a4db01e9237a3000cd,
        type: 3}
      propertyPath: m_LocalRotation.z
      value: 0.01027475
      objectReference: {fileID: 0}
    - target: {fileID: 1852576806548013000, guid: 243ef8b9ac1283a4db01e9237a3000cd,
        type: 3}
      propertyPath: m_LocalPosition.x
      value: -0.00000005401646
      objectReference: {fileID: 0}
    - target: {fileID: 1852576806548013000, guid: 243ef8b9ac1283a4db01e9237a3000cd,
        type: 3}
      propertyPath: m_LocalPosition.y
      value: 0.26121688
      objectReference: {fileID: 0}
    - target: {fileID: 1852576806548013000, guid: 243ef8b9ac1283a4db01e9237a3000cd,
        type: 3}
      propertyPath: m_LocalPosition.z
      value: 0.000000104307276
      objectReference: {fileID: 0}
    - target: {fileID: 1852576806548013000, guid: 243ef8b9ac1283a4db01e9237a3000cd,
        type: 3}
      propertyPath: m_LocalRotation.w
      value: 0.98679906
      objectReference: {fileID: 0}
    - target: {fileID: 1852576806548013000, guid: 243ef8b9ac1283a4db01e9237a3000cd,
        type: 3}
      propertyPath: m_LocalRotation.x
      value: 0.098146066
      objectReference: {fileID: 0}
    - target: {fileID: 1852576806548013000, guid: 243ef8b9ac1283a4db01e9237a3000cd,
        type: 3}
      propertyPath: m_LocalRotation.y
      value: -0.10831822
      objectReference: {fileID: 0}
    - target: {fileID: 1852576806548013000, guid: 243ef8b9ac1283a4db01e9237a3000cd,
        type: 3}
      propertyPath: m_LocalRotation.z
      value: -0.069728546
      objectReference: {fileID: 0}
    - target: {fileID: 2242772157278016222, guid: 243ef8b9ac1283a4db01e9237a3000cd,
        type: 3}
      propertyPath: m_IsActive
      value: 1
      objectReference: {fileID: 0}
    - target: {fileID: 2559285840627121667, guid: 243ef8b9ac1283a4db01e9237a3000cd,
        type: 3}
      propertyPath: m_LocalPosition.y
      value: -0.054696083
      objectReference: {fileID: 0}
    - target: {fileID: 2559285840627121667, guid: 243ef8b9ac1283a4db01e9237a3000cd,
        type: 3}
      propertyPath: m_LocalPosition.z
      value: 0.012429147
      objectReference: {fileID: 0}
    - target: {fileID: 2559285840627121667, guid: 243ef8b9ac1283a4db01e9237a3000cd,
        type: 3}
      propertyPath: m_LocalRotation.w
      value: 0.048083805
      objectReference: {fileID: 0}
    - target: {fileID: 2559285840627121667, guid: 243ef8b9ac1283a4db01e9237a3000cd,
        type: 3}
      propertyPath: m_LocalRotation.x
      value: 0.07266081
      objectReference: {fileID: 0}
    - target: {fileID: 2559285840627121667, guid: 243ef8b9ac1283a4db01e9237a3000cd,
        type: 3}
      propertyPath: m_LocalRotation.y
      value: -0.018415904
      objectReference: {fileID: 0}
    - target: {fileID: 2559285840627121667, guid: 243ef8b9ac1283a4db01e9237a3000cd,
        type: 3}
      propertyPath: m_LocalRotation.z
      value: 0.9960267
      objectReference: {fileID: 0}
    - target: {fileID: 2563496969622287784, guid: 243ef8b9ac1283a4db01e9237a3000cd,
        type: 3}
      propertyPath: m_LocalPosition.x
      value: -0.000000037718436
      objectReference: {fileID: 0}
    - target: {fileID: 2563496969622287784, guid: 243ef8b9ac1283a4db01e9237a3000cd,
        type: 3}
      propertyPath: m_LocalPosition.y
      value: 0.24634874
      objectReference: {fileID: 0}
    - target: {fileID: 2563496969622287784, guid: 243ef8b9ac1283a4db01e9237a3000cd,
        type: 3}
      propertyPath: m_LocalPosition.z
      value: 0.00000010058204
      objectReference: {fileID: 0}
    - target: {fileID: 2563496969622287784, guid: 243ef8b9ac1283a4db01e9237a3000cd,
        type: 3}
      propertyPath: m_LocalRotation.w
      value: 0.99441564
      objectReference: {fileID: 0}
    - target: {fileID: 2563496969622287784, guid: 243ef8b9ac1283a4db01e9237a3000cd,
        type: 3}
      propertyPath: m_LocalRotation.x
      value: 0.009779063
      objectReference: {fileID: 0}
    - target: {fileID: 2563496969622287784, guid: 243ef8b9ac1283a4db01e9237a3000cd,
        type: 3}
      propertyPath: m_LocalRotation.y
      value: -0.051642302
      objectReference: {fileID: 0}
    - target: {fileID: 2563496969622287784, guid: 243ef8b9ac1283a4db01e9237a3000cd,
        type: 3}
      propertyPath: m_LocalRotation.z
      value: 0.091515176
      objectReference: {fileID: 0}
    - target: {fileID: 2916570863362053800, guid: 243ef8b9ac1283a4db01e9237a3000cd,
        type: 3}
      propertyPath: m_LocalPosition.x
      value: 0
      objectReference: {fileID: 0}
    - target: {fileID: 2916570863362053800, guid: 243ef8b9ac1283a4db01e9237a3000cd,
        type: 3}
      propertyPath: m_LocalPosition.y
      value: 0.19357818
      objectReference: {fileID: 0}
    - target: {fileID: 2916570863362053800, guid: 243ef8b9ac1283a4db01e9237a3000cd,
        type: 3}
      propertyPath: m_LocalPosition.z
      value: -0.00000008940698
      objectReference: {fileID: 0}
    - target: {fileID: 2916570863362053800, guid: 243ef8b9ac1283a4db01e9237a3000cd,
        type: 3}
      propertyPath: m_LocalRotation.w
      value: 0.94936717
      objectReference: {fileID: 0}
    - target: {fileID: 2916570863362053800, guid: 243ef8b9ac1283a4db01e9237a3000cd,
        type: 3}
      propertyPath: m_LocalRotation.x
      value: 0.31015652
      objectReference: {fileID: 0}
    - target: {fileID: 2916570863362053800, guid: 243ef8b9ac1283a4db01e9237a3000cd,
        type: 3}
      propertyPath: m_LocalRotation.y
      value: -0.04757604
      objectReference: {fileID: 0}
    - target: {fileID: 2916570863362053800, guid: 243ef8b9ac1283a4db01e9237a3000cd,
        type: 3}
      propertyPath: m_LocalRotation.z
      value: 0.015542969
      objectReference: {fileID: 0}
    - target: {fileID: 3183749884578473501, guid: 243ef8b9ac1283a4db01e9237a3000cd,
        type: 3}
      propertyPath: m_LocalPosition.x
      value: -0.000012885247
      objectReference: {fileID: 0}
    - target: {fileID: 3183749884578473501, guid: 243ef8b9ac1283a4db01e9237a3000cd,
        type: 3}
      propertyPath: m_LocalPosition.y
      value: 0.03266668
      objectReference: {fileID: 0}
    - target: {fileID: 3183749884578473501, guid: 243ef8b9ac1283a4db01e9237a3000cd,
        type: 3}
      propertyPath: m_LocalPosition.z
      value: 0.000000059138394
      objectReference: {fileID: 0}
    - target: {fileID: 3183749884578473501, guid: 243ef8b9ac1283a4db01e9237a3000cd,
        type: 3}
      propertyPath: m_LocalRotation.w
      value: 0.9882364
      objectReference: {fileID: 0}
    - target: {fileID: 3183749884578473501, guid: 243ef8b9ac1283a4db01e9237a3000cd,
        type: 3}
      propertyPath: m_LocalRotation.x
      value: 0.15194668
      objectReference: {fileID: 0}
    - target: {fileID: 3183749884578473501, guid: 243ef8b9ac1283a4db01e9237a3000cd,
        type: 3}
      propertyPath: m_LocalRotation.y
      value: -0.010565142
      objectReference: {fileID: 0}
    - target: {fileID: 3183749884578473501, guid: 243ef8b9ac1283a4db01e9237a3000cd,
        type: 3}
      propertyPath: m_LocalRotation.z
      value: 0.013763752
      objectReference: {fileID: 0}
    - target: {fileID: 3667946887678727147, guid: 243ef8b9ac1283a4db01e9237a3000cd,
        type: 3}
      propertyPath: m_LocalPosition.x
      value: -0.010528577
      objectReference: {fileID: 0}
    - target: {fileID: 3667946887678727147, guid: 243ef8b9ac1283a4db01e9237a3000cd,
        type: 3}
      propertyPath: m_LocalPosition.y
      value: 0.103939675
      objectReference: {fileID: 0}
    - target: {fileID: 3667946887678727147, guid: 243ef8b9ac1283a4db01e9237a3000cd,
        type: 3}
      propertyPath: m_LocalPosition.z
      value: -0.0016451657
      objectReference: {fileID: 0}
    - target: {fileID: 3667946887678727147, guid: 243ef8b9ac1283a4db01e9237a3000cd,
        type: 3}
      propertyPath: m_LocalRotation.w
      value: -0.99105537
      objectReference: {fileID: 0}
    - target: {fileID: 3667946887678727147, guid: 243ef8b9ac1283a4db01e9237a3000cd,
        type: 3}
      propertyPath: m_LocalRotation.x
      value: -0.11406269
      objectReference: {fileID: 0}
    - target: {fileID: 3667946887678727147, guid: 243ef8b9ac1283a4db01e9237a3000cd,
        type: 3}
      propertyPath: m_LocalRotation.y
      value: -0.040090762
      objectReference: {fileID: 0}
    - target: {fileID: 3667946887678727147, guid: 243ef8b9ac1283a4db01e9237a3000cd,
        type: 3}
      propertyPath: m_LocalRotation.z
      value: 0.056495685
      objectReference: {fileID: 0}
    - target: {fileID: 4037853739667003029, guid: 243ef8b9ac1283a4db01e9237a3000cd,
        type: 3}
      propertyPath: m_IsActive
      value: 1
      objectReference: {fileID: 0}
    - target: {fileID: 4473604930271593071, guid: 243ef8b9ac1283a4db01e9237a3000cd,
        type: 3}
      propertyPath: m_IsActive
      value: 1
      objectReference: {fileID: 0}
    - target: {fileID: 4747904710347621765, guid: 243ef8b9ac1283a4db01e9237a3000cd,
        type: 3}
      propertyPath: m_LocalPosition.x
      value: -0.032752354
      objectReference: {fileID: 0}
    - target: {fileID: 4747904710347621765, guid: 243ef8b9ac1283a4db01e9237a3000cd,
        type: 3}
      propertyPath: m_LocalPosition.y
      value: 0.09086009
      objectReference: {fileID: 0}
    - target: {fileID: 4747904710347621765, guid: 243ef8b9ac1283a4db01e9237a3000cd,
        type: 3}
      propertyPath: m_LocalPosition.z
      value: 0.002284371
      objectReference: {fileID: 0}
    - target: {fileID: 4747904710347621765, guid: 243ef8b9ac1283a4db01e9237a3000cd,
        type: 3}
      propertyPath: m_LocalRotation.w
      value: 0.97148806
      objectReference: {fileID: 0}
    - target: {fileID: 4747904710347621765, guid: 243ef8b9ac1283a4db01e9237a3000cd,
        type: 3}
      propertyPath: m_LocalRotation.x
      value: 0.21221362
      objectReference: {fileID: 0}
    - target: {fileID: 4747904710347621765, guid: 243ef8b9ac1283a4db01e9237a3000cd,
        type: 3}
      propertyPath: m_LocalRotation.y
      value: -0.020896692
      objectReference: {fileID: 0}
    - target: {fileID: 4747904710347621765, guid: 243ef8b9ac1283a4db01e9237a3000cd,
        type: 3}
      propertyPath: m_LocalRotation.z
      value: 0.103632
      objectReference: {fileID: 0}
    - target: {fileID: 5048025441337412694, guid: 243ef8b9ac1283a4db01e9237a3000cd,
        type: 3}
      propertyPath: m_LocalPosition.x
      value: 0.027410364
      objectReference: {fileID: 0}
    - target: {fileID: 5048025441337412694, guid: 243ef8b9ac1283a4db01e9237a3000cd,
        type: 3}
      propertyPath: m_LocalPosition.y
      value: 0.032168042
      objectReference: {fileID: 0}
    - target: {fileID: 5048025441337412694, guid: 243ef8b9ac1283a4db01e9237a3000cd,
        type: 3}
      propertyPath: m_LocalPosition.z
      value: 0.01315369
      objectReference: {fileID: 0}
    - target: {fileID: 5048025441337412694, guid: 243ef8b9ac1283a4db01e9237a3000cd,
        type: 3}
      propertyPath: m_LocalRotation.w
      value: 0.95987946
      objectReference: {fileID: 0}
    - target: {fileID: 5048025441337412694, guid: 243ef8b9ac1283a4db01e9237a3000cd,
        type: 3}
      propertyPath: m_LocalRotation.x
      value: 0.20689881
      objectReference: {fileID: 0}
    - target: {fileID: 5048025441337412694, guid: 243ef8b9ac1283a4db01e9237a3000cd,
        type: 3}
      propertyPath: m_LocalRotation.y
      value: -0.047577154
      objectReference: {fileID: 0}
    - target: {fileID: 5048025441337412694, guid: 243ef8b9ac1283a4db01e9237a3000cd,
        type: 3}
      propertyPath: m_LocalRotation.z
      value: -0.18319626
      objectReference: {fileID: 0}
    - target: {fileID: 5097370190579632962, guid: 243ef8b9ac1283a4db01e9237a3000cd,
        type: 3}
      propertyPath: m_LocalPosition.x
      value: 0.000011681216
      objectReference: {fileID: 0}
    - target: {fileID: 5097370190579632962, guid: 243ef8b9ac1283a4db01e9237a3000cd,
        type: 3}
      propertyPath: m_LocalPosition.y
      value: 0.02867137
      objectReference: {fileID: 0}
    - target: {fileID: 5097370190579632962, guid: 243ef8b9ac1283a4db01e9237a3000cd,
        type: 3}
      propertyPath: m_LocalPosition.z
      value: 0.000000026542423
      objectReference: {fileID: 0}
    - target: {fileID: 5097370190579632962, guid: 243ef8b9ac1283a4db01e9237a3000cd,
        type: 3}
      propertyPath: m_LocalRotation.w
      value: -0.9947826
      objectReference: {fileID: 0}
    - target: {fileID: 5097370190579632962, guid: 243ef8b9ac1283a4db01e9237a3000cd,
        type: 3}
      propertyPath: m_LocalRotation.x
      value: -0.101727925
      objectReference: {fileID: 0}
    - target: {fileID: 5097370190579632962, guid: 243ef8b9ac1283a4db01e9237a3000cd,
        type: 3}
      propertyPath: m_LocalRotation.y
      value: 0.000056773413
      objectReference: {fileID: 0}
    - target: {fileID: 5097370190579632962, guid: 243ef8b9ac1283a4db01e9237a3000cd,
        type: 3}
      propertyPath: m_LocalRotation.z
      value: 0.0076790885
      objectReference: {fileID: 0}
    - target: {fileID: 5372056943023685468, guid: 243ef8b9ac1283a4db01e9237a3000cd,
        type: 3}
      propertyPath: m_LocalPosition.x
      value: -0.000006255424
      objectReference: {fileID: 0}
    - target: {fileID: 5372056943023685468, guid: 243ef8b9ac1283a4db01e9237a3000cd,
        type: 3}
      propertyPath: m_LocalPosition.y
      value: 0.025733575
      objectReference: {fileID: 0}
    - target: {fileID: 5372056943023685468, guid: 243ef8b9ac1283a4db01e9237a3000cd,
        type: 3}
      propertyPath: m_LocalPosition.z
      value: 0.00000005331769
      objectReference: {fileID: 0}
    - target: {fileID: 5372056943023685468, guid: 243ef8b9ac1283a4db01e9237a3000cd,
        type: 3}
      propertyPath: m_LocalRotation.w
      value: -0.9813152
      objectReference: {fileID: 0}
    - target: {fileID: 5372056943023685468, guid: 243ef8b9ac1283a4db01e9237a3000cd,
        type: 3}
      propertyPath: m_LocalRotation.x
      value: -0.18959369
      objectReference: {fileID: 0}
    - target: {fileID: 5372056943023685468, guid: 243ef8b9ac1283a4db01e9237a3000cd,
        type: 3}
      propertyPath: m_LocalRotation.y
      value: -0.031870294
      objectReference: {fileID: 0}
    - target: {fileID: 5372056943023685468, guid: 243ef8b9ac1283a4db01e9237a3000cd,
        type: 3}
      propertyPath: m_LocalRotation.z
      value: 0.0076807863
      objectReference: {fileID: 0}
    - target: {fileID: 5465940246521907071, guid: 243ef8b9ac1283a4db01e9237a3000cd,
        type: 3}
      propertyPath: m_LocalPosition.x
      value: 0.0020866394
      objectReference: {fileID: 0}
    - target: {fileID: 5465940246521907071, guid: 243ef8b9ac1283a4db01e9237a3000cd,
        type: 3}
      propertyPath: m_LocalPosition.y
      value: 1.0813873
      objectReference: {fileID: 0}
    - target: {fileID: 5465940246521907071, guid: 243ef8b9ac1283a4db01e9237a3000cd,
        type: 3}
      propertyPath: m_LocalPosition.z
      value: 0.0154562
      objectReference: {fileID: 0}
    - target: {fileID: 5465940246521907071, guid: 243ef8b9ac1283a4db01e9237a3000cd,
        type: 3}
      propertyPath: m_LocalRotation.w
      value: 0.99999326
      objectReference: {fileID: 0}
    - target: {fileID: 5465940246521907071, guid: 243ef8b9ac1283a4db01e9237a3000cd,
        type: 3}
      propertyPath: m_LocalRotation.x
      value: -0.0008023899
      objectReference: {fileID: 0}
    - target: {fileID: 5465940246521907071, guid: 243ef8b9ac1283a4db01e9237a3000cd,
        type: 3}
      propertyPath: m_LocalRotation.y
      value: 0.003232909
      objectReference: {fileID: 0}
    - target: {fileID: 5465940246521907071, guid: 243ef8b9ac1283a4db01e9237a3000cd,
        type: 3}
      propertyPath: m_LocalRotation.z
      value: -0.0015206194
      objectReference: {fileID: 0}
    - target: {fileID: 5866666021909216657, guid: 243ef8b9ac1283a4db01e9237a3000cd,
        type: 3}
      propertyPath: m_Enabled
      value: 0
      objectReference: {fileID: 0}
    - target: {fileID: 5866666021909216657, guid: 243ef8b9ac1283a4db01e9237a3000cd,
        type: 3}
      propertyPath: m_Controller
      value: 
      objectReference: {fileID: 22100000, guid: c45f9c19269ec494583fd7cea81c8d7a,
        type: 2}
    - target: {fileID: 6000407479487422213, guid: 243ef8b9ac1283a4db01e9237a3000cd,
        type: 3}
      propertyPath: m_LocalPosition.x
      value: -0.00000003119927
      objectReference: {fileID: 0}
    - target: {fileID: 6000407479487422213, guid: 243ef8b9ac1283a4db01e9237a3000cd,
        type: 3}
      propertyPath: m_LocalPosition.y
      value: 0.14570992
      objectReference: {fileID: 0}
    - target: {fileID: 6000407479487422213, guid: 243ef8b9ac1283a4db01e9237a3000cd,
        type: 3}
      propertyPath: m_LocalPosition.z
      value: -0.000000037252786
      objectReference: {fileID: 0}
    - target: {fileID: 6000407479487422213, guid: 243ef8b9ac1283a4db01e9237a3000cd,
        type: 3}
      propertyPath: m_LocalRotation.w
      value: 0.89912635
      objectReference: {fileID: 0}
    - target: {fileID: 6000407479487422213, guid: 243ef8b9ac1283a4db01e9237a3000cd,
        type: 3}
      propertyPath: m_LocalRotation.x
      value: 0.3719924
      objectReference: {fileID: 0}
    - target: {fileID: 6000407479487422213, guid: 243ef8b9ac1283a4db01e9237a3000cd,
        type: 3}
      propertyPath: m_LocalRotation.y
      value: 0.23062742
      objectReference: {fileID: 0}
    - target: {fileID: 6000407479487422213, guid: 243ef8b9ac1283a4db01e9237a3000cd,
        type: 3}
      propertyPath: m_LocalRotation.z
      value: -0.0021169658
      objectReference: {fileID: 0}
    - target: {fileID: 6341119541397085964, guid: 243ef8b9ac1283a4db01e9237a3000cd,
        type: 3}
      propertyPath: m_LocalPosition.x
      value: -0.000014418187
      objectReference: {fileID: 0}
    - target: {fileID: 6341119541397085964, guid: 243ef8b9ac1283a4db01e9237a3000cd,
        type: 3}
      propertyPath: m_LocalPosition.y
      value: 0.03464358
      objectReference: {fileID: 0}
    - target: {fileID: 6341119541397085964, guid: 243ef8b9ac1283a4db01e9237a3000cd,
        type: 3}
      propertyPath: m_LocalPosition.z
      value: 0.000000035389906
      objectReference: {fileID: 0}
    - target: {fileID: 6341119541397085964, guid: 243ef8b9ac1283a4db01e9237a3000cd,
        type: 3}
      propertyPath: m_LocalRotation.w
      value: -0.989588
      objectReference: {fileID: 0}
    - target: {fileID: 6341119541397085964, guid: 243ef8b9ac1283a4db01e9237a3000cd,
        type: 3}
      propertyPath: m_LocalRotation.x
      value: -0.13983545
      objectReference: {fileID: 0}
    - target: {fileID: 6341119541397085964, guid: 243ef8b9ac1283a4db01e9237a3000cd,
        type: 3}
      propertyPath: m_LocalRotation.y
      value: -0.033875488
      objectReference: {fileID: 0}
    - target: {fileID: 6341119541397085964, guid: 243ef8b9ac1283a4db01e9237a3000cd,
        type: 3}
      propertyPath: m_LocalRotation.z
      value: 0.0037536619
      objectReference: {fileID: 0}
    - target: {fileID: 6502182839619065283, guid: 243ef8b9ac1283a4db01e9237a3000cd,
        type: 3}
      propertyPath: m_LocalPosition.x
      value: 0.000000046565887
      objectReference: {fileID: 0}
    - target: {fileID: 6502182839619065283, guid: 243ef8b9ac1283a4db01e9237a3000cd,
        type: 3}
      propertyPath: m_LocalPosition.y
      value: 0.2616104
      objectReference: {fileID: 0}
    - target: {fileID: 6502182839619065283, guid: 243ef8b9ac1283a4db01e9237a3000cd,
        type: 3}
      propertyPath: m_LocalPosition.z
      value: 0.000000093131355
      objectReference: {fileID: 0}
    - target: {fileID: 6502182839619065283, guid: 243ef8b9ac1283a4db01e9237a3000cd,
        type: 3}
      propertyPath: m_LocalRotation.w
      value: 0.96440256
      objectReference: {fileID: 0}
    - target: {fileID: 6502182839619065283, guid: 243ef8b9ac1283a4db01e9237a3000cd,
        type: 3}
      propertyPath: m_LocalRotation.x
      value: 0.10572273
      objectReference: {fileID: 0}
    - target: {fileID: 6502182839619065283, guid: 243ef8b9ac1283a4db01e9237a3000cd,
        type: 3}
      propertyPath: m_LocalRotation.y
      value: 0.23542295
      objectReference: {fileID: 0}
    - target: {fileID: 6502182839619065283, guid: 243ef8b9ac1283a4db01e9237a3000cd,
        type: 3}
      propertyPath: m_LocalRotation.z
      value: 0.057674985
      objectReference: {fileID: 0}
    - target: {fileID: 6515712193588681746, guid: 243ef8b9ac1283a4db01e9237a3000cd,
        type: 3}
      propertyPath: m_LocalPosition.x
      value: -1.4730078e-11
      objectReference: {fileID: 0}
    - target: {fileID: 6515712193588681746, guid: 243ef8b9ac1283a4db01e9237a3000cd,
        type: 3}
      propertyPath: m_LocalPosition.z
      value: -0.000000007450567
      objectReference: {fileID: 0}
    - target: {fileID: 6515712193588681746, guid: 243ef8b9ac1283a4db01e9237a3000cd,
        type: 3}
      propertyPath: m_LocalRotation.w
      value: 0.9882055
      objectReference: {fileID: 0}
    - target: {fileID: 6515712193588681746, guid: 243ef8b9ac1283a4db01e9237a3000cd,
        type: 3}
      propertyPath: m_LocalRotation.x
      value: 0.1529921
      objectReference: {fileID: 0}
    - target: {fileID: 6515712193588681746, guid: 243ef8b9ac1283a4db01e9237a3000cd,
        type: 3}
      propertyPath: m_LocalRotation.y
      value: 0.0052052126
      objectReference: {fileID: 0}
    - target: {fileID: 6515712193588681746, guid: 243ef8b9ac1283a4db01e9237a3000cd,
        type: 3}
      propertyPath: m_LocalRotation.z
      value: -0.004024817
      objectReference: {fileID: 0}
    - target: {fileID: 6655383506977046455, guid: 243ef8b9ac1283a4db01e9237a3000cd,
        type: 3}
      propertyPath: m_LocalPosition.x
      value: 0.0000012295721
      objectReference: {fileID: 0}
    - target: {fileID: 6655383506977046455, guid: 243ef8b9ac1283a4db01e9237a3000cd,
        type: 3}
      propertyPath: m_LocalPosition.y
      value: 0.025510581
      objectReference: {fileID: 0}
    - target: {fileID: 6655383506977046455, guid: 243ef8b9ac1283a4db01e9237a3000cd,
        type: 3}
      propertyPath: m_LocalPosition.z
      value: 0.000000030500512
      objectReference: {fileID: 0}
    - target: {fileID: 6655383506977046455, guid: 243ef8b9ac1283a4db01e9237a3000cd,
        type: 3}
      propertyPath: m_LocalRotation.w
      value: 0.9843565
      objectReference: {fileID: 0}
    - target: {fileID: 6655383506977046455, guid: 243ef8b9ac1283a4db01e9237a3000cd,
        type: 3}
      propertyPath: m_LocalRotation.x
      value: 0.17264414
      objectReference: {fileID: 0}
    - target: {fileID: 6655383506977046455, guid: 243ef8b9ac1283a4db01e9237a3000cd,
        type: 3}
      propertyPath: m_LocalRotation.y
      value: -0.034787823
      objectReference: {fileID: 0}
    - target: {fileID: 6655383506977046455, guid: 243ef8b9ac1283a4db01e9237a3000cd,
        type: 3}
      propertyPath: m_LocalRotation.z
      value: 0.0051110373
      objectReference: {fileID: 0}
    - target: {fileID: 7078722787440015773, guid: 243ef8b9ac1283a4db01e9237a3000cd,
        type: 3}
      propertyPath: m_LocalPosition.y
      value: 0.12134334
      objectReference: {fileID: 0}
    - target: {fileID: 7078722787440015773, guid: 243ef8b9ac1283a4db01e9237a3000cd,
        type: 3}
      propertyPath: m_LocalPosition.z
      value: -0.003293078
      objectReference: {fileID: 0}
    - target: {fileID: 7078722787440015773, guid: 243ef8b9ac1283a4db01e9237a3000cd,
        type: 3}
      propertyPath: m_LocalRotation.w
      value: -0.45529625
      objectReference: {fileID: 0}
    - target: {fileID: 7078722787440015773, guid: 243ef8b9ac1283a4db01e9237a3000cd,
        type: 3}
      propertyPath: m_LocalRotation.x
      value: -0.6773455
      objectReference: {fileID: 0}
    - target: {fileID: 7078722787440015773, guid: 243ef8b9ac1283a4db01e9237a3000cd,
        type: 3}
      propertyPath: m_LocalRotation.y
      value: -0.22786732
      objectReference: {fileID: 0}
    - target: {fileID: 7078722787440015773, guid: 243ef8b9ac1283a4db01e9237a3000cd,
        type: 3}
      propertyPath: m_LocalRotation.z
      value: 0.5310225
      objectReference: {fileID: 0}
    - target: {fileID: 7666680083751660616, guid: 243ef8b9ac1283a4db01e9237a3000cd,
        type: 3}
      propertyPath: m_LocalPosition.x
      value: 0.000030097279
      objectReference: {fileID: 0}
    - target: {fileID: 7666680083751660616, guid: 243ef8b9ac1283a4db01e9237a3000cd,
        type: 3}
      propertyPath: m_LocalPosition.y
      value: 0.027919281
      objectReference: {fileID: 0}
    - target: {fileID: 7666680083751660616, guid: 243ef8b9ac1283a4db01e9237a3000cd,
        type: 3}
      propertyPath: m_LocalPosition.z
      value: -0.00000004423739
      objectReference: {fileID: 0}
    - target: {fileID: 7666680083751660616, guid: 243ef8b9ac1283a4db01e9237a3000cd,
        type: 3}
      propertyPath: m_LocalRotation.w
      value: 0.98170495
      objectReference: {fileID: 0}
    - target: {fileID: 7666680083751660616, guid: 243ef8b9ac1283a4db01e9237a3000cd,
        type: 3}
      propertyPath: m_LocalRotation.x
      value: 0.18909179
      objectReference: {fileID: 0}
    - target: {fileID: 7666680083751660616, guid: 243ef8b9ac1283a4db01e9237a3000cd,
        type: 3}
      propertyPath: m_LocalRotation.y
      value: -0.019916318
      objectReference: {fileID: 0}
    - target: {fileID: 7666680083751660616, guid: 243ef8b9ac1283a4db01e9237a3000cd,
        type: 3}
      propertyPath: m_LocalRotation.z
      value: 0.010151546
      objectReference: {fileID: 0}
    - target: {fileID: 7857691292118297344, guid: 243ef8b9ac1283a4db01e9237a3000cd,
        type: 3}
      propertyPath: m_IsActive
      value: 1
      objectReference: {fileID: 0}
    - target: {fileID: 8169382868667117632, guid: 243ef8b9ac1283a4db01e9237a3000cd,
        type: 3}
      propertyPath: m_LocalPosition.y
      value: -0.054696083
      objectReference: {fileID: 0}
    - target: {fileID: 8169382868667117632, guid: 243ef8b9ac1283a4db01e9237a3000cd,
        type: 3}
      propertyPath: m_LocalRotation.w
      value: -0.04243867
      objectReference: {fileID: 0}
    - target: {fileID: 8169382868667117632, guid: 243ef8b9ac1283a4db01e9237a3000cd,
        type: 3}
      propertyPath: m_LocalRotation.x
      value: 0.022478428
      objectReference: {fileID: 0}
    - target: {fileID: 8169382868667117632, guid: 243ef8b9ac1283a4db01e9237a3000cd,
        type: 3}
      propertyPath: m_LocalRotation.y
      value: -0.011138812
      objectReference: {fileID: 0}
    - target: {fileID: 8169382868667117632, guid: 243ef8b9ac1283a4db01e9237a3000cd,
        type: 3}
      propertyPath: m_LocalRotation.z
      value: 0.9987841
      objectReference: {fileID: 0}
    - target: {fileID: 8255111157037086696, guid: 243ef8b9ac1283a4db01e9237a3000cd,
        type: 3}
      propertyPath: m_LocalPosition.x
      value: 0.00889193
      objectReference: {fileID: 0}
    - target: {fileID: 8255111157037086696, guid: 243ef8b9ac1283a4db01e9237a3000cd,
        type: 3}
      propertyPath: m_LocalPosition.y
      value: 0.10355213
      objectReference: {fileID: 0}
    - target: {fileID: 8255111157037086696, guid: 243ef8b9ac1283a4db01e9237a3000cd,
        type: 3}
      propertyPath: m_LocalPosition.z
      value: -0.0003413684
      objectReference: {fileID: 0}
    - target: {fileID: 8255111157037086696, guid: 243ef8b9ac1283a4db01e9237a3000cd,
        type: 3}
      propertyPath: m_LocalRotation.w
      value: 0.9961267
      objectReference: {fileID: 0}
    - target: {fileID: 8255111157037086696, guid: 243ef8b9ac1283a4db01e9237a3000cd,
        type: 3}
      propertyPath: m_LocalRotation.x
      value: 0.08132713
      objectReference: {fileID: 0}
    - target: {fileID: 8255111157037086696, guid: 243ef8b9ac1283a4db01e9237a3000cd,
        type: 3}
      propertyPath: m_LocalRotation.y
      value: -0.020826286
      objectReference: {fileID: 0}
    - target: {fileID: 8255111157037086696, guid: 243ef8b9ac1283a4db01e9237a3000cd,
        type: 3}
      propertyPath: m_LocalRotation.z
      value: 0.026150722
      objectReference: {fileID: 0}
    - target: {fileID: 8447082967072642302, guid: 243ef8b9ac1283a4db01e9237a3000cd,
        type: 3}
      propertyPath: m_LocalPosition.x
      value: -0.027902277
      objectReference: {fileID: 0}
    - target: {fileID: 8447082967072642302, guid: 243ef8b9ac1283a4db01e9237a3000cd,
        type: 3}
      propertyPath: m_LocalPosition.y
      value: 0.032682918
      objectReference: {fileID: 0}
    - target: {fileID: 8447082967072642302, guid: 243ef8b9ac1283a4db01e9237a3000cd,
        type: 3}
      propertyPath: m_LocalPosition.z
      value: 0.013628223
      objectReference: {fileID: 0}
    - target: {fileID: 8447082967072642302, guid: 243ef8b9ac1283a4db01e9237a3000cd,
        type: 3}
      propertyPath: m_LocalRotation.w
      value: 0.95535296
      objectReference: {fileID: 0}
    - target: {fileID: 8447082967072642302, guid: 243ef8b9ac1283a4db01e9237a3000cd,
        type: 3}
      propertyPath: m_LocalRotation.x
      value: 0.21132374
      objectReference: {fileID: 0}
    - target: {fileID: 8447082967072642302, guid: 243ef8b9ac1283a4db01e9237a3000cd,
        type: 3}
      propertyPath: m_LocalRotation.y
      value: 0.03931824
      objectReference: {fileID: 0}
    - target: {fileID: 8447082967072642302, guid: 243ef8b9ac1283a4db01e9237a3000cd,
        type: 3}
      propertyPath: m_LocalRotation.z
      value: 0.20272434
      objectReference: {fileID: 0}
    - target: {fileID: 8590658337484000983, guid: 243ef8b9ac1283a4db01e9237a3000cd,
        type: 3}
      propertyPath: m_IsActive
      value: 1
      objectReference: {fileID: 0}
    - target: {fileID: 8906618599915883915, guid: 243ef8b9ac1283a4db01e9237a3000cd,
        type: 3}
      propertyPath: m_IsActive
      value: 1
      objectReference: {fileID: 0}
    m_RemovedComponents: []
  m_SourcePrefab: {fileID: 100100000, guid: 243ef8b9ac1283a4db01e9237a3000cd, type: 3}
--- !u!1001 &2760399292330855174
PrefabInstance:
  m_ObjectHideFlags: 0
  serializedVersion: 2
  m_Modification:
    m_TransformParent: {fileID: 0}
    m_Modifications:
    - target: {fileID: 623150813728196135, guid: 57a7fcc8445f63542ad17c6297f481b9,
        type: 3}
      propertyPath: m_RootOrder
      value: 3
      objectReference: {fileID: 0}
    - target: {fileID: 623150814112471399, guid: 57a7fcc8445f63542ad17c6297f481b9,
        type: 3}
      propertyPath: m_RootOrder
      value: 6
      objectReference: {fileID: 0}
    - target: {fileID: 623150814890543157, guid: 57a7fcc8445f63542ad17c6297f481b9,
        type: 3}
      propertyPath: m_RootOrder
      value: 2
      objectReference: {fileID: 0}
    - target: {fileID: 623150815092121124, guid: 57a7fcc8445f63542ad17c6297f481b9,
        type: 3}
      propertyPath: m_RootOrder
      value: 0
      objectReference: {fileID: 0}
    - target: {fileID: 623150815092121124, guid: 57a7fcc8445f63542ad17c6297f481b9,
        type: 3}
      propertyPath: m_LocalPosition.y
      value: 1.791
      objectReference: {fileID: 0}
    - target: {fileID: 3868326098092834985, guid: 57a7fcc8445f63542ad17c6297f481b9,
        type: 3}
      propertyPath: m_Avatar
      value: 
      objectReference: {fileID: 9000000, guid: 243ef8b9ac1283a4db01e9237a3000cd, type: 3}
    - target: {fileID: 3868326098092834985, guid: 57a7fcc8445f63542ad17c6297f481b9,
        type: 3}
      propertyPath: m_Controller
      value: 
      objectReference: {fileID: 22100000, guid: c45f9c19269ec494583fd7cea81c8d7a,
        type: 2}
    - target: {fileID: 4059717616814757512, guid: 57a7fcc8445f63542ad17c6297f481b9,
        type: 3}
      propertyPath: m_RootOrder
      value: 0
      objectReference: {fileID: 0}
    - target: {fileID: 4059717616814757512, guid: 57a7fcc8445f63542ad17c6297f481b9,
        type: 3}
      propertyPath: m_LocalPosition.x
      value: -15.277542
      objectReference: {fileID: 0}
    - target: {fileID: 4059717616814757512, guid: 57a7fcc8445f63542ad17c6297f481b9,
        type: 3}
      propertyPath: m_LocalPosition.y
      value: 0
      objectReference: {fileID: 0}
    - target: {fileID: 4059717616814757512, guid: 57a7fcc8445f63542ad17c6297f481b9,
        type: 3}
      propertyPath: m_LocalPosition.z
      value: -15.286964
      objectReference: {fileID: 0}
    - target: {fileID: 4059717616814757512, guid: 57a7fcc8445f63542ad17c6297f481b9,
        type: 3}
      propertyPath: m_LocalRotation.w
      value: 0
      objectReference: {fileID: 0}
    - target: {fileID: 4059717616814757512, guid: 57a7fcc8445f63542ad17c6297f481b9,
        type: 3}
      propertyPath: m_LocalRotation.x
      value: -0
      objectReference: {fileID: 0}
    - target: {fileID: 4059717616814757512, guid: 57a7fcc8445f63542ad17c6297f481b9,
        type: 3}
      propertyPath: m_LocalRotation.y
      value: 1
      objectReference: {fileID: 0}
    - target: {fileID: 4059717616814757512, guid: 57a7fcc8445f63542ad17c6297f481b9,
        type: 3}
      propertyPath: m_LocalRotation.z
      value: -0
      objectReference: {fileID: 0}
    - target: {fileID: 4059717616814757512, guid: 57a7fcc8445f63542ad17c6297f481b9,
        type: 3}
      propertyPath: m_LocalEulerAnglesHint.x
      value: 0
      objectReference: {fileID: 0}
    - target: {fileID: 4059717616814757512, guid: 57a7fcc8445f63542ad17c6297f481b9,
        type: 3}
      propertyPath: m_LocalEulerAnglesHint.y
      value: 180
      objectReference: {fileID: 0}
    - target: {fileID: 4059717616814757512, guid: 57a7fcc8445f63542ad17c6297f481b9,
        type: 3}
      propertyPath: m_LocalEulerAnglesHint.z
      value: 0
      objectReference: {fileID: 0}
    - target: {fileID: 4059717616814757516, guid: 57a7fcc8445f63542ad17c6297f481b9,
        type: 3}
      propertyPath: m_Name
      value: DialogueNPC_Soldier Variant
      objectReference: {fileID: 0}
    - target: {fileID: 4059717616814757516, guid: 57a7fcc8445f63542ad17c6297f481b9,
        type: 3}
      propertyPath: m_IsActive
      value: 1
      objectReference: {fileID: 0}
    - target: {fileID: 4789261475536079237, guid: 57a7fcc8445f63542ad17c6297f481b9,
        type: 3}
      propertyPath: m_RootOrder
      value: 4
      objectReference: {fileID: 0}
    - target: {fileID: 4789261475536079237, guid: 57a7fcc8445f63542ad17c6297f481b9,
        type: 3}
      propertyPath: m_LocalPosition.y
      value: 2
      objectReference: {fileID: 0}
    - target: {fileID: 6989288902420054789, guid: 57a7fcc8445f63542ad17c6297f481b9,
        type: 3}
      propertyPath: m_IsActive
      value: 0
      objectReference: {fileID: 0}
    - target: {fileID: 7212403791484602596, guid: 57a7fcc8445f63542ad17c6297f481b9,
        type: 3}
      propertyPath: m_RootOrder
      value: 1
      objectReference: {fileID: 0}
    - target: {fileID: 8973914364925663965, guid: 57a7fcc8445f63542ad17c6297f481b9,
        type: 3}
      propertyPath: actorName
      value: "\u0421\u043E\u043B\u0434\u0430\u0442"
      objectReference: {fileID: 0}
    - target: {fileID: 8973914364925663965, guid: 57a7fcc8445f63542ad17c6297f481b9,
        type: 3}
      propertyPath: dialogueFileName
      value: Commander
      objectReference: {fileID: 0}
    m_RemovedComponents: []
  m_SourcePrefab: {fileID: 100100000, guid: 57a7fcc8445f63542ad17c6297f481b9, type: 3}
--- !u!4 &2169023279417613710 stripped
Transform:
  m_CorrespondingSourceObject: {fileID: 4059717616814757512, guid: 57a7fcc8445f63542ad17c6297f481b9,
    type: 3}
  m_PrefabInstance: {fileID: 2760399292330855174}
  m_PrefabAsset: {fileID: 0}
